<?xml version="1.0" encoding="utf-8"?>
<!-- Generator: Adobe Illustrator 24.1.2, SVG Export Plug-In . SVG Version: 6.00 Build 0)  -->
<svg version="1.1" id="Layer_1" xmlns="http://www.w3.org/2000/svg" xmlns:xlink="http://www.w3.org/1999/xlink" x="0px" y="0px"
	 viewBox="0 0 630 900" style="enable-background:new 0 0 630 900;" xml:space="preserve">
<style type="text/css">
	.st0{fill:#FFFFFF;}
	.st1{fill:#5FB49C;}
	.st2{fill:#77877A;}
	.st3{fill:#B2EF9B;}
</style>
<g>
	<path id="XMLID_9599_" class="st0" d="M536.3,242.1c-15.7,10.1-20.2,30.9-10.2,46.6c10.1,15.7,30.9,20.2,46.6,10.2
		c15.7-10.1,20.2-30.9,10.2-46.6C572.9,236.6,552,232,536.3,242.1z"/>
	<path id="XMLID_9603_" class="st0" d="M720.1,164.2c-58.7-91.5-180.4-118-271.8-59.4s-118,180.4-59.4,271.8
		c58.7,91.5,180.4,118,271.8,59.4C752.2,377.4,778.8,255.7,720.1,164.2z M706.4,376.5c-4.8,6.9-14.4,8.6-21.4,3.8
		c-6.9-4.8-8.6-14.4-3.8-21.4c4.8-6.9,14.4-8.6,21.4-3.8C709.5,360,711.2,369.5,706.4,376.5z M735.4,310c-1.8,8.3-10,13.5-18.3,11.7
		c-8.3-1.8-13.5-10-11.7-18.3c1.8-8.3,10-13.5,18.3-11.7C732,293.5,737.2,301.7,735.4,310z M736.8,238.1c1.5,8.3-4.1,16.3-12.4,17.8
		c-8.3,1.5-16.3-4.1-17.8-12.4c-1.5-8.3,4.1-16.3,12.4-17.8S735.4,229.7,736.8,238.1z M689.2,165.9c7.1-4.6,16.6-2.5,21.2,4.6
		c4.6,7.1,2.5,16.6-4.6,21.2c-7.1,4.6-16.6,2.5-21.2-4.6C680,179.9,682.1,170.4,689.2,165.9z M639.2,122.4
		c4.8-6.9,14.4-8.6,21.4-3.8c6.9,4.8,8.6,14.4,3.8,21.4s-14.4,8.6-21.4,3.8C636,138.9,634.3,129.4,639.2,122.4z M575.8,101.3
		c1.8-8.3,10-13.5,18.3-11.7c8.3,1.8,13.5,10,11.7,18.3c-1.8,8.3-10,13.5-18.3,11.7C579.2,117.7,574,109.5,575.8,101.3z M522.2,88.2
		c8.3-1.5,16.3,4.1,17.8,12.4c1.5,8.3-4.1,16.3-12.4,17.8c-8.3,1.5-16.3-4.1-17.8-12.4C508.3,97.6,513.8,89.6,522.2,88.2z
		 M454.6,114.6c7.1-4.6,16.6-2.5,21.2,4.6c4.6,7.1,2.5,16.6-4.6,21.2c-7.1,4.6-16.6,2.5-21.2-4.6
		C445.4,128.7,447.4,119.2,454.6,114.6z M402.7,164.4c4.8-6.9,14.4-8.6,21.4-3.8c6.9,4.8,8.6,14.4,3.8,21.4
		c-4.8,6.9-14.4,8.6-21.4,3.8C399.6,181,397.9,171.4,402.7,164.4z M373.7,230.9c1.8-8.3,10-13.5,18.3-11.7
		c8.3,1.8,13.5,10,11.7,18.3c-1.8,8.3-10,13.5-18.3,11.7C377.1,247.4,371.8,239.2,373.7,230.9z M372.2,302.8
		c-1.5-8.3,4.1-16.3,12.4-17.8c8.3-1.5,16.3,4.1,17.8,12.4c1.5,8.3-4.1,16.3-12.4,17.8C381.7,316.7,373.7,311.2,372.2,302.8z
		 M419.9,375.1c-7.1,4.6-16.6,2.5-21.2-4.6c-4.6-7.1-2.5-16.6,4.6-21.2c7.1-4.6,16.6-2.5,21.2,4.6C429.1,361,427,370.5,419.9,375.1z
		 M469.9,418.5c-4.8,6.9-14.4,8.6-21.4,3.8c-6.9-4.8-8.6-14.4-3.8-21.4c4.8-6.9,14.4-8.6,21.4-3.8C473,402,474.7,411.5,469.9,418.5z
		 M533.3,439.6c-1.8,8.3-10,13.5-18.3,11.7c-8.3-1.8-13.5-10-11.7-18.3c1.8-8.3,10-13.5,18.3-11.7
		C529.9,423.2,535.1,431.4,533.3,439.6z M586.9,452.8c-8.3,1.5-16.3-4.1-17.8-12.4c-1.5-8.3,4.1-16.3,12.4-17.8
		c8.3-1.5,16.3,4.1,17.8,12.4C600.8,443.3,595.3,451.3,586.9,452.8z M436.9,346c-41.7-65-22.8-151.5,42.2-193.2S630.5,130,672.2,195
		c41.7,65,22.8,151.5-42.2,193.2C565,429.8,478.6,410.9,436.9,346z M654.5,426.3c-7.1,4.6-16.6,2.5-21.2-4.6
		c-4.6-7.1-2.5-16.6,4.6-21.2c7.1-4.6,16.6-2.5,21.2,4.6C663.7,412.2,661.6,421.7,654.5,426.3z"/>
	<path id="XMLID_10311_" class="st1" d="M672.2,195C630.5,130,544,111.1,479,152.8S395.2,281,436.9,346
		c41.7,65,128.2,83.9,193.2,42.2C695,346.4,713.9,260,672.2,195z M572.8,298.8c-15.7,10.1-36.5,5.5-46.6-10.2
		c-10.1-15.7-5.5-36.5,10.2-46.6c15.7-10.1,36.5-5.5,46.6,10.2C593,267.9,588.4,288.8,572.8,298.8z"/>
	<path id="XMLID_10312_" class="st1" d="M659.1,405.1c-4.6-7.1-14.1-9.2-21.2-4.6c-7.1,4.6-9.2,14.1-4.6,21.2
		c4.6,7.1,14.1,9.2,21.2,4.6C661.6,421.7,663.7,412.2,659.1,405.1z"/>
	<path id="XMLID_10313_" class="st1" d="M471.1,140.4c7.1-4.6,9.2-14.1,4.6-21.2c-4.6-7.1-14.1-9.2-21.2-4.6
		c-7.1,4.6-9.2,14.1-4.6,21.2C454.5,142.9,464,145,471.1,140.4z"/>
	<path id="XMLID_10314_" class="st1" d="M705.8,191.7c7.1-4.6,9.2-14.1,4.6-21.2c-4.6-7.1-14.1-9.2-21.2-4.6s-9.2,14.1-4.6,21.2
		C689.1,194.2,698.6,196.2,705.8,191.7z"/>
	<path id="XMLID_10315_" class="st1" d="M403.3,349.2c-7.1,4.6-9.2,14.1-4.6,21.2c4.6,7.1,14.1,9.2,21.2,4.6
		c7.1-4.6,9.2-14.1,4.6-21.2C419.9,346.7,410.5,344.7,403.3,349.2z"/>
	<path id="XMLID_10316_" class="st1" d="M723.7,291.7c-8.3-1.8-16.4,3.4-18.3,11.7c-1.8,8.3,3.4,16.4,11.7,18.3
		c8.3,1.8,16.4-3.4,18.3-11.7C737.2,301.7,732,293.5,723.7,291.7z"/>
	<path id="XMLID_10317_" class="st1" d="M385.4,249.2c8.3,1.8,16.4-3.4,18.3-11.7c1.8-8.3-3.4-16.4-11.7-18.3
		c-8.3-1.8-16.4,3.4-18.3,11.7S377.1,247.4,385.4,249.2z"/>
	<path id="XMLID_10318_" class="st1" d="M587.5,119.5c8.3,1.8,16.4-3.4,18.3-11.7c1.8-8.3-3.4-16.4-11.7-18.3
		c-8.3-1.8-16.4,3.4-18.3,11.7C574,109.5,579.2,117.7,587.5,119.5z"/>
	<path id="XMLID_10319_" class="st1" d="M521.6,421.4c-8.3-1.8-16.4,3.4-18.3,11.7c-1.8,8.3,3.4,16.4,11.7,18.3
		c8.3,1.8,16.4-3.4,18.3-11.7C535.1,431.4,529.9,423.2,521.6,421.4z"/>
	<path id="XMLID_10320_" class="st1" d="M702.6,355.1c-6.9-4.8-16.5-3.2-21.4,3.8c-4.8,6.9-3.2,16.5,3.8,21.4
		c6.9,4.8,16.5,3.2,21.4-3.8C711.2,369.5,709.5,360,702.6,355.1z"/>
	<path id="XMLID_10321_" class="st1" d="M406.5,185.8c6.9,4.8,16.5,3.2,21.4-3.8c4.8-6.9,3.2-16.5-3.8-21.4
		c-6.9-4.8-16.5-3.2-21.4,3.8C397.9,171.4,399.6,181,406.5,185.8z"/>
	<path id="XMLID_10322_" class="st1" d="M643,143.8c6.9,4.8,16.5,3.2,21.4-3.8s3.2-16.5-3.8-21.4c-6.9-4.8-16.5-3.2-21.4,3.8
		C634.3,129.4,636,138.9,643,143.8z"/>
	<path id="XMLID_10323_" class="st1" d="M466.1,397.1c-6.9-4.8-16.5-3.2-21.4,3.8c-4.8,6.9-3.2,16.5,3.8,21.4
		c6.9,4.8,16.5,3.2,21.4-3.8C474.7,411.5,473,402,466.1,397.1z"/>
	<path id="XMLID_10324_" class="st1" d="M706.6,243.4c1.5,8.3,9.4,13.9,17.8,12.4c8.3-1.5,13.9-9.4,12.4-17.8
		c-1.5-8.3-9.4-13.9-17.8-12.4S705.2,235.1,706.6,243.4z"/>
	<path id="XMLID_10325_" class="st1" d="M402.4,297.5c-1.5-8.3-9.4-13.9-17.8-12.4c-8.3,1.5-13.9,9.4-12.4,17.8
		c1.5,8.3,9.4,13.9,17.8,12.4C398.4,313.8,403.9,305.8,402.4,297.5z"/>
	<path id="XMLID_10326_" class="st1" d="M527.5,118.4c8.3-1.5,13.9-9.4,12.4-17.8c-1.5-8.3-9.4-13.9-17.8-12.4
		c-8.3,1.5-13.9,9.4-12.4,17.8C511.2,114.3,519.2,119.8,527.5,118.4z"/>
	<path id="XMLID_10327_" class="st1" d="M581.6,422.6c-8.3,1.5-13.9,9.4-12.4,17.8c1.5,8.3,9.4,13.9,17.8,12.4
		c8.3-1.5,13.9-9.4,12.4-17.8C597.9,426.6,589.9,421.1,581.6,422.6z"/>
	<path id="XMLID_10330_" class="st1" d="M574.8,491.3l4.1,22.6l37.6-6.8l-4.1-22.6c15.5-4.2,30.7-10.1,45.3-17.8l12.4,19.4
		l32.2-20.6l-12.4-19.4c13.1-10.1,24.9-21.4,35.1-33.7l18.8,13.1l21.8-31.4l-18.9-13.1c8.1-14.2,14.6-29.2,19.4-44.6l22.5,4.9
		l8.2-37.4l-22.5-4.9c2.1-16.1,2.4-32.4,1-48.7l22.6-4.1l-6.8-37.6l-22.6,4.1c-4.2-15.5-10.1-30.7-17.8-45.3l19.4-12.4l-20.6-32.2
		l-19.4,12.4c-10.1-13.1-21.4-24.9-33.7-35.1l13.1-18.8l-31.4-21.8L665,78.1c-14.2-8.1-29.2-14.6-44.6-19.4l4.9-22.5l-37.4-8.2
		L583,50.6c-16.1-2.1-32.4-2.4-48.7-1L530.3,27l-37.6,6.8l4.1,22.6c-15.5,4.2-30.7,10.1-45.3,17.8l-12.4-19.4l-32.2,20.6l12.4,19.4
		c-13.1,10.1-24.9,21.4-35.1,33.7l-18.8-13.1l-21.8,31.4l18.9,13.1c-8.1,14.2-14.6,29.2-19.4,44.6l-22.5-4.9l-8.2,37.4l22.5,4.9
		c-2.1,16.1-2.4,32.4-1,48.7l-22.6,4.1l6.8,37.6l22.6-4.1c4.2,15.5,10.1,30.7,17.8,45.3l-19.4,12.4l20.6,32.2l19.4-12.4
		c10.1,13.1,21.4,24.9,33.7,35.1l-13.1,18.8l31.4,21.8l13.1-18.9c14.2,8.1,29.2,14.6,44.6,19.4l-4.9,22.5l37.4,8.2l4.9-22.5
		C542.2,492.4,558.5,492.8,574.8,491.3z M389,376.7c-58.7-91.5-32.1-213.1,59.4-271.8s213.1-32.1,271.8,59.4
		c58.7,91.5,32.1,213.1-59.4,271.8C569.3,494.7,447.6,468.1,389,376.7z"/>
</g>
<path id="XMLID_10421_" class="st1" d="M471.6,852.8l7,1.5l3-13.8l-7-1.5c0.1-5.1-0.7-10.3-2.7-15.3l6.1-3.9l-7.6-11.9l-6.1,3.9
	c-3.7-3.9-8-6.9-12.7-8.9l1.5-7l-13.8-3l-1.5,7c-5.1-0.1-10.3,0.7-15.3,2.7l-3.9-6.1l-11.9,7.6l3.9,6.1c-3.9,3.7-6.9,8-8.9,12.7
	l-7-1.5l-3,13.8l7,1.5c-0.1,5.1,0.7,10.3,2.7,15.3l-6.1,3.9l7.6,11.9l6.1-3.9c3.7,3.9,8,6.9,12.7,8.9l-1.5,7l13.8,3l1.5-7
	c5.1,0.1,10.3-0.7,15.3-2.7l3.9,6.1l11.9-7.6l-3.9-6.1C466.6,861.9,469.6,857.6,471.6,852.8z M439.2,807.4c0.5-2.2,2.6-3.5,4.8-3.1
	c2.2,0.5,3.5,2.6,3.1,4.8c-0.5,2.2-2.6,3.5-4.8,3.1C440.1,811.7,438.7,809.5,439.2,807.4z M418,809c1.9-1.2,4.3-0.7,5.5,1.2
	c1.2,1.9,0.7,4.3-1.2,5.5c-1.9,1.2-4.3,0.7-5.5-1.2C415.6,812.6,416.2,810.2,418,809z M406,835.4c-2.2-0.5-3.5-2.6-3.1-4.8
	s2.6-3.5,4.8-3.1c2.2,0.5,3.5,2.6,3.1,4.8S408.2,835.9,406,835.4z M413.2,857.8c-1.9,1.2-4.3,0.7-5.5-1.2c-1.2-1.9-0.7-4.3,1.2-5.5
	c1.9-1.2,4.3-0.7,5.5,1.2C415.6,854.1,415,856.6,413.2,857.8z M434,868.6c-0.5,2.2-2.6,3.5-4.8,3.1c-2.2-0.5-3.5-2.6-3.1-4.8
	c0.5-2.2,2.6-3.5,4.8-3.1C433.1,864.2,434.5,866.4,434,868.6z M455.2,867c-1.9,1.2-4.3,0.7-5.5-1.2c-1.2-1.9-0.7-4.3,1.2-5.5
	c1.9-1.2,4.3-0.7,5.5,1.2C457.6,863.3,457.1,865.8,455.2,867z M449,857.3c-10.7,6.9-24.9,3.7-31.7-6.9c-6.9-10.7-3.7-24.9,6.9-31.7
	c10.7-6.9,24.9-3.7,31.7,6.9C462.8,836.2,459.7,850.4,449,857.3z M458.9,823.7c-1.2-1.9-0.7-4.3,1.2-5.5c1.9-1.2,4.3-0.7,5.5,1.2
	c1.2,1.9,0.7,4.3-1.2,5.5C462.5,826.1,460.1,825.6,458.9,823.7z M462.4,843.6c0.5-2.2,2.6-3.5,4.8-3.1c2.2,0.5,3.5,2.6,3.1,4.8
	c-0.5,2.2-2.6,3.5-4.8,3.1S462,845.8,462.4,843.6z"/>
<g>
	<path id="XMLID_10472_" class="st2" d="M311.1,634.6l-4.1-20.8c2.6-1.4,5.1-3.1,7.5-5l17.6,11.8l18.4-27.5l-17.6-11.8
		c0.8-2.9,1.4-5.9,1.7-8.8l20.8-4.1l-6.4-32.4l-20.8,4.1c-1.4-2.6-3.1-5.1-5-7.5l11.8-17.6l-27.5-18.4l-11.8,17.6
		c-2.9-0.8-5.9-1.4-8.8-1.7l-4.1-20.8l-32.4,6.4l4.1,20.8c-2.6,1.4-5.1,3.1-7.5,5l-17.6-11.8L211,539.7l17.6,11.8
		c-0.8,2.9-1.4,5.9-1.7,8.8l-20.8,4.1l6.4,32.4l20.8-4.1c1.4,2.6,3.1,5.1,5,7.5l-11.8,17.6l27.5,18.4l11.8-17.6
		c2.9,0.8,5.9,1.4,8.8,1.7l4.1,20.8L311.1,634.6z M262.6,554.3c6.7-10,20.3-12.7,30.3-6c10,6.7,12.7,20.3,6,30.3
		c-6.7,10-20.3,12.7-30.3,6C258.6,577.9,255.9,564.3,262.6,554.3z"/>
	<path id="XMLID_10475_" class="st2" d="M336.9,715.1l-4.5-22.7c16.5-6.8,31.9-16.9,44.9-30l19.2,12.9l29-43.4L406.3,619
		c7.2-17.1,10.6-35.1,10.5-53l22.7-4.5l-10.2-51.2l-22.7,4.5c-6.8-16.5-16.9-31.9-30-44.9l12.9-19.2l-43.4-29l-12.9,19.2
		c-17.1-7.2-35.1-10.6-53-10.5l-4.5-22.7l-51.2,10.2l4.5,22.7c-16.5,6.8-31.9,16.9-44.9,30l-19.2-12.9l-29,43.4l19.2,12.9
		c-7.2,17.1-10.6,35.1-10.5,53l-22.7,4.5l10.2,51.2l22.7-4.5c6.8,16.5,16.9,31.9,30,44.9l-12.9,19.2l43.4,29l12.9-19.2
		c17.1,7.2,35.1,10.6,53,10.5l4.5,22.7L336.9,715.1z M225.8,648.7c-45.4-30.3-57.6-91.8-27.3-137.2c30.3-45.4,91.8-57.6,137.2-27.3
		c45.4,30.3,57.6,91.8,27.3,137.2C332.6,666.8,271.2,679,225.8,648.7z"/>
</g>
<path id="XMLID_10682_" class="st2" d="M393.2,796.7l0-13.3c1.8-0.6,3.5-1.3,5.2-2.1l9.4,9.5l14.8-14.7l-9.4-9.5
	c0.9-1.7,1.6-3.4,2.2-5.2l13.3,0l0.1-20.8l-13.3,0c-0.6-1.8-1.3-3.5-2.1-5.2l9.5-9.4l-14.7-14.8l-9.5,9.4c-1.7-0.9-3.4-1.6-5.2-2.2
	l0-13.3l-20.8-0.1l0,13.3c-1.8,0.6-3.5,1.3-5.2,2.1l-9.4-9.5l-14.8,14.7l9.4,9.5c-0.9,1.7-1.6,3.4-2.2,5.2l-13.3,0l-0.1,20.8l13.3,0
	c0.6,1.8,1.3,3.5,2.1,5.2l-9.5,9.4l14.7,14.8l9.5-9.4c1.7,0.9,3.4,1.6,5.2,2.2l0,13.3L393.2,796.7z M373.2,741
	c5.4-5.4,14.1-5.3,19.5,0.1c5.4,5.4,5.3,14.1-0.1,19.5c-5.4,5.4-14.1,5.3-19.5-0.1C367.8,755.1,367.8,746.4,373.2,741z"/>
<path id="XMLID_10837_" class="st1" d="M244,383.1l8.5,12.6l22.9-15.5l-8.5-12.6c6.6-6.7,12-14.7,15.6-23.7l14.9,2.9l5.2-27.1
	l-14.9-2.9c0-9.7-2-19.2-5.7-27.8l12.6-8.5l-15.5-22.9l-12.6,8.5c-6.7-6.6-14.7-12-23.7-15.6l2.9-14.9l-27.1-5.2l-2.9,14.9
	c-9.7,0-19.2,2-27.8,5.7l-8.5-12.6l-22.9,15.5l8.5,12.6c-6.6,6.7-12,14.7-15.6,23.7l-14.9-2.9l-5.2,27.1l14.9,2.9
	c0,9.7,2,19.2,5.7,27.8l-12.6,8.5l15.5,22.9l12.6-8.5c6.7,6.6,14.7,12,23.7,15.6l-2.9,14.9l27.1,5.2l2.9-14.9
	C226,388.8,235.4,386.8,244,383.1z M184.7,336.3c-3-0.6-4.9-3.5-4.3-6.4l7.4-38c0.6-3,3.5-4.9,6.4-4.3c3,0.6,4.9,3.5,4.3,6.4
	l-7.4,38C190.5,334.9,187.6,336.8,184.7,336.3z M238,346.6c-3-0.6-4.9-3.5-4.3-6.4l7.4-38c0.6-3,3.5-4.9,6.4-4.3
	c3,0.6,4.9,3.5,4.3,6.4l-7.4,38C243.8,345.2,240.9,347.2,238,346.6z"/>
<path id="XMLID_10851_" class="st3" d="M439.8,746.6l18.3-5.5c2.7,6,5.8,11.8,9.3,17.5l-14.8,12.1l22.8,27.8l14.8-12.1
	c4.9,4.6,10,8.8,15.3,12.6l-9,16.9l31.7,17l9-16.9c6.2,2.4,12.5,4.3,19,5.7l-1.9,19l35.8,3.6l1.9-19c6.6-0.2,13.2-0.8,19.7-1.9
	l5.5,18.3l34.5-10.4l-5.5-18.3c6-2.7,11.8-5.8,17.5-9.3l12.1,14.8l27.8-22.8l-12.1-14.8c4.6-4.9,8.8-10,12.6-15.3l16.9,9l17-31.7
	l-16.9-9c2.4-6.2,4.3-12.5,5.7-19l19,1.9l3.6-35.8l-19-1.9c-0.2-6.6-0.8-13.2-1.9-19.7l18.3-5.5l-10.4-34.5l-18.3,5.5
	c-2.7-6-5.8-11.8-9.3-17.5l14.8-12.1l-22.8-27.8l-14.8,12.1c-4.9-4.6-10-8.8-15.3-12.6l9-16.9l-31.7-17l-9,16.9
	c-6.2-2.4-12.5-4.3-19-5.7l1.9-19l-35.8-3.6l-1.9,19c-6.6,0.2-13.2,0.8-19.7,1.9l-5.5-18.3l-34.5,10.4l5.5,18.3
	c-6,2.7-11.8,5.8-17.5,9.3l-12.1-14.8l-27.8,22.8l12.1,14.8c-4.6,4.9-8.8,10-12.6,15.3l-16.9-9l-17,31.7l16.9,9
	c-2.4,6.2-4.3,12.5-5.7,19l-19-1.9l-3.6,35.8l19,1.9c0.2,6.6,0.8,13.2,1.9,19.7l-18.3,5.5L439.8,746.6z M698.3,642.3
	c3.7-1.1,7.5,1,8.6,4.6c1.1,3.7-1,7.5-4.6,8.6c-3.7,1.1-7.5-1-8.6-4.6C692.6,647.3,694.6,643.4,698.3,642.3z M697.9,693.8
	c0.4-3.8,3.8-6.6,7.6-6.2c3.8,0.4,6.6,3.8,6.2,7.6c-0.4,3.8-3.8,6.6-7.6,6.2C700.3,701,697.5,697.6,697.9,693.8z M674.4,603.3
	c3-2.4,7.3-2,9.7,1c2.4,3,2,7.3-1,9.7c-3,2.4-7.3,2-9.7-1C671,610.1,671.4,605.7,674.4,603.3z M685.4,734.9c1.8-3.4,6-4.6,9.4-2.8
	c3.4,1.8,4.6,6,2.8,9.4c-1.8,3.4-6,4.6-9.4,2.8C684.8,742.5,683.5,738.3,685.4,734.9z M637.4,576.3c1.8-3.4,6-4.6,9.4-2.8
	c3.4,1.8,4.6,6,2.8,9.4c-1.8,3.4-6,4.6-9.4,2.8C636.8,583.9,635.6,579.7,637.4,576.3z M658,768.1c3-2.4,7.3-2,9.7,1
	c2.4,3,2,7.3-1,9.7c-3,2.4-7.3,2-9.7-1C654.7,774.9,655.1,770.5,658,768.1z M592.9,565.6c0.4-3.8,3.8-6.6,7.6-6.2
	c3.8,0.4,6.6,3.8,6.2,7.6c-0.4,3.8-3.8,6.6-7.6,6.2C595.3,572.8,592.5,569.4,592.9,565.6z M620.1,788.4c3.7-1.1,7.5,1,8.6,4.6
	c1.1,3.7-1,7.5-4.6,8.6c-3.7,1.1-7.5-1-8.6-4.6C614.4,793.3,616.4,789.5,620.1,788.4z M552.3,564.1c3.7-1.1,7.5,1,8.6,4.6
	c1.1,3.7-1,7.5-4.6,8.6c-3.7,1.1-7.5-1-8.6-4.6C546.5,569.1,548.6,565.2,552.3,564.1z M569.7,798.8c0.4-3.8,3.8-6.6,7.6-6.2
	c3.8,0.4,6.6,3.8,6.2,7.6c-0.4,3.8-3.8,6.6-7.6,6.2C572.1,806,569.4,802.6,569.7,798.8z M509.5,586.9c3-2.4,7.3-2,9.7,1
	c2.4,3,2,7.3-1,9.7c-3,2.4-7.3,2-9.7-1C506.2,593.7,506.6,589.4,509.5,586.9z M526.8,782.9c1.8-3.4,6-4.6,9.4-2.8
	c3.4,1.8,4.6,6,2.8,9.4c-1.8,3.4-6,4.6-9.4,2.8C526.3,790.4,525,786.3,526.8,782.9z M478.8,624.3c1.8-3.4,6-4.6,9.4-2.8
	c3.4,1.8,4.6,6,2.8,9.4c-1.8,3.4-6,4.6-9.4,2.8C478.3,631.9,477,627.7,478.8,624.3z M493.2,751.8c3-2.4,7.3-2,9.7,1
	c2.4,3,2,7.3-1,9.7c-3,2.4-7.3,2-9.7-1C489.8,758.6,490.2,754.2,493.2,751.8z M464.7,670.6c0.4-3.8,3.8-6.6,7.6-6.2
	c3.8,0.4,6.6,3.8,6.2,7.6c-0.4,3.8-3.8,6.6-7.6,6.2C467.1,677.8,464.4,674.4,464.7,670.6z M474.1,710.2c3.7-1.1,7.5,1,8.6,4.6
	c1.1,3.7-1,7.5-4.6,8.6c-3.7,1.1-7.5-1-8.6-4.6C468.3,715.2,470.4,711.3,474.1,710.2z"/>
<g>
	<path id="XMLID_10875_" class="st3" d="M36.3,436.9l17.3,1.4c0.8,4,2.1,7.9,3.9,11.5l-7.2,6.1l15,17.7l7.2-6.1
		c3.3,2.3,6.8,4.3,10.7,5.7l-1.4,17.3l26.2,2.1l1.4-17.3c4-0.8,7.9-2.1,11.5-3.9l6.1,7.2l17.7-15l-6.1-7.2c2.3-3.3,4.3-6.8,5.7-10.7
		l17.3,1.4l2.1-26.2l-17.3-1.4c-0.8-4-2.1-7.9-3.9-11.5l7.2-6.1l-15-17.7l-7.2,6.1c-3.3-2.3-6.8-4.3-10.7-5.7l1.4-17.3l-26.2-2.1
		l-1.4,17.3c-4,0.8-7.9,2.1-11.5,3.9l-6.1-7.2l-17.7,15l6.1,7.2c-2.3,3.3-4.3,6.8-5.7,10.7l-17.3-1.4L36.3,436.9z M102.3,400.1
		c15.9,1.3,27.8,15.3,26.5,31.2c-1.3,15.9-15.3,27.8-31.2,26.5c-15.9-1.3-27.8-15.3-26.5-31.2C72.4,410.6,86.4,398.8,102.3,400.1z"
		/>
	<path id="XMLID_10876_" class="st3" d="M98.8,443c7.8,0.6,14.6-5.2,15.3-13c0.6-7.8-5.2-14.6-13-15.3c-7.8-0.6-14.6,5.2-15.3,13
		C85.2,435.6,91,442.4,98.8,443z"/>
</g>
</svg>
