<?xml version="1.0" encoding="utf-8"?>
<!-- Generator: Adobe Illustrator 24.1.2, SVG Export Plug-In . SVG Version: 6.00 Build 0)  -->
<svg version="1.1" id="Layer_1" xmlns="http://www.w3.org/2000/svg" xmlns:xlink="http://www.w3.org/1999/xlink" x="0px" y="0px"
	 viewBox="0 0 236 240" style="enable-background:new 0 0 236 240;" xml:space="preserve">
<style type="text/css">
	.st0{opacity:0.1;}
	.st1{fill:url(#SVGID_1_);}
	.st2{fill:url(#SVGID_2_);}
	.st3{fill:#FFFFFF;}
</style>
<g class="st0">
	<path d="M233.2,17.7c0,0-33.3,2.9-56.3,2.8c-28.5-0.2-76.5,5.6-106,31.9s-47.7,62.3-51.2,105.2S17,204.5,17,204.5L6.4,234
		c0,0,3.3,2.7,9.4,2.2c0.3,0,0.5,0.1,0.6-0.2l6.4-26.1c0,0,5.2-2.7,19.1-1.9s89.6,9.2,136.6-24.1s48.9-83.3,51.9-118.2
		S232.1,19.7,233.2,17.7z"/>
</g>
<g>
	
		<linearGradient id="SVGID_1_" gradientUnits="userSpaceOnUse" x1="191.8564" y1="202.3117" x2="34.9104" y2="55.9572" gradientTransform="matrix(1 0 0 -1 0 240)">
		<stop  offset="0" style="stop-color:#8DC945"/>
		<stop  offset="1" style="stop-color:#61934C"/>
	</linearGradient>
	<path class="st1" d="M216.7,3.4c0,0-33,4.8-56,6c-28.5,1.5-76,10-104,38s-44,65-45,108s0,47,0,47l-9,30c0,0,3.5,2.5,9.5,1.6
		c0.3,0,0.5,0,0.6-0.2l4.9-26.4c0,0,5-3,19-3s90,4,135-32s44-86,45-121S215.7,5.4,216.7,3.4z"/>
</g>
<linearGradient id="SVGID_2_" gradientUnits="userSpaceOnUse" x1="243.1986" y1="208.1837" x2="14.5635" y2="-5.022" gradientTransform="matrix(1 0 0 -1 0 240)">
	<stop  offset="0" style="stop-color:#8DC945"/>
	<stop  offset="1" style="stop-color:#4B804C"/>
</linearGradient>
<path class="st2" d="M216.7,3.4c0,0-0.2,0-0.5,0.1c-17.7,11.5-90,59.6-124,95.4C68,124.3,28.8,159.4,11.6,201
	c0.1,1.1,0.1,1.3,0.1,1.3l-9,30c0,0,3.5,2.5,9.5,1.6c0.3,0,0.5,0,0.6-0.2l4.9-26.4c0,0,5-3,19-3s90,4,135-32s44-86,45-121
	S215.7,5.4,216.7,3.4z"/>
<g>
	<path class="st3" d="M143.9,81.4c-2.6-0.1-5.3,0-8.8,0.3c-20.3,1.7-29.2,12-31.8,23.4h0.4c4.8-5,11.5-7.8,20.7-7.8
		c16.3,0,30.1,11.5,30.1,31.8c0,19.3-14.8,35.2-36,35.2c-25.9,0-38.7-19.3-38.7-42.6c0-18.3,6.7-33.6,17.2-43.3
		c9.7-8.8,22.3-13.6,37.6-14.4c4.2-0.3,6.9-0.3,9.2-0.2V81.4z M131.5,130.3c0-9-4.8-16.8-14.5-16.8c-6.1,0-11.2,3.8-13.5,8.7
		c-0.6,1.2-0.9,3-0.9,5.7c0.5,10.3,5.4,19.6,15.7,19.6C126.4,147.6,131.5,140.2,131.5,130.3z"/>
</g>
</svg>
