<?xml version="1.0" encoding="utf-8"?>
<!-- Generator: Adobe Illustrator 24.1.2, SVG Export Plug-In . SVG Version: 6.00 Build 0)  -->
<svg version="1.1" id="Layer_1" xmlns="http://www.w3.org/2000/svg" xmlns:xlink="http://www.w3.org/1999/xlink" x="0px" y="0px"
	 viewBox="0 0 290 198" style="enable-background:new 0 0 290 198;" xml:space="preserve">
<style type="text/css">
	.st0{fill:#539B85;}
	.st1{fill:#3A6D5C;}
	.st2{clip-path:url(#SVGID_2_);}
	.st3{fill:url(#SVGID_3_);}
	.st4{fill:url(#SVGID_4_);}
	.st5{fill:#526625;}
	.st6{fill:#949EAF;}
	.st7{fill:#6D4020;}
	.st8{clip-path:url(#SVGID_6_);fill:#422914;}
	.st9{fill:#99C63E;}
	.st10{clip-path:url(#SVGID_8_);}
	.st11{fill:#B5E452;}
	.st12{fill:#779C32;}
	.st13{clip-path:url(#SVGID_10_);fill:#779C32;}
	.st14{fill:url(#SVGID_11_);}
	.st15{fill:url(#SVGID_12_);}
	.st16{fill:url(#SVGID_13_);}
	.st17{fill:url(#SVGID_14_);}
	.st18{fill:#FFFFFF;}
</style>
<path class="st0" d="M290,141.96C263.45,124.8,224.91,114,182,114c-80.08,0-145,37.61-145,84h253V141.96z"/>
<path class="st1" d="M290,146.83c-24.24-15.67-59.43-25.53-98.61-25.53C118.27,121.3,59,155.64,59,198h231V146.83z"/>
<g>
	<defs>
		<rect id="SVGID_1_" x="104" y="4" width="200" height="194"/>
	</defs>
	<clipPath id="SVGID_2_">
		<use xlink:href="#SVGID_1_"  style="overflow:visible;"/>
	</clipPath>
	<g class="st2">
		
			<linearGradient id="SVGID_3_" gradientUnits="userSpaceOnUse" x1="758.0867" y1="299.0681" x2="758.2294" y2="281.0559" gradientTransform="matrix(-0.9783 -0.2071 -0.2071 0.9783 965.9789 5.8596)">
			<stop  offset="0" style="stop-color:#E6E6E6"/>
			<stop  offset="0.525" style="stop-color:#D6D6D6"/>
			<stop  offset="1" style="stop-color:#CCCCCC"/>
		</linearGradient>
		<path class="st3" d="M157.53,142.43l7.95,1.44c3.36,0.61,6.59-0.86,7.2-3.28l3.21-12.64c0.62-2.42-1.61-4.87-4.97-5.48l-7.95-1.44
			c-3.36-0.61-6.59,0.86-7.2,3.28l-3.21,12.64C151.94,139.37,154.17,141.83,157.53,142.43z"/>
		
			<linearGradient id="SVGID_4_" gradientUnits="userSpaceOnUse" x1="790.1122" y1="329.5337" x2="790.2582" y2="311.0943" gradientTransform="matrix(-0.9502 -0.3117 -0.3117 0.9502 991.4128 71.4748)">
			<stop  offset="0" style="stop-color:#E6E6E6"/>
			<stop  offset="0.525" style="stop-color:#D6D6D6"/>
			<stop  offset="1" style="stop-color:#CCCCCC"/>
		</linearGradient>
		<path class="st4" d="M132.62,138.64l7.74,2.05c3.28,0.87,6.72-0.33,7.7-2.67l5.1-12.22c0.98-2.34-0.89-4.94-4.17-5.8l-7.74-2.05
			c-3.28-0.87-6.72,0.33-7.7,2.67l-5.1,12.22C127.48,135.18,129.35,137.78,132.62,138.64z"/>
		<path class="st5" d="M161.33,175.18c0,0,54.58-5.14,61.25-67.27l12.65-23.46l9.27-1.35l4.21,71.23L194.7,191.5L161.33,175.18z"/>
		
			<ellipse transform="matrix(0.1007 -0.9949 0.9949 0.1007 -83.6736 384.5888)" class="st6" cx="170.9" cy="238.58" rx="3.79" ry="53.03"/>
		<g>
			<path class="st7" d="M192.64,185.58c0,0-2.98,37.01-16.04,53.2c0,0-6.33,2.4-15.83-1.6c0,0,21.19-6.23,28.86-51.9L192.64,185.58z
				"/>
			<g>
				<defs>
					<path id="SVGID_5_" d="M192.64,185.58c0,0-2.98,37.01-16.04,53.2c0,0-6.33,2.4-15.83-1.6c0,0,21.19-6.23,28.86-51.9
						L192.64,185.58z"/>
				</defs>
				<clipPath id="SVGID_6_">
					<use xlink:href="#SVGID_5_"  style="overflow:visible;"/>
				</clipPath>
				<path class="st8" d="M191.33,179.74c0,0-3.29,40.02-16.87,53.87c0,0-2.01,4.24-12.62,3.99l4.01,5.8l19.07-0.35l12.85-29.15
					l-0.18-35.8L191.33,179.74z"/>
			</g>
		</g>
		<path class="st9" d="M239.87,87.57c-53.99,82.09-126.06,26.83-126.06,26.83c26.16-70.44,91.17-95.84,91.17-95.84
			c5.07,2.96,13.7,10.75,23.18,21.41c-4.34,3.64-6.13,9.28-3.99,14.03c2.66,5.91,10.38,8.2,17.25,5.11
			c0.56-0.25,1.08-0.54,1.59-0.84c15.54,21.01,29.78,46.84,31.64,69.36c6.83,82.92-86.17,76.55-86.17,76.55
			c-57.43-4.29-65.68-35.58-65.68-35.58C246.43,203.21,239.87,87.57,239.87,87.57z"/>
		<g>
			<defs>
				<path id="SVGID_7_" d="M188.47,204.19c0,0,93.01,6.37,86.17-76.55c-3.6-43.69-53.85-99.86-69.67-109.08c0,0-65,25.4-91.17,95.84
					c0,0,72.07,55.26,126.06-26.83c0,0,6.57,115.63-117.08,81.04C122.79,168.61,131.04,199.9,188.47,204.19z"/>
			</defs>
			<clipPath id="SVGID_8_">
				<use xlink:href="#SVGID_7_"  style="overflow:visible;"/>
			</clipPath>
			<g class="st10">
				<path class="st11" d="M198.86,26.32c0,0-58.53,24.66-81.71,90.39l-0.59,23.1l9.92-17.04
					C126.48,122.77,146.66,60.63,198.86,26.32z"/>
				<path class="st12" d="M205.12,24.67c0,0,24.28,113.62-16.27,175.76C188.85,200.42,243.31,166.34,205.12,24.67z"/>
				<path class="st12" d="M206.79,75.85c0,0-26.38-2.67-47.99-22.37C158.8,53.48,172.34,77.69,206.79,75.85z"/>
				<path class="st12" d="M207.14,102.53c0,0-49.36-8.8-63.58-33.84C143.56,68.69,155.43,101.87,207.14,102.53z"/>
				<path class="st12" d="M220.13,79.48c0,0,13.12-1.72,26.24-11.05C246.37,68.44,236.48,83.42,220.13,79.48z"/>
				<path class="st12" d="M222.58,107.9c0,0,11.53-1.12,36.65-16.09C259.23,91.82,246.93,108.08,222.58,107.9z"/>
				<path class="st12" d="M221.99,132.59c0,0,14.42-1.4,45.81-20.11C267.8,112.48,252.42,132.81,221.99,132.59z"/>
				<path class="st12" d="M214.56,168.38c0,0,17.51-2.49,56.08-31.25C270.63,137.13,251.42,167.85,214.56,168.38z"/>
			</g>
		</g>
		<g>
			<defs>
				<path id="SVGID_9_" d="M188.47,204.19c0,0,93.01,6.37,86.17-76.55c-3.6-43.69-53.85-99.86-69.67-109.08c0,0-65,25.4-91.17,95.84
					c0,0,72.07,55.26,126.06-26.83c0,0,6.57,115.63-117.08,81.04C122.79,168.61,131.04,199.9,188.47,204.19z"/>
			</defs>
			<clipPath id="SVGID_10_">
				<use xlink:href="#SVGID_9_"  style="overflow:visible;"/>
			</clipPath>
			<path class="st13" d="M119.71,153.83c0,0-2.27,7.38,3.07,14.78c27.8,11.19,122.75,28.41,117.08-81.04
				C239.87,87.57,219.63,182.22,119.71,153.83z"/>
		</g>
		<g>
			<linearGradient id="SVGID_11_" gradientUnits="userSpaceOnUse" x1="220.48" y1="76.0526" x2="194.1217" y2="65.434">
				<stop  offset="0" style="stop-color:#32333D"/>
				<stop  offset="0.1993" style="stop-color:#313540"/>
				<stop  offset="1" style="stop-color:#303C4A"/>
			</linearGradient>
			<path class="st14" d="M215.37,80.2c-0.94-2.24-2.1-4.26-3.44-5.91c-1.35-1.66-2.9-2.95-4.66-3.94c-1.89-1.05-3.42-1.61-5.25-1.7
				c-1.82-0.1-3.95,0.44-6.28,1.35l-0.07,0.03c-0.27,0.11-0.58-0.03-0.69-0.3c-0.05-0.12-0.05-0.26,0-0.37
				c0.49-1.36,1.35-2.47,2.44-3.43c1.09-0.94,2.46-1.66,3.97-2.03c1.51-0.36,3.16-0.34,4.67,0.04c0.75,0.18,1.49,0.46,2.15,0.77
				c0.64,0.31,1.27,0.65,1.88,1.03c2.43,1.53,4.42,3.84,5.51,6.43c1.1,2.59,1.44,5.38,0.77,8.02c-0.07,0.28-0.35,0.44-0.63,0.37
				c-0.16-0.04-0.29-0.15-0.35-0.3L215.37,80.2z"/>
		</g>
		
			<ellipse transform="matrix(0.3117 -0.9502 0.9502 0.3117 46.7923 256.6281)" class="st12" cx="200.54" cy="96.02" rx="10.75" ry="7.38"/>
		
			<ellipse transform="matrix(0.3117 -0.9502 0.9502 0.3117 34.8463 228.105)" class="st12" cx="174.87" cy="90" rx="10.75" ry="7.38"/>
		<g>
			<linearGradient id="SVGID_12_" gradientUnits="userSpaceOnUse" x1="160.7412" y1="64.3771" x2="188.6927" y2="59.2557">
				<stop  offset="0" style="stop-color:#32333D"/>
				<stop  offset="0.1993" style="stop-color:#313540"/>
				<stop  offset="1" style="stop-color:#303C4A"/>
			</linearGradient>
			<path class="st15" d="M163.94,69.25c-0.12-2.73,0.77-5.39,2.36-7.7c1.59-2.32,4-4.18,6.69-5.2c0.67-0.26,1.36-0.46,2.05-0.63
				c0.71-0.17,1.49-0.29,2.26-0.32c1.55-0.07,3.17,0.24,4.58,0.89c1.41,0.66,2.61,1.64,3.49,2.78c0.88,1.15,1.49,2.41,1.7,3.85
				c0.04,0.29-0.16,0.56-0.45,0.6c-0.13,0.02-0.26-0.01-0.36-0.08l-0.06-0.04c-2.1-1.36-4.08-2.32-5.88-2.58
				c-1.81-0.28-3.43-0.04-5.49,0.61c-1.93,0.62-3.7,1.57-5.36,2.93c-1.64,1.35-3.18,3.09-4.55,5.1l-0.04,0.05
				c-0.16,0.24-0.48,0.3-0.72,0.14C164.03,69.56,163.95,69.41,163.94,69.25z"/>
		</g>
		
			<linearGradient id="SVGID_13_" gradientUnits="userSpaceOnUse" x1="709.4613" y1="219.7561" x2="721.3873" y2="216.7543" gradientTransform="matrix(-0.9949 -0.1007 -0.1007 0.9949 933.3427 -51.4013)">
			<stop  offset="0" style="stop-color:#32333D"/>
			<stop  offset="0.1993" style="stop-color:#313540"/>
			<stop  offset="1" style="stop-color:#303C4A"/>
		</linearGradient>
		<path class="st16" d="M193.38,91.67c-1.85,5.64-0.47,11.16,3.09,12.33s7.94-2.46,9.79-8.1c1.85-5.64,0.47-11.16-3.09-12.33
			C199.62,82.4,195.23,86.03,193.38,91.67z"/>
		
			<linearGradient id="SVGID_14_" gradientUnits="userSpaceOnUse" x1="734.8521" y1="217.2892" x2="748.3282" y2="213.3836" gradientTransform="matrix(-0.9949 -0.1007 -0.1007 0.9949 933.3427 -51.4013)">
			<stop  offset="0" style="stop-color:#32333D"/>
			<stop  offset="0.1993" style="stop-color:#313540"/>
			<stop  offset="1" style="stop-color:#303C4A"/>
		</linearGradient>
		<path class="st17" d="M167.65,86.15c-1.85,5.64-0.47,11.16,3.09,12.33c3.56,1.17,7.94-2.46,9.79-8.1s0.47-11.16-3.09-12.33
			C173.89,76.88,169.5,80.51,167.65,86.15z"/>
		
			<ellipse transform="matrix(0.3117 -0.9502 0.9502 0.3117 52.5122 254.9485)" class="st18" cx="202.24" cy="91.23" rx="5.42" ry="3.42"/>
		
			<ellipse transform="matrix(0.3117 -0.9502 0.9502 0.3117 40.0526 226.6967)" class="st18" cx="176.51" cy="85.7" rx="5.42" ry="3.42"/>
	</g>
</g>
<path class="st9" d="M99.05,116.26c-3.48-9.04-5.46-19.15-2.56-28.39c1.25-3.99,3.42-7.95,2.85-12.1c-0.12-0.9-0.43-1.86-1.19-2.37
	c-0.51-0.34-1.14-0.42-1.75-0.45c-3.45-0.15-6.76,1.23-9.94,2.58c-2.07,0.88-4.23,1.82-5.68,3.54c-1.87,2.22-2.23,5.31-2.35,8.21
	c-0.16,3.82-0.02,7.72,1.2,11.34c1.93,5.73,6.29,10.03,10.52,14.14c4.03,3.93,7.56,9.6,11.74,12.99
	C101.72,122.47,100.23,119.31,99.05,116.26z"/>
<path class="st9" d="M76.96,106.62c-7.06-6.12-14.32-12.36-22.97-15.52c-4.9-1.79-10.08-2.53-15.12-3.86
	C26.61,84.02,15.2,77.2,6.32,67.79C4.93,74.65,5.65,82,8.35,88.5c1.74,4.21,4.34,8.11,7.83,10.94c5.02,4.06,11.57,5.61,17.88,5.57
	s12.51-1.53,18.64-3.01c2.06-0.5,4.2-1,6.29-0.61c1.57,0.29,3.02,1.06,4.42,1.87c5.46,3.13,16.53,13.16,22.92,11.64
	C83.5,111.91,80.08,109.33,76.96,106.62z"/>
<g>
	<path class="st9" d="M59.45,110.6c-2.23,3.84-4.25,7.95-4.67,12.38c-0.41,4.43,1.07,9.26,4.68,11.85c3.95,2.83,9.29,2.4,14.12,1.84
		c2.33-0.27,4.65-0.53,6.98-0.8c3.35-0.38,7.16-1.05,8.91-3.93c2.38-3.9-1-9.14-5.24-10.84c-4.24-1.7-9-1.19-13.55-1.7
		c-4.54-0.52-9.56-2.73-10.73-7.14"/>
</g>
<g>
	<path class="st9" d="M59.81,129.34c-0.74,3.89-1.22,7.94-0.25,11.78c0.97,3.84,3.65,7.46,7.45,8.56c4.16,1.21,8.51-0.74,12.41-2.64
		c1.88-0.91,3.75-1.83,5.63-2.74c2.7-1.32,5.7-3.01,6.32-5.94c0.84-3.99-3.55-7.38-7.62-7.55c-4.07-0.17-7.92,1.67-11.89,2.59
		c-3.97,0.91-8.84,0.55-11.13-2.82"/>
</g>
</svg>
