<?xml version="1.0" encoding="utf-8"?>
<!-- Generator: Adobe Illustrator 24.1.2, SVG Export Plug-In . SVG Version: 6.00 Build 0)  -->
<svg version="1.1" id="Layer_1" xmlns="http://www.w3.org/2000/svg" xmlns:xlink="http://www.w3.org/1999/xlink" x="0px" y="0px"
	 viewBox="0 0 85 85" style="enable-background:new 0 0 85 85;" xml:space="preserve">
<style type="text/css">
	.st0{fill:#59C165;}
	.st1{fill:#FFFFFF;}
</style>
<circle class="st0" cx="42.98" cy="42.53" r="40"/>
<g>
	<g>
		<path class="st1" d="M35.08,15.5l4.34,7.52l-4.34,7.52H26.4l-4.34-7.52l4.34-7.52H35.08 M35.08,11.5H26.4
			c-1.43,0-2.75,0.76-3.46,2l-4.34,7.52c-0.71,1.24-0.71,2.76,0,4l4.34,7.52c0.71,1.24,2.04,2,3.46,2h8.68c1.43,0,2.75-0.76,3.46-2
			l4.34-7.52c0.71-1.24,0.71-2.76,0-4l-4.34-7.52C37.83,12.26,36.51,11.5,35.08,11.5L35.08,11.5z"/>
	</g>
	<g>
		<path class="st1" d="M35.08,41.17l4.34,7.52l-4.34,7.52H26.4l-4.34-7.52l4.34-7.52H35.08 M35.08,37.17H26.4
			c-1.43,0-2.75,0.76-3.46,2l-4.34,7.52c-0.71,1.24-0.71,2.76,0,4l4.34,7.52c0.71,1.24,2.04,2,3.46,2h8.68c1.43,0,2.75-0.76,3.46-2
			l4.34-7.52c0.71-1.24,0.71-2.76,0-4l-4.34-7.52C37.83,37.93,36.51,37.17,35.08,37.17L35.08,37.17z"/>
	</g>
	<g>
		<path class="st1" d="M58.6,28.79l4.34,7.52l-4.34,7.52h-8.68l-4.34-7.52l4.34-7.52H58.6 M58.6,24.79h-8.68
			c-1.43,0-2.75,0.76-3.46,2l-4.34,7.52c-0.71,1.24-0.71,2.76,0,4l4.34,7.52c0.71,1.24,2.04,2,3.46,2h8.68c1.43,0,2.75-0.76,3.46-2
			l4.34-7.52c0.71-1.24,0.71-2.76,0-4l-4.34-7.52C61.35,25.55,60.03,24.79,58.6,24.79L58.6,24.79z"/>
	</g>
	<g>
		<path class="st1" d="M58.6,54.46l4.34,7.52L58.6,69.5h-8.68l-4.34-7.52l4.34-7.52H58.6 M58.6,50.46h-8.68
			c-1.43,0-2.75,0.76-3.46,2l-4.34,7.52c-0.71,1.24-0.71,2.76,0,4l4.34,7.52c0.71,1.24,2.04,2,3.46,2h8.68c1.43,0,2.75-0.76,3.46-2
			l4.34-7.52c0.71-1.24,0.71-2.76,0-4l-4.34-7.52C61.35,51.22,60.03,50.46,58.6,50.46L58.6,50.46z"/>
	</g>
</g>
</svg>
