<?xml version="1.0" encoding="utf-8"?>
<!-- Generator: Adobe Illustrator 24.1.2, SVG Export Plug-In . SVG Version: 6.00 Build 0)  -->
<svg version="1.1" id="Capa_1" xmlns="http://www.w3.org/2000/svg" xmlns:xlink="http://www.w3.org/1999/xlink" x="0px" y="0px"
	 viewBox="0 0 468 517" style="enable-background:new 0 0 468 517;" xml:space="preserve">
<style type="text/css">
	.st0{fill:none;stroke:#6699FF;stroke-width:2;stroke-miterlimit:3.8637;}
	.st1{fill:#1D1D1B;}
	.st2{fill:#6699CC;}
	.st3{fill:#FF9900;}
	.st4{fill:#FFFFFF;}
	.st5{fill:#FAFAFA;}
	.st6{fill:#F6F6F6;}
	.st7{fill:#F1F1F1;}
	.st8{fill:#ECECEC;}
	.st9{fill:#E8E8E8;}
	.st10{fill:#E3E3E3;}
	.st11{fill:#DFDFDF;}
	.st12{fill:#DADADA;}
	.st13{fill:#D5D5D5;}
	.st14{fill:#D1D1D1;}
	.st15{fill:#CCCCCC;}
</style>
<g id="Fondo">
</g>
<g id="Guías">
</g>
<g id="Primer_plano">
	<g>
		<circle class="st0" cx="234" cy="237" r="227.6"/>
		<path class="st0" d="M234,237"/>
	</g>
	<g>
		<g>
			<path class="st1" d="M194.63,291.9l3.02-10.52h1.39l-4.46,14.69l-0.25,0.7c-0.6,1.59-1.52,2.39-2.77,2.39
				c-0.3,0-0.61-0.05-0.94-0.16l-0.01-1.19c0.18,0.05,0.38,0.08,0.6,0.08c0.56,0,1.02-0.17,1.38-0.5c0.36-0.34,0.66-0.88,0.89-1.63
				l0.54-1.79l-3.99-12.59h1.43L194.63,291.9z"/>
			<path class="st1" d="M210.9,294.29c-1.49,0-2.66-0.49-3.5-1.47c-0.84-0.98-1.27-2.37-1.29-4.17v-1.55c0-1.86,0.41-3.32,1.22-4.38
				s1.93-1.59,3.35-1.59c1.38,0,2.42,0.45,3.15,1.35c0.72,0.9,1.09,2.27,1.11,4.13v1.22h-7.54v0.71c0,1.45,0.31,2.57,0.93,3.36
				c0.62,0.79,1.5,1.18,2.63,1.18c1.25,0,2.26-0.46,3.04-1.37l0.68,0.87C213.85,293.72,212.59,294.29,210.9,294.29z M210.68,282.36
				c-1.02,0-1.81,0.36-2.36,1.08c-0.55,0.72-0.85,1.77-0.91,3.17h6.22v-0.34C213.57,283.66,212.59,282.36,210.68,282.36z"/>
			<rect x="217.82" y="276.05" class="st1" width="1.31" height="18"/>
			<path class="st1" d="M234.84,294.05c-0.12-0.4-0.2-0.99-0.23-1.75c-0.39,0.63-0.89,1.12-1.51,1.47c-0.61,0.35-1.28,0.52-2,0.52
				c-1.09,0-1.95-0.31-2.55-0.93c-0.61-0.61-0.91-1.49-0.91-2.63c0-1.24,0.42-2.22,1.27-2.95c0.85-0.73,2.02-1.09,3.51-1.1h2.18
				v-1.77c0-0.91-0.23-1.56-0.67-1.95s-1.11-0.59-1.98-0.59c-0.8,0-1.46,0.23-1.98,0.7c-0.52,0.47-0.77,1.08-0.77,1.82l-1.3-0.01
				c0-1.04,0.39-1.92,1.17-2.65c0.78-0.72,1.76-1.09,2.94-1.09c1.27,0,2.24,0.32,2.9,0.96c0.66,0.64,0.98,1.57,0.98,2.8v6.22
				c0,1.24,0.11,2.17,0.34,2.79v0.14L234.84,294.05L234.84,294.05z M231.26,293.04c0.77,0,1.44-0.2,2.03-0.6
				c0.59-0.4,1.02-0.93,1.29-1.6v-3.09h-2.06c-1.19,0.02-2.08,0.28-2.68,0.79c-0.6,0.51-0.9,1.2-0.9,2.07
				C228.94,292.23,229.72,293.04,231.26,293.04z"/>
			<path class="st1" d="M238.97,287.12c0-2,0.34-3.5,1.03-4.49c0.69-1,1.72-1.49,3.1-1.49c1.46,0,2.55,0.67,3.26,2.01l0.07-1.77
				h1.21v13.03c-0.01,1.53-0.37,2.69-1.1,3.49c-0.72,0.8-1.77,1.19-3.16,1.19c-0.69,0-1.4-0.17-2.1-0.52
				c-0.71-0.35-1.24-0.76-1.61-1.26l0.61-0.94c0.87,0.99,1.87,1.49,3.01,1.49c1.05,0,1.82-0.28,2.3-0.84
				c0.48-0.56,0.73-1.4,0.73-2.54v-2.01c-0.71,1.21-1.79,1.82-3.23,1.82c-1.32,0-2.33-0.5-3.03-1.49c-0.7-0.99-1.06-2.43-1.08-4.3
				L238.97,287.12L238.97,287.12z M240.28,288.31c0,1.63,0.25,2.83,0.74,3.6s1.27,1.15,2.32,1.15c1.41,0,2.4-0.67,2.98-2.01v-6.5
				c-0.59-1.45-1.57-2.17-2.95-2.17c-1.06,0-1.84,0.38-2.33,1.14c-0.49,0.76-0.74,1.94-0.75,3.52V288.31z"/>
			<path class="st1" d="M257.91,292.54c-0.72,1.16-1.83,1.75-3.34,1.75c-1.15,0-2.02-0.4-2.6-1.2c-0.59-0.8-0.88-1.97-0.89-3.52
				v-8.2h1.29v8.18c0,1.15,0.2,2.02,0.61,2.62s0.99,0.89,1.76,0.89c1.64,0,2.69-0.8,3.15-2.39v-9.29h1.31v12.67h-1.27L257.91,292.54
				z"/>
			<path class="st1" d="M269.4,294.05c-0.12-0.4-0.2-0.99-0.23-1.75c-0.39,0.63-0.89,1.12-1.51,1.47c-0.61,0.35-1.28,0.52-2,0.52
				c-1.09,0-1.95-0.31-2.55-0.93c-0.61-0.61-0.91-1.49-0.91-2.63c0-1.24,0.42-2.22,1.27-2.95c0.85-0.73,2.02-1.09,3.51-1.1h2.18
				v-1.77c0-0.91-0.23-1.56-0.67-1.95s-1.11-0.59-1.98-0.59c-0.8,0-1.46,0.23-1.98,0.7c-0.52,0.47-0.77,1.08-0.77,1.82l-1.3-0.01
				c0-1.04,0.39-1.92,1.17-2.65s1.76-1.09,2.94-1.09c1.27,0,2.24,0.32,2.89,0.96s0.98,1.57,0.98,2.8v6.22
				c0,1.24,0.11,2.17,0.34,2.79v0.14L269.4,294.05L269.4,294.05z M265.83,293.04c0.77,0,1.44-0.2,2.03-0.6
				c0.59-0.4,1.02-0.93,1.3-1.6v-3.09h-2.06c-1.19,0.02-2.08,0.28-2.68,0.79c-0.6,0.51-0.9,1.2-0.9,2.07
				C263.51,292.23,264.28,293.04,265.83,293.04z"/>
			<path class="st1" d="M273.96,293.19c0-0.28,0.09-0.52,0.26-0.71c0.18-0.19,0.42-0.29,0.73-0.29s0.56,0.1,0.74,0.29
				c0.18,0.19,0.27,0.43,0.27,0.71c0,0.27-0.09,0.5-0.27,0.68c-0.18,0.18-0.43,0.27-0.74,0.27s-0.56-0.09-0.73-0.27
				C274.05,293.69,273.96,293.47,273.96,293.19z"/>
		</g>
		<g>
			<path class="st1" d="M148.06,269.06c0.91,0,1.6-0.25,2.09-0.76c0.48-0.51,0.75-1.23,0.79-2.18h1.25
				c-0.06,1.3-0.48,2.31-1.24,3.05c-0.77,0.74-1.73,1.11-2.88,1.11c-1.51,0-2.65-0.48-3.42-1.45c-0.77-0.96-1.16-2.4-1.18-4.3V263
				c0-1.94,0.38-3.4,1.15-4.38c0.77-0.98,1.91-1.48,3.43-1.48c1.26,0,2.25,0.4,2.98,1.19c0.73,0.79,1.11,1.9,1.16,3.32h-1.25
				c-0.04-1.05-0.3-1.86-0.8-2.43c-0.49-0.57-1.19-0.86-2.09-0.86c-1.13,0-1.95,0.38-2.48,1.14c-0.53,0.76-0.79,1.92-0.79,3.49v1.44
				c0,1.62,0.27,2.8,0.8,3.54C146.11,268.69,146.93,269.06,148.06,269.06z"/>
			<path class="st1" d="M154.46,263.06c0-1.83,0.41-3.27,1.24-4.34s1.96-1.59,3.39-1.59c1.44,0,2.57,0.52,3.39,1.57
				c0.82,1.05,1.24,2.49,1.25,4.33v1.35c0,1.86-0.42,3.31-1.25,4.35c-0.83,1.04-1.96,1.56-3.37,1.56s-2.54-0.51-3.36-1.52
				c-0.83-1.02-1.26-2.42-1.29-4.2L154.46,263.06L154.46,263.06z M155.77,264.37c0,1.46,0.29,2.6,0.88,3.44
				c0.59,0.84,1.41,1.25,2.46,1.25c1.07,0,1.89-0.4,2.46-1.2c0.57-0.8,0.85-1.95,0.86-3.45v-1.35c0-1.46-0.3-2.61-0.89-3.45
				c-0.59-0.84-1.41-1.26-2.45-1.26c-1.01,0-1.81,0.41-2.4,1.23c-0.59,0.82-0.9,1.95-0.91,3.38L155.77,264.37L155.77,264.37z"/>
			<path class="st1" d="M167.95,257.38l0.04,1.89c0.79-1.42,1.92-2.13,3.4-2.13c1.63,0,2.69,0.78,3.16,2.33
				c0.4-0.77,0.91-1.36,1.54-1.75s1.31-0.59,2.06-0.59c2.28,0,3.45,1.47,3.5,4.41v8.51h-1.3v-8.44c-0.02-1.1-0.22-1.91-0.61-2.45
				c-0.39-0.54-1.03-0.8-1.92-0.8c-0.8,0.02-1.48,0.33-2.04,0.94c-0.55,0.61-0.87,1.38-0.95,2.3v8.45h-1.31v-8.4
				c0-1.11-0.21-1.94-0.62-2.48c-0.41-0.54-1.05-0.81-1.92-0.81c-0.71,0-1.33,0.25-1.85,0.74c-0.52,0.49-0.9,1.2-1.13,2.11v8.84
				h-1.3v-12.67L167.95,257.38L167.95,257.38L167.95,257.38z"/>
			<path class="st1" d="M184.53,263.06c0-1.83,0.41-3.27,1.24-4.34s1.96-1.59,3.39-1.59c1.44,0,2.57,0.52,3.39,1.57
				c0.82,1.05,1.24,2.49,1.25,4.33v1.35c0,1.86-0.42,3.31-1.25,4.35c-0.83,1.04-1.96,1.56-3.37,1.56s-2.54-0.51-3.36-1.52
				c-0.83-1.02-1.26-2.42-1.29-4.2V263.06z M185.85,264.37c0,1.46,0.29,2.6,0.88,3.44c0.59,0.83,1.41,1.25,2.46,1.25
				c1.07,0,1.89-0.4,2.46-1.2c0.57-0.8,0.85-1.95,0.86-3.45v-1.35c0-1.46-0.3-2.61-0.89-3.45s-1.41-1.26-2.45-1.26
				c-1.01,0-1.81,0.41-2.4,1.23c-0.59,0.82-0.9,1.95-0.91,3.38L185.85,264.37L185.85,264.37L185.85,264.37z"/>
			<rect x="202.36" y="252.05" class="st1" width="1.31" height="18"/>
			<path class="st1" d="M206.79,263.06c0-1.83,0.41-3.27,1.24-4.34s1.96-1.59,3.39-1.59c1.44,0,2.57,0.52,3.39,1.57
				c0.82,1.05,1.24,2.49,1.25,4.33v1.35c0,1.86-0.42,3.31-1.25,4.35c-0.83,1.04-1.96,1.56-3.37,1.56s-2.54-0.51-3.36-1.52
				c-0.83-1.02-1.26-2.42-1.29-4.2L206.79,263.06L206.79,263.06z M208.1,264.37c0,1.46,0.29,2.6,0.88,3.44
				c0.59,0.84,1.41,1.25,2.46,1.25c1.07,0,1.89-0.4,2.46-1.2c0.57-0.8,0.85-1.95,0.86-3.45v-1.35c0-1.46-0.3-2.61-0.89-3.45
				c-0.59-0.84-1.41-1.26-2.45-1.26c-1.01,0-1.81,0.41-2.4,1.23c-0.59,0.82-0.9,1.95-0.91,3.38L208.1,264.37L208.1,264.37z"/>
			<path class="st1" d="M225.42,266.92c0-0.55-0.23-1.02-0.68-1.43c-0.45-0.41-1.22-0.86-2.3-1.34s-1.84-0.89-2.27-1.22
				c-0.43-0.32-0.75-0.68-0.95-1.06c-0.2-0.38-0.3-0.84-0.3-1.36c0-0.98,0.35-1.78,1.05-2.42c0.7-0.64,1.61-0.96,2.73-0.96
				c1.2,0,2.16,0.34,2.88,1.02c0.72,0.68,1.08,1.58,1.08,2.7h-1.3c0-0.72-0.25-1.31-0.74-1.78c-0.49-0.47-1.13-0.71-1.92-0.71
				c-0.76,0-1.37,0.2-1.82,0.58c-0.45,0.39-0.67,0.9-0.67,1.52c0,0.51,0.17,0.92,0.52,1.24c0.34,0.32,1.09,0.75,2.23,1.3
				c1.18,0.52,1.99,0.94,2.44,1.28c0.45,0.34,0.78,0.71,1.01,1.12c0.23,0.41,0.34,0.9,0.34,1.46c0,1.05-0.36,1.88-1.09,2.5
				c-0.73,0.62-1.68,0.93-2.87,0.93c-1.26,0-2.27-0.35-3.05-1.03c-0.78-0.69-1.17-1.58-1.17-2.66h1.31c0.04,0.78,0.3,1.39,0.79,1.82
				c0.49,0.43,1.19,0.65,2.12,0.65c0.8,0,1.44-0.2,1.92-0.58C225.18,268.09,225.42,267.57,225.42,266.92z"/>
			<path class="st1" d="M241.92,270.05c-0.12-0.4-0.2-0.99-0.23-1.75c-0.39,0.63-0.89,1.12-1.5,1.47c-0.62,0.35-1.28,0.52-2,0.52
				c-1.09,0-1.95-0.31-2.55-0.93c-0.61-0.61-0.91-1.49-0.91-2.63c0-1.24,0.42-2.22,1.27-2.95c0.85-0.73,2.02-1.09,3.51-1.1h2.18
				v-1.77c0-0.91-0.23-1.56-0.67-1.95c-0.45-0.4-1.11-0.59-1.98-0.59c-0.8,0-1.46,0.23-1.98,0.7s-0.77,1.08-0.77,1.82l-1.3-0.01
				c0-1.04,0.39-1.92,1.17-2.65c0.78-0.72,1.76-1.09,2.94-1.09c1.27,0,2.24,0.32,2.9,0.96c0.65,0.64,0.98,1.57,0.98,2.8v6.22
				c0,1.24,0.11,2.17,0.34,2.79v0.14L241.92,270.05L241.92,270.05z M238.34,269.04c0.77,0,1.44-0.2,2.03-0.6
				c0.59-0.4,1.02-0.93,1.29-1.6v-3.09h-2.06c-1.19,0.02-2.08,0.28-2.68,0.79c-0.6,0.51-0.9,1.2-0.9,2.07
				C236.02,268.23,236.8,269.04,238.34,269.04z"/>
			<rect x="246.65" y="252.05" class="st1" width="1.31" height="18"/>
			<path class="st1" d="M253.02,270.05h-1.31v-12.67h1.31V270.05z M251.52,253.71c0-0.27,0.07-0.49,0.22-0.68s0.36-0.28,0.63-0.28
				s0.49,0.09,0.64,0.28c0.15,0.19,0.23,0.42,0.23,0.68s-0.08,0.49-0.23,0.68c-0.15,0.18-0.37,0.28-0.64,0.28s-0.48-0.09-0.63-0.28
				C251.59,254.2,251.52,253.98,251.52,253.71z"/>
			<path class="st1" d="M257.82,257.38l0.04,1.89c0.79-1.42,1.92-2.13,3.4-2.13c1.63,0,2.69,0.78,3.16,2.33
				c0.4-0.77,0.91-1.36,1.54-1.75s1.31-0.59,2.06-0.59c2.28,0,3.45,1.47,3.5,4.41v8.51h-1.3v-8.44c-0.02-1.1-0.22-1.91-0.61-2.45
				c-0.39-0.54-1.03-0.8-1.92-0.8c-0.8,0.02-1.48,0.33-2.04,0.94c-0.55,0.61-0.87,1.38-0.95,2.3v8.45h-1.31v-8.4
				c0-1.11-0.2-1.94-0.61-2.48c-0.41-0.54-1.05-0.81-1.92-0.81c-0.71,0-1.33,0.25-1.85,0.74c-0.52,0.49-0.9,1.2-1.13,2.11v8.84h-1.3
				v-12.67L257.82,257.38L257.82,257.38L257.82,257.38z"/>
			<path class="st1" d="M279.08,270.29c-1.49,0-2.66-0.49-3.5-1.47c-0.84-0.98-1.27-2.37-1.29-4.17v-1.55
				c0-1.86,0.41-3.32,1.22-4.38c0.81-1.06,1.93-1.59,3.35-1.59c1.38,0,2.42,0.45,3.15,1.35c0.72,0.9,1.09,2.27,1.11,4.13v1.22h-7.54
				v0.71c0,1.45,0.31,2.57,0.93,3.36c0.62,0.79,1.5,1.18,2.63,1.18c1.25,0,2.26-0.46,3.04-1.37l0.68,0.87
				C282.03,269.72,280.77,270.29,279.08,270.29z M278.86,258.36c-1.02,0-1.81,0.36-2.36,1.08c-0.55,0.72-0.85,1.77-0.91,3.17h6.22
				v-0.34C281.75,259.66,280.77,258.36,278.86,258.36z"/>
			<path class="st1" d="M287.09,257.38l0.04,2.01c0.38-0.69,0.85-1.23,1.44-1.64c0.58-0.41,1.24-0.61,1.98-0.61
				c2.21,0,3.35,1.47,3.4,4.42v8.49h-1.29v-8.37c-0.01-1.14-0.21-1.97-0.6-2.51c-0.39-0.54-1-0.81-1.84-0.81
				c-0.68,0-1.29,0.26-1.83,0.77c-0.54,0.51-0.95,1.21-1.24,2.11v8.81h-1.3v-12.67L287.09,257.38L287.09,257.38z"/>
			<path class="st1" d="M299.39,254.13v3.24h2.17v1.18h-2.17v8.42c0,0.7,0.1,1.21,0.31,1.55c0.21,0.34,0.55,0.51,1.04,0.51
				c0.21,0,0.52-0.04,0.94-0.12l0.04,1.17c-0.3,0.13-0.72,0.2-1.28,0.2c-1.52,0-2.31-1.05-2.35-3.14v-8.6h-1.96v-1.18h1.96v-3.24
				L299.39,254.13L299.39,254.13z"/>
			<path class="st1" d="M303.91,263.06c0-1.83,0.41-3.27,1.24-4.34s1.96-1.59,3.39-1.59c1.44,0,2.57,0.52,3.39,1.57
				c0.82,1.05,1.24,2.49,1.25,4.33v1.35c0,1.86-0.42,3.31-1.25,4.35c-0.83,1.04-1.95,1.56-3.37,1.56s-2.54-0.51-3.36-1.52
				c-0.83-1.02-1.26-2.42-1.29-4.2L303.91,263.06L303.91,263.06z M305.23,264.37c0,1.46,0.3,2.6,0.89,3.44
				c0.59,0.83,1.41,1.25,2.45,1.25c1.07,0,1.89-0.4,2.45-1.2c0.57-0.8,0.85-1.95,0.86-3.45v-1.35c0-1.46-0.3-2.61-0.89-3.45
				s-1.41-1.26-2.45-1.26c-1.01,0-1.81,0.41-2.4,1.23c-0.6,0.82-0.9,1.95-0.91,3.38L305.23,264.37L305.23,264.37z"/>
			<path class="st1" d="M322.54,266.92c0-0.55-0.23-1.02-0.68-1.43c-0.45-0.41-1.22-0.86-2.3-1.34s-1.84-0.89-2.27-1.22
				c-0.43-0.32-0.75-0.68-0.95-1.06c-0.2-0.38-0.3-0.84-0.3-1.36c0-0.98,0.35-1.78,1.05-2.42c0.7-0.64,1.61-0.96,2.73-0.96
				c1.2,0,2.16,0.34,2.88,1.02c0.72,0.68,1.08,1.58,1.08,2.7h-1.3c0-0.72-0.25-1.31-0.74-1.78c-0.49-0.47-1.13-0.71-1.92-0.71
				c-0.77,0-1.37,0.2-1.82,0.58c-0.45,0.39-0.67,0.9-0.67,1.52c0,0.51,0.17,0.92,0.52,1.24c0.34,0.32,1.09,0.75,2.23,1.3
				c1.18,0.52,1.99,0.94,2.44,1.28s0.78,0.71,1.01,1.12c0.23,0.41,0.34,0.9,0.34,1.46c0,1.05-0.36,1.88-1.09,2.5
				c-0.73,0.62-1.68,0.93-2.87,0.93c-1.26,0-2.27-0.35-3.05-1.03c-0.78-0.69-1.17-1.58-1.17-2.66h1.31c0.04,0.78,0.3,1.39,0.79,1.82
				c0.49,0.43,1.19,0.65,2.11,0.65c0.8,0,1.44-0.2,1.92-0.58C322.3,268.09,322.54,267.57,322.54,266.92z"/>
		</g>
		<g>
			<path class="st1" d="M157.43,196.21c0-1.35-0.37-2.38-1.1-3.1c-0.73-0.72-2.05-1.42-3.95-2.1s-3.36-1.4-4.37-2.14
				c-1.01-0.75-1.76-1.6-2.26-2.56s-0.75-2.06-0.75-3.3c0-2.14,0.71-3.9,2.14-5.29c1.43-1.39,3.3-2.08,5.61-2.08
				c1.58,0,2.99,0.35,4.23,1.07s2.19,1.7,2.86,2.96s1,2.65,1,4.15h-3.41c0-1.67-0.4-2.96-1.21-3.88s-1.96-1.37-3.47-1.37
				c-1.37,0-2.44,0.38-3.19,1.15c-0.76,0.77-1.13,1.85-1.13,3.23c0,1.14,0.41,2.09,1.23,2.86c0.82,0.77,2.08,1.46,3.79,2.06
				c2.66,0.88,4.56,1.96,5.71,3.25c1.14,1.29,1.72,2.97,1.72,5.05c0,2.19-0.71,3.95-2.13,5.26c-1.42,1.32-3.36,1.98-5.81,1.98
				c-1.57,0-3.02-0.35-4.35-1.03c-1.33-0.69-2.38-1.66-3.14-2.9s-1.14-2.67-1.14-4.28h3.41c0,1.67,0.47,2.97,1.4,3.9
				s2.21,1.39,3.81,1.39c1.5,0,2.62-0.38,3.38-1.15C157.05,198.58,157.43,197.54,157.43,196.21z"/>
			<path class="st1" d="M172.01,203.43c-2.5,0-4.42-0.75-5.75-2.24c-1.34-1.49-2.02-3.68-2.04-6.56v-2.43
				c0-2.99,0.65-5.34,1.96-7.04s3.13-2.55,5.46-2.55c2.35,0,4.11,0.75,5.27,2.25c1.16,1.5,1.76,3.83,1.78,7V194h-11.21v0.46
				c0,2.15,0.4,3.71,1.21,4.69s1.98,1.46,3.5,1.46c0.96,0,1.82-0.18,2.55-0.54c0.74-0.36,1.43-0.94,2.07-1.73l1.71,2.08
				C177.1,202.42,174.93,203.43,172.01,203.43z M171.64,185.41c-1.36,0-2.37,0.47-3.02,1.41c-0.66,0.94-1.03,2.39-1.11,4.37h7.9
				v-0.45c-0.09-1.91-0.43-3.28-1.03-4.1S172.87,185.41,171.64,185.41z"/>
			<path class="st1" d="M190.93,186.04c-0.46-0.09-0.95-0.13-1.48-0.13c-1.68,0-2.86,0.92-3.53,2.77v14.37h-3.28v-20.06h3.19
				l0.06,2.03c0.88-1.61,2.12-2.41,3.73-2.41c0.52,0,0.95,0.09,1.3,0.26L190.93,186.04z"/>
			<polygon class="st1" points="199.9,198.06 203.71,182.98 207.05,182.98 201.09,203.05 198.64,203.05 192.61,182.98 
				195.95,182.98 			"/>
			<path class="st1" d="M214.03,203.05h-3.28v-20.06h3.28V203.05z M214.29,177.64c0,0.56-0.15,1.02-0.46,1.4s-0.78,0.56-1.41,0.56
				c-0.62,0-1.08-0.19-1.39-0.56c-0.31-0.37-0.46-0.84-0.46-1.4s0.15-1.03,0.46-1.42s0.77-0.58,1.39-0.58c0.62,0,1.09,0.2,1.4,0.59
				C214.13,176.63,214.29,177.1,214.29,177.64z"/>
			<path class="st1" d="M226.19,200.61c1.09,0,1.96-0.34,2.62-1.01c0.66-0.67,1.01-1.63,1.08-2.88h3.1
				c-0.07,1.93-0.76,3.53-2.05,4.8c-1.29,1.27-2.87,1.9-4.74,1.9c-2.49,0-4.38-0.78-5.69-2.35s-1.96-3.9-1.96-6.99v-2.21
				c0-3.03,0.65-5.34,1.95-6.91c1.3-1.58,3.19-2.37,5.68-2.37c2.05,0,3.68,0.65,4.89,1.95s1.85,3.07,1.92,5.33h-3.1
				c-0.07-1.49-0.43-2.6-1.07-3.35c-0.64-0.74-1.52-1.12-2.64-1.12c-1.46,0-2.54,0.48-3.25,1.44s-1.07,2.53-1.1,4.72v2.56
				c0,2.36,0.35,4.03,1.05,5.01C223.58,200.13,224.68,200.61,226.19,200.61z"/>
			<path class="st1" d="M240.29,203.05H237v-20.06h3.28V203.05z M240.54,177.64c0,0.56-0.15,1.02-0.46,1.4s-0.78,0.56-1.41,0.56
				c-0.62,0-1.08-0.19-1.39-0.56s-0.46-0.84-0.46-1.4s0.15-1.03,0.46-1.42c0.31-0.39,0.77-0.58,1.39-0.58s1.09,0.2,1.4,0.59
				C240.39,176.63,240.54,177.1,240.54,177.64z"/>
			<path class="st1" d="M244.78,192.09c0-2.92,0.71-5.23,2.13-6.93c1.42-1.7,3.29-2.55,5.61-2.55c2.32,0,4.19,0.83,5.61,2.49
				c1.42,1.66,2.14,3.92,2.18,6.77v2.12c0,2.91-0.7,5.21-2.11,6.9s-3.29,2.54-5.64,2.54c-2.32,0-4.19-0.82-5.59-2.47
				s-2.13-3.87-2.18-6.68L244.78,192.09L244.78,192.09z M248.06,193.97c0,2.07,0.4,3.69,1.21,4.87c0.81,1.18,1.9,1.77,3.27,1.77
				c2.9,0,4.39-2.09,4.47-6.27v-2.26c0-2.05-0.41-3.68-1.23-4.87c-0.82-1.19-1.91-1.79-3.28-1.79c-1.35,0-2.43,0.6-3.24,1.79
				c-0.81,1.19-1.21,2.81-1.21,4.85L248.06,193.97L248.06,193.97z"/>
			<path class="st1" d="M274.27,197.91c0-0.71-0.27-1.31-0.8-1.82c-0.53-0.51-1.56-1.1-3.08-1.78c-1.77-0.73-3.02-1.35-3.74-1.88
				c-0.73-0.52-1.27-1.11-1.62-1.77c-0.36-0.66-0.54-1.45-0.54-2.37c0-1.63,0.6-2.99,1.79-4.07c1.19-1.08,2.72-1.62,4.57-1.62
				c1.95,0,3.52,0.57,4.71,1.71c1.19,1.14,1.78,2.6,1.78,4.38h-3.27c0-0.91-0.3-1.68-0.91-2.32c-0.61-0.64-1.38-0.96-2.32-0.96
				c-0.96,0-1.72,0.25-2.27,0.75c-0.55,0.5-0.83,1.17-0.83,2.01c0,0.67,0.2,1.2,0.6,1.61c0.4,0.41,1.37,0.94,2.9,1.61
				c2.44,0.96,4.09,1.89,4.97,2.8c0.88,0.91,1.32,2.07,1.32,3.47c0,1.75-0.6,3.15-1.8,4.2c-1.2,1.05-2.81,1.57-4.82,1.57
				c-2.09,0-3.79-0.6-5.08-1.8c-1.3-1.2-1.95-2.72-1.95-4.57h3.3c0.04,1.11,0.38,1.98,1.02,2.61c0.64,0.63,1.55,0.94,2.71,0.94
				c1.09,0,1.92-0.24,2.48-0.73C273.99,199.39,274.27,198.74,274.27,197.91z"/>
			<path class="st1" d="M289.89,192.1c0-3.09,0.58-5.45,1.73-7.07s2.82-2.43,4.98-2.43c1.92,0,3.41,0.78,4.49,2.34v-10.4h3.28v28.5
				h-3.01l-0.17-2.14c-1.08,1.68-2.62,2.52-4.62,2.52c-2.08,0-3.71-0.81-4.89-2.42c-1.18-1.62-1.78-3.9-1.81-6.84L289.89,192.1
				L289.89,192.1z M293.18,193.97c0,2.25,0.33,3.9,1,4.95s1.76,1.58,3.27,1.58c1.63,0,2.85-0.82,3.65-2.46v-10.1
				c-0.84-1.6-2.05-2.41-3.64-2.41c-1.51,0-2.6,0.53-3.27,1.58c-0.67,1.05-1.01,2.67-1.02,4.86V193.97L293.18,193.97z"/>
			<path class="st1" d="M316.62,203.43c-2.5,0-4.42-0.75-5.75-2.24c-1.33-1.49-2.02-3.68-2.04-6.56v-2.43
				c0-2.99,0.65-5.34,1.96-7.04c1.3-1.7,3.13-2.55,5.46-2.55c2.35,0,4.11,0.75,5.27,2.25c1.16,1.5,1.76,3.83,1.78,7V194H312.1v0.46
				c0,2.15,0.4,3.71,1.21,4.69c0.81,0.98,1.98,1.46,3.5,1.46c0.96,0,1.82-0.18,2.55-0.54c0.74-0.36,1.42-0.94,2.07-1.73l1.71,2.08
				C321.71,202.42,319.54,203.43,316.62,203.43z M316.25,185.41c-1.36,0-2.37,0.47-3.02,1.41c-0.65,0.94-1.02,2.39-1.11,4.37h7.9
				v-0.45c-0.09-1.91-0.43-3.28-1.03-4.1C318.39,185.82,317.48,185.41,316.25,185.41z"/>
		</g>
		<g>
			<path d="M148.69,241.84l-0.2-2.04h-0.12c-0.84,1.48-2.2,2.36-3.84,2.36c-2.6,0-4.6-2.2-4.6-5.52c0-4.84,3.88-7,8.24-7.04V229
				c0-2.6-0.64-4.4-3.08-4.4c-1.2,0-2.28,0.4-3.2,1l-0.68-2.16c0.8-0.6,2.6-1.28,4.52-1.28c3.88,0,5.56,2.56,5.56,6.92v8.36
				c0,1.48,0,3.16,0.2,4.4H148.69z M148.25,231.84c-1.6,0-5.32,0.28-5.32,4.48c0,2.52,1.28,3.44,2.36,3.44c1.36,0,2.52-1,2.88-2.92
				c0.08-0.36,0.08-0.76,0.08-1.08V231.84z"/>
			<path d="M155.41,241.84c0.04-1.12,0.16-3.32,0.16-4.64v-23.04h3.08v10.6h0.08c1-1.92,2.44-2.6,4.08-2.6c3,0,5.28,3.48,5.28,9.8
				c0,7-2.88,10.2-5.88,10.2c-2.04,0-3.08-1.2-3.84-2.84h-0.12l-0.2,2.52H155.41z M158.65,235c0,0.44,0,0.88,0.12,1.2
				c0.72,2.88,2.04,3.4,2.88,3.4c2.48,0,3.36-3.36,3.36-7.48c0-3.88-0.92-7.32-3.4-7.32c-1.44,0-2.64,1.8-2.88,3.44
				c-0.08,0.44-0.08,0.92-0.08,1.36V235z"/>
			<path d="M179.21,241.84l-0.2-2.04h-0.12c-0.84,1.48-2.2,2.36-3.84,2.36c-2.6,0-4.6-2.2-4.6-5.52c0-4.84,3.88-7,8.24-7.04V229
				c0-2.6-0.64-4.4-3.08-4.4c-1.2,0-2.28,0.4-3.2,1l-0.68-2.16c0.8-0.6,2.6-1.28,4.52-1.28c3.88,0,5.56,2.56,5.56,6.92v8.36
				c0,1.48,0,3.16,0.2,4.4H179.21z M178.77,231.84c-1.6,0-5.32,0.28-5.32,4.48c0,2.52,1.28,3.44,2.36,3.44c1.36,0,2.52-1,2.88-2.92
				c0.08-0.36,0.08-0.76,0.08-1.08V231.84z"/>
			<path d="M185.61,238.64c0.68,0.44,1.88,1,3.12,1c1.76,0,2.84-1.08,2.84-2.8c0-1.48-0.52-2.48-2.48-3.8
				c-2.52-1.64-3.88-3.28-3.88-5.52c0-3.12,2.32-5.36,5.32-5.36c1.52,0,2.68,0.52,3.48,1l-0.84,2.32c-0.72-0.48-1.56-0.84-2.56-0.84
				c-1.68,0-2.52,1.2-2.52,2.44c0,1.32,0.48,2.04,2.4,3.36c2.24,1.44,4,3.2,4,5.88c0,3.88-2.64,5.76-5.8,5.76
				c-1.44,0-3-0.44-3.84-1.12L185.61,238.64z"/>
			<path d="M201.45,217.36v5.12h3.72v2.36h-3.72v11.48c0,2.52,0.92,3.2,2.04,3.2c0.48,0,0.88-0.04,1.24-0.12l0.12,2.36
				c-0.56,0.2-1.28,0.32-2.28,0.32c-1.2,0-2.28-0.32-3.04-1.16c-0.76-0.88-1.16-2.2-1.16-4.88v-11.2h-2.36v-2.36h2.36v-4.24
				L201.45,217.36z"/>
			<path d="M209.73,232.44c0.04,5.92,2.36,7.2,4.6,7.2c1.32,0,2.44-0.32,3.2-0.76l0.48,2.28c-1.08,0.6-2.72,0.92-4.24,0.92
				c-4.64,0-7.04-3.8-7.04-9.72c0-6.28,2.64-10.2,6.52-10.2c3.96,0,5.52,4.16,5.52,8.56c0,0.72,0,1.24-0.04,1.72H209.73z
				 M215.81,230.16c0.08-3.88-1.4-5.6-2.88-5.6c-2,0-3.04,2.96-3.16,5.6H215.81z"/>
			<path d="M231.53,241.36c-0.68,0.4-1.84,0.72-3.2,0.72c-4.24,0-7.08-3.4-7.08-9.8c0-5.56,2.8-10.08,7.64-10.08
				c1.04,0,2.16,0.28,2.72,0.6l-0.6,2.52c-0.4-0.2-1.2-0.52-2.2-0.52c-3.08,0-4.48,3.68-4.48,7.48c0,4.52,1.72,7.24,4.56,7.24
				c0.84,0,1.52-0.2,2.24-0.52L231.53,241.36z"/>
			<path d="M237.49,217.48c0.04,1.2-0.72,2-1.88,2c-1,0-1.76-0.8-1.76-2s0.8-2,1.8-2C236.77,215.49,237.49,216.29,237.49,217.48z
				 M234.17,241.84v-19.36h3.08v19.36H234.17z"/>
			<path d="M241.53,227.48c0-2.28-0.12-3.44-0.16-5h2.68l0.16,2.4h0.08c0.84-1.56,2.32-2.72,4.36-2.72c1.8,0,3.32,0.88,4.04,2.96
				h0.08c0.52-0.96,1.2-1.72,1.92-2.2c0.76-0.52,1.68-0.76,2.68-0.76c2.6,0,4.64,1.92,4.64,6.84v12.84h-3.04v-12.12
				c0-2.52-0.36-4.96-2.72-4.96c-1.28,0-2.4,1.08-2.84,2.88c-0.08,0.52-0.12,1.12-0.12,1.76v12.44h-3.04v-12.68
				c0-2.16-0.4-4.4-2.68-4.4c-1.24,0-2.52,1.08-2.88,3.12c-0.08,0.52-0.12,1.08-0.12,1.68v12.28h-3.04V227.48z"/>
			<path d="M269.65,217.48c0.04,1.2-0.72,2-1.88,2c-1,0-1.76-0.8-1.76-2s0.8-2,1.8-2C268.93,215.49,269.65,216.29,269.65,217.48z
				 M266.33,241.84v-19.36h3.08v19.36H266.33z"/>
			<path d="M275.85,232.44c0.04,5.92,2.36,7.2,4.6,7.2c1.32,0,2.44-0.32,3.2-0.76l0.48,2.28c-1.08,0.6-2.72,0.92-4.24,0.92
				c-4.64,0-7.04-3.8-7.04-9.72c0-6.28,2.64-10.2,6.52-10.2c3.96,0,5.52,4.16,5.52,8.56c0,0.72,0,1.24-0.04,1.72H275.85z
				 M281.93,230.16c0.08-3.88-1.4-5.6-2.88-5.6c-2,0-3.04,2.96-3.16,5.6H281.93z"/>
			<path d="M288.21,227.48c0-2.28-0.12-3.44-0.16-5h2.68l0.16,2.32h0.08c0.84-1.56,2.4-2.64,4.44-2.64c2.68,0,4.68,2,4.68,6.68v13
				h-3.08v-12.48c0-2.28-0.44-4.6-2.68-4.6c-1.28,0-2.52,1.08-2.92,3.16c-0.08,0.48-0.12,1.08-0.12,1.72v12.2h-3.08V227.48z"/>
			<path d="M307.93,217.36v5.12h3.72v2.36h-3.72v11.48c0,2.52,0.92,3.2,2.04,3.2c0.48,0,0.88-0.04,1.24-0.12l0.12,2.36
				c-0.56,0.2-1.28,0.32-2.28,0.32c-1.2,0-2.28-0.32-3.04-1.16c-0.76-0.88-1.16-2.2-1.16-4.88v-11.2h-2.36v-2.36h2.36v-4.24
				L307.93,217.36z"/>
			<path d="M325.93,232.16c0,7.48-3.48,10-6.44,10c-3.48,0-6.28-3.16-6.28-9.96c0-7.08,3.16-10.04,6.48-10.04
				C323.13,222.16,325.93,225.4,325.93,232.16z M316.29,232.16c0,3.2,0.56,7.56,3.36,7.56c2.64,0,3.16-4.56,3.16-7.56
				c0-2.96-0.52-7.52-3.24-7.52C316.81,224.64,316.29,229.2,316.29,232.16z"/>
		</g>
	</g>
	<path class="st2" d="M16.24,237c0-79.68,42.79-149.36,106.65-187.32l42.23,73.1c-38.65,23.35-64.49,65.77-64.49,114.22
		c0,72.76,58.27,131.91,130.69,133.34v84.41C112.29,453.31,16.24,356.37,16.24,237z"/>
	<path class="st3" d="M345.35,49.83C409.07,87.82,451.76,157.42,451.76,237c0,119.49-96.24,216.5-215.43,217.75v-84.4
		c72.58-1.24,131.04-60.46,131.04-133.34c0-48.39-25.77-90.76-64.34-114.13L345.35,49.83z"/>
	<g>
		<ellipse class="st4" cx="234" cy="489" rx="127" ry="21"/>
		<ellipse class="st5" cx="234" cy="488.36" rx="120.18" ry="19.87"/>
		<ellipse class="st6" cx="234" cy="487.73" rx="113.36" ry="18.74"/>
		<ellipse class="st7" cx="234" cy="487.09" rx="106.54" ry="17.62"/>
		<ellipse class="st8" cx="234" cy="486.45" rx="99.73" ry="16.49"/>
		<ellipse class="st9" cx="234" cy="485.82" rx="92.91" ry="15.36"/>
		<ellipse class="st10" cx="234" cy="485.18" rx="86.09" ry="14.23"/>
		<ellipse class="st11" cx="234" cy="484.55" rx="79.27" ry="13.11"/>
		<ellipse class="st12" cx="234" cy="483.91" rx="72.45" ry="11.98"/>
		<ellipse class="st13" cx="234" cy="483.27" rx="65.64" ry="10.85"/>
		<ellipse class="st14" cx="234" cy="482.64" rx="58.82" ry="9.73"/>
		<g>
			<ellipse class="st15" cx="234" cy="482" rx="52" ry="8.6"/>
			<path class="st15" d="M234,482"/>
		</g>
	</g>
</g>
<g>
	<path class="st4" d="M77.67,270.27h0.02c-15.58-20.88-14.55-56.86-15.29-45.33c-1.96,30.07-13.8,45.33-13.8,45.33l0,0
		c-0.99,1.88-1.56,3.94-1.56,6.16c0,7.95,7.21,14.42,16.1,14.42c8.9,0,16.1-6.47,16.1-14.42C79.24,274.21,78.67,272.15,77.67,270.27
		z"/>
</g>
<g>
	<path class="st4" d="M424.68,241.44c-2.43-0.92-4.72-0.77-6.98-0.23c0.13-0.14,0.28-0.27,0.41-0.42c2.49-3.04,3.35-7.59,2.11-11.3
		c-0.02-0.07-0.06-0.11-0.1-0.17c-0.03-0.35-0.26-0.66-0.71-0.62c-5.87,0.47-10.97,4.7-12.65,10.13c-1.32-3.94-4.26-7.61-7.36-9.91
		c-0.23-0.17-0.45-0.17-0.64-0.08c-0.02,0.01-0.04,0.02-0.06,0.04c-0.04,0.03-0.09,0.06-0.13,0.09c-0.03,0.02-0.06,0.04-0.09,0.07
		c-1.18,1.33-1.8,3.31-2.25,4.98c-0.07,0.28,0.01,0.5,0.16,0.67c0.09,0.12,0.2,0.21,0.37,0.27c4.21,1.29,7.36,4.6,8.53,8.79
		c-4.68-0.78-8.67-3.74-13.74-3.11c-4.89,0.61-8.69,3.98-10.72,8.37c-5.24,11.32,0.8,24.9,8.19,33.81c3.87,4.67,7.46,4.16,12.76,2.4
		c3.84-1.27,6.45-0.54,10.18,0.4c2.07,0.52,4.4,1.06,6.54,0.72c5.14-0.81,8.46-7.07,10.32-11.34c2.73-6.29,4.83-12.75,4.63-19.68
		C433.28,249.57,430.32,243.59,424.68,241.44z M418.86,230.29c0.95,3.32,0.14,7.49-2.31,9.98c-2.26,2.3-5.73,3.08-8.86,3.53
		c0.01-0.06,0.03-0.12,0.03-0.2C407.23,237.11,412.39,231.12,418.86,230.29z M397.88,233.77c0.3-1.06,0.69-2.19,1.3-3.11
		c2.85,2.31,5.49,5.99,6.43,9.74C403.96,237.34,401.22,234.98,397.88,233.77z M421.9,282.83c-5.05,4.71-10.66-0.3-16.31-0.06
		c-2.7,0.11-5.08,1.52-7.65,2.17c-4.61,1.15-7.32-2.18-9.61-5.65c-3.87-5.87-7.45-12.22-7.91-19.38
		c-0.46-7.18,2.67-16.17,10.62-17.64c5.7-1.05,10.06,2.75,15.47,3.16c0.09,0.03,0.2,0.04,0.33,0.03c1.55-0.02,3.08-0.37,4.58-0.83
		c0.72-0.19,1.43-0.43,2.11-0.7c3.21-1.11,6.39-2.26,9.73-1.35c9.06,2.48,9.6,13.75,7.89,21.28
		C429.68,270.3,426.84,278.22,421.9,282.83z"/>
	<path class="st4" d="M392.74,246.7c-5.12,2.11-7.71,8.56-6.85,13.77c0.16,0.96,1.62,0.55,1.46-0.4c-0.71-4.29,1.49-10.14,5.79-11.9
		C394.03,247.8,393.64,246.33,392.74,246.7z"/>
	<path class="st4" d="M386.9,263.61c-0.98,0-0.98,1.52,0,1.52S387.88,263.61,386.9,263.61z"/>
</g>
</svg>
