<?xml version="1.0" encoding="utf-8"?>
<!-- Generator: Adobe Illustrator 23.0.3, SVG Export Plug-In . SVG Version: 6.00 Build 0)  -->
<svg version="1.1" id="Capa_1" xmlns="http://www.w3.org/2000/svg" xmlns:xlink="http://www.w3.org/1999/xlink" x="0px" y="0px"
	 viewBox="0 0 230.13 307.27" style="enable-background:new 0 0 230.13 307.27;" xml:space="preserve">
<style type="text/css">
	.st0{fill:url(#SVGID_1_);}
	.st1{fill:url(#SVGID_2_);}
	.st2{fill:#526625;}
	.st3{opacity:0.5;fill:#949EAF;enable-background:new    ;}
	.st4{fill:#6D4020;}
	.st5{clip-path:url(#SVGID_4_);fill:#422914;}
	.st6{fill:#99C63E;}
	.st7{clip-path:url(#SVGID_6_);}
	.st8{fill:#B5E452;}
	.st9{fill:#779C32;}
	.st10{fill:url(#SVGID_7_);}
	.st11{fill:url(#SVGID_8_);}
	.st12{fill:url(#SVGID_9_);}
	.st13{fill:url(#SVGID_10_);}
	.st14{fill:#FFFFFF;}
	.st15{fill:url(#SVGID_11_);stroke:#422914;stroke-width:2;stroke-miterlimit:10;}
	.st16{fill:url(#SVGID_12_);stroke:#422914;stroke-width:2;stroke-miterlimit:10;}
	.st17{fill:none;stroke:#422914;stroke-width:2;stroke-miterlimit:10;}
	.st18{fill:#CCCCCC;}
	.st19{fill:#AEAFAE;}
	.st20{fill:#E2DB54;}
</style>
<g>
	
		<linearGradient id="SVGID_1_" gradientUnits="userSpaceOnUse" x1="115.1105" y1="46.1404" x2="115.28" y2="67.543" gradientTransform="matrix(0.9942 -0.1075 -0.1075 -0.9942 28.8357 227.9241)">
		<stop  offset="0" style="stop-color:#E6E6E6"/>
		<stop  offset="0.525" style="stop-color:#D6D6D6"/>
		<stop  offset="1" style="stop-color:#CCCCCC"/>
	</linearGradient>
	<path class="st0" d="M143.95,171.41l-9.57,0.75c-4.05,0.32-7.68-1.8-8.12-4.74l-2.29-15.33c-0.44-2.93,2.49-5.57,6.54-5.89
		l9.57-0.75c4.05-0.32,7.68,1.8,8.12,4.74l2.29,15.33C150.93,168.45,148,171.09,143.95,171.41z"/>
	
		<linearGradient id="SVGID_2_" gradientUnits="userSpaceOnUse" x1="115.8877" y1="-0.7265" x2="116.0612" y2="21.1837" gradientTransform="matrix(0.9767 -0.2145 -0.2145 -0.9767 54.2575 192.9855)">
		<stop  offset="0" style="stop-color:#E6E6E6"/>
		<stop  offset="0.525" style="stop-color:#D6D6D6"/>
		<stop  offset="1" style="stop-color:#CCCCCC"/>
	</linearGradient>
	<path class="st1" d="M173.86,169.9l-9.4,1.5c-3.98,0.63-7.91-1.19-8.78-4.07l-4.57-15.06c-0.87-2.88,1.64-5.73,5.62-6.36l9.4-1.5
		c3.98-0.63,7.91,1.19,8.78,4.07l4.56,15.06C180.35,166.42,177.83,169.27,173.86,169.9z"/>
	<path class="st2" d="M79.74,216.86c0,0-4.5-36.9,33.3-54.01l-59.41,4.5l-10.8-2.7l-11.7,50.41l43.2,12.6L79.74,216.86z"/>
	<ellipse class="st3" cx="116.64" cy="298.77" rx="63.01" ry="4.5"/>
	<g>
		<path class="st4" d="M97.29,233.51c0,0-0.9,44.1,12.6,64.81c0,0,7.2,3.6,18.9,0c0,0-24.3-9.9-27.9-64.81H97.29z"/>
		<g>
			<g>
				<defs>
					<path id="SVGID_3_" d="M97.29,233.51c0,0-0.9,44.1,12.6,64.81c0,0,7.2,3.6,18.9,0c0,0-24.3-9.9-27.9-64.81H97.29z"/>
				</defs>
				<clipPath id="SVGID_4_">
					<use xlink:href="#SVGID_3_"  style="overflow:visible;"/>
				</clipPath>
				<path class="st5" d="M99.54,226.76c0,0-0.9,47.7,13.5,65.71c0,0,1.87,5.25,14.44,6.23l-5.44,6.37l-22.5-2.7l-11.7-36l4.5-42.3
					L99.54,226.76z"/>
			</g>
		</g>
	</g>
	<path class="st6" d="M44.18,211.01C95.04,138.55,199,158.81,199,158.81C176.5,72.4,102.69,34.6,102.69,34.6
		c-6.35,2.89-17.48,11.07-29.97,22.54c4.7,4.82,6.14,11.7,3.04,17.06c-3.85,6.67-13.26,8.46-21.01,3.98
		c-0.63-0.36-1.21-0.76-1.78-1.18c-20.88,22.98-40.81,51.81-45.7,78.21c-18,97.21,92.71,100.81,92.71,100.81
		c68.41,1.8,81.91-34.2,81.91-34.2C88.74,206.06,44.18,211.01,44.18,211.01z"/>
	<g>
		<g>
			<defs>
				<path id="SVGID_5_" d="M99.99,256.02c0,0-110.71-3.6-92.71-100.81C16.76,103.99,82.89,43.6,102.69,34.6
					c0,0,73.81,37.8,96.31,124.21c0,0-107.56-18.45-154.37,52.66c0,0,48.6-5.4,137.26,10.35C181.9,221.81,168.4,257.82,99.99,256.02
					z"/>
			</defs>
			<clipPath id="SVGID_6_">
				<use xlink:href="#SVGID_5_"  style="overflow:visible;"/>
			</clipPath>
			<g class="st7">
				<path class="st8" d="M108.99,44.49c0,0,66.24,36.16,85.77,116.64l-2.07,27.37L183,167.17C183.01,167.18,166.6,91.3,108.99,44.49
					z"/>
				<path class="st9" d="M101.79,41.79c0,0-42.3,131.41-1.8,209.72C99.99,251.51,39.68,204.71,101.79,41.79z"/>
				<path class="st9" d="M93.69,102.1c0,0,31.5,0,59.41-20.7C153.1,81.4,134.19,108.4,93.69,102.1z"/>
				<path class="st9" d="M90.09,133.6c0,0,59.41-4.5,79.21-32.4C169.3,101.2,151.3,139,90.09,133.6z"/>
				<path class="st9" d="M77.49,104.8c0,0-15.3-3.6-29.7-16.2C47.78,88.6,57.69,107.5,77.49,104.8z"/>
				<path class="st9" d="M71.19,138.1c0,0-13.5-2.7-41.4-23.4C29.78,114.7,42.38,135.4,71.19,138.1z"/>
				<path class="st9" d="M68.94,167.36c0,0-16.88-3.38-51.76-29.25C17.18,138.1,32.93,163.98,68.94,167.36z"/>
				<path class="st9" d="M73.44,210.56c0,0-20.4-5.04-62.56-43.65C10.88,166.91,29.92,205.52,73.44,210.56z"/>
			</g>
		</g>
	</g>
	<g>
		
			<linearGradient id="SVGID_7_" gradientUnits="userSpaceOnUse" x1="80.2257" y1="156.2173" x2="115.8214" y2="166.5335" gradientTransform="matrix(1 0 0 -1 0 264.54)">
			<stop  offset="0" style="stop-color:#32333D"/>
			<stop  offset="0.1993" style="stop-color:#313540"/>
			<stop  offset="1" style="stop-color:#303C4A"/>
		</linearGradient>
		<path class="st10" d="M82.48,105.65c2.59-0.74,5.12-1.53,7.6-2.3c2.48-0.78,4.94-1.58,7.4-2.39c2.48-0.82,4.8-1.6,7.21-2.47
			l7.41-2.68l0.05-0.02c0.27-0.1,0.58,0.04,0.68,0.32c0.05,0.14,0.04,0.29-0.02,0.41c-0.68,1.37-1.61,2.47-2.63,3.5
			c-1.02,1.01-2.15,1.92-3.35,2.7c-2.38,1.56-5.1,2.69-7.76,3.42c-2.67,0.76-5.43,1.29-8.24,1.43c-2.8,0.14-5.64,0.01-8.42-0.92
			c-0.27-0.09-0.41-0.38-0.32-0.65c0.06-0.17,0.19-0.28,0.34-0.33L82.48,105.65z"/>
	</g>
	
		<ellipse transform="matrix(0.9767 -0.2145 0.2145 0.9767 -24.8766 24.115)" class="st9" cx="98.67" cy="126.68" rx="8.77" ry="12.78"/>
	
		<ellipse transform="matrix(0.9767 -0.2145 0.2145 0.9767 -23.2866 30.6832)" class="st9" cx="129.73" cy="122.64" rx="8.77" ry="12.78"/>
	<g>
		
			<linearGradient id="SVGID_8_" gradientUnits="userSpaceOnUse" x1="151.1" y1="176.9225" x2="118.5129" y2="177.845" gradientTransform="matrix(1 0 0 -1 0 264.54)">
			<stop  offset="0" style="stop-color:#32333D"/>
			<stop  offset="0.1993" style="stop-color:#313540"/>
			<stop  offset="1" style="stop-color:#303C4A"/>
		</linearGradient>
		<path class="st11" d="M147.83,91.75c-1.05-0.76-2.2-1.41-3.34-1.94s-2.29-0.98-3.47-1.33c-2.33-0.73-4.75-1.12-7.21-1.35
			c-0.62-0.06-1.25-0.11-1.76-0.14c-0.53,0.01-1.06,0-1.57,0.06c-1.03,0.11-2.03,0.35-3.03,0.76c-1.99,0.81-3.98,2.35-5.89,4.3
			l-0.04,0.04c-0.2,0.21-0.53,0.21-0.74,0.01c-0.11-0.11-0.16-0.25-0.16-0.4c0.07-1.55,0.55-2.99,1.29-4.36
			c0.75-1.35,1.8-2.61,3.14-3.6c1.33-0.98,2.92-1.7,4.57-2.01c1.63-0.36,3.4-0.27,4.78-0.07c2.92,0.36,5.87,1.21,8.45,2.8
			c1.3,0.76,2.48,1.74,3.5,2.85c1.01,1.13,1.86,2.36,2.33,3.85c0.08,0.27-0.07,0.56-0.33,0.64c-0.16,0.05-0.32,0.02-0.45-0.07
			L147.83,91.75z"/>
	</g>
	
		<linearGradient id="SVGID_9_" gradientUnits="userSpaceOnUse" x1="92.9977" y1="138.6929" x2="107.1685" y2="142.2597" gradientTransform="matrix(1 0 0 -1 0 264.54)">
		<stop  offset="0" style="stop-color:#32333D"/>
		<stop  offset="0.1993" style="stop-color:#313540"/>
		<stop  offset="1" style="stop-color:#303C4A"/>
	</linearGradient>
	<path class="st12" d="M107.65,122.41c1.51,6.89-0.78,13.25-5.13,14.21c-4.35,0.96-9.1-3.86-10.61-10.75
		c-1.51-6.89,0.78-13.25,5.13-14.21S106.13,115.52,107.65,122.41z"/>
	
		<linearGradient id="SVGID_10_" gradientUnits="userSpaceOnUse" x1="123.1688" y1="141.621" x2="139.1814" y2="146.2617" gradientTransform="matrix(1 0 0 -1 0 264.54)">
		<stop  offset="0" style="stop-color:#32333D"/>
		<stop  offset="0.1993" style="stop-color:#313540"/>
		<stop  offset="1" style="stop-color:#303C4A"/>
	</linearGradient>
	<path class="st13" d="M138.73,118.96c1.51,6.89-0.78,13.25-5.13,14.21c-4.35,0.96-9.1-3.86-10.61-10.75
		c-1.51-6.89,0.78-13.25,5.13-14.21S137.21,112.07,138.73,118.96z"/>
	
		<ellipse transform="matrix(0.9767 -0.2145 0.2145 0.9767 -23.6512 23.6692)" class="st14" cx="97.23" cy="120.81" rx="4.06" ry="6.44"/>
	
		<ellipse transform="matrix(0.9767 -0.2145 0.2145 0.9767 -22.1874 30.2556)" class="st14" cx="128.31" cy="117.36" rx="4.06" ry="6.44"/>
	<path class="st9" d="M181.45,221.36L181.45,221.36c0,0-59.41-4.5-137.71-10.8C43.73,210.56,82.44,205.16,181.45,221.36z"/>
	
		<linearGradient id="SVGID_11_" gradientUnits="userSpaceOnUse" x1="100.9605" y1="109.1582" x2="101.2295" y2="143.1318" gradientTransform="matrix(1 0 0 -1 0 264.54)">
		<stop  offset="0" style="stop-color:#FFFFFF;stop-opacity:0.5"/>
		<stop  offset="1" style="stop-color:#FFFFFF;stop-opacity:0.3"/>
	</linearGradient>
	<path class="st15" d="M123.52,134.77c1.48,9.15-7.36,18.2-19.75,20.2s-23.63-3.8-25.1-12.95c-1.48-9.15,7.36-18.2,19.75-20.2
		C110.8,119.82,122.04,125.62,123.52,134.77z"/>
	
		<linearGradient id="SVGID_12_" gradientUnits="userSpaceOnUse" x1="154.0314" y1="119.0282" x2="154.3005" y2="153.0054" gradientTransform="matrix(1 0 0 -1 0 264.54)">
		<stop  offset="0" style="stop-color:#FFFFFF;stop-opacity:0.5"/>
		<stop  offset="1" style="stop-color:#FFFFFF;stop-opacity:0.3"/>
	</linearGradient>
	<path class="st16" d="M176.59,124.9c1.48,9.15-7.36,18.2-19.75,20.2s-23.63-3.8-25.1-12.95s7.36-18.2,19.75-20.2
		C163.87,109.94,175.11,115.74,176.59,124.9z"/>
	<path class="st14" d="M110.25,145.74c-10.04,1.62-19.14-3.08-20.34-10.49c-0.43-2.64,0.21-5.28,1.66-7.64
		c-6.05,3.11-9.75,8.55-8.87,14.05c1.2,7.42,10.3,12.12,20.34,10.49c6.46-1.04,11.72-4.45,14.34-8.72
		C115.27,144.51,112.86,145.31,110.25,145.74z"/>
	<path class="st14" d="M162.34,135.86c-10.04,1.62-19.14-3.08-20.34-10.49c-0.43-2.64,0.21-5.28,1.66-7.64
		c-6.05,3.11-9.75,8.55-8.87,14.05c1.2,7.42,10.3,12.12,20.34,10.49c6.46-1.04,11.72-4.45,14.34-8.72
		C167.35,134.63,164.94,135.44,162.34,135.86z"/>
	<path class="st17" d="M123.07,132.92c0,0,4.92-2.27,8.87-1.57"/>
</g>
<g>
	<path class="st18" d="M198.26,71.03l-16.9-6.19c-1.55-0.57-2.35-2.3-1.78-3.85l0,0c0.57-1.55,2.3-2.35,3.85-1.78l16.9,6.19
		c1.55,0.57,2.35,2.3,1.78,3.85l0,0C201.55,70.79,199.81,71.59,198.26,71.03z"/>
	<path class="st19" d="M200.33,65.39l-16.9-6.19c-1.03-0.38-2.14-0.14-2.94,0.52c0.18,1.02,0.87,1.92,1.91,2.3l16.9,6.19
		c1.03,0.38,2.14,0.14,2.94-0.52C202.05,66.67,201.36,65.77,200.33,65.39z"/>
	<path class="st18" d="M199.98,66.33l-16.9-6.19c-1.55-0.57-2.35-2.3-1.78-3.85l0,0c0.57-1.55,2.3-2.35,3.85-1.78l16.9,6.19
		c1.55,0.57,2.35,2.3,1.78,3.85l0,0C203.27,66.1,201.53,66.9,199.98,66.33z"/>
	<path class="st19" d="M202.05,60.7l-16.9-6.19c-1.03-0.38-2.14-0.14-2.94,0.52c0.18,1.02,0.87,1.92,1.91,2.3l16.9,6.19
		c1.03,0.38,2.14,0.14,2.94-0.52C203.77,61.98,203.08,61.08,202.05,60.7z"/>
	<path class="st18" d="M201.71,61.64l-16.9-6.19c-1.55-0.57-2.35-2.3-1.78-3.85l0,0c0.57-1.55,2.3-2.35,3.85-1.78l16.9,6.19
		c1.55,0.57,2.35,2.3,1.78,3.85l0,0C204.99,61.4,203.25,62.21,201.71,61.64z"/>
	<path class="st20" d="M199.51,56.57l-9.76-3.58c-3.51-1.29-5.33-5.22-4.05-8.73l6.33-17.27c1.29-3.51,5.22-5.33,8.73-4.05
		l9.76,3.58c3.51,1.29,5.33,5.22,4.05,8.73l-6.33,17.27C206.95,56.04,203.02,57.86,199.51,56.57z"/>
	<circle class="st20" cx="206.63" cy="23.5" r="23.5"/>
	
		<ellipse transform="matrix(0.734 -0.6792 0.6792 0.734 42.8707 138.0029)" class="st14" cx="197.6" cy="14.28" rx="10.5" ry="6.41"/>
</g>
</svg>
