<?xml version="1.0" encoding="utf-8"?>
<!-- Generator: Adobe Illustrator 25.3.1, SVG Export Plug-In . SVG Version: 6.00 Build 0)  -->
<svg version="1.1" id="Capa_1" xmlns="http://www.w3.org/2000/svg" xmlns:xlink="http://www.w3.org/1999/xlink" x="0px" y="0px"
	 viewBox="0 0 246 205" style="enable-background:new 0 0 246 205;" xml:space="preserve">
<style type="text/css">
	.st0{fill:#A4CCA3;}
	.st1{fill:#FFFFFF;}
</style>
<g>
	<path class="st0" d="M235.6,205H10.4C4.7,205,0,200.3,0,194.6V10.4C0,4.7,4.7,0,10.4,0h225.1c5.8,0,10.4,4.7,10.4,10.4v184.1
		C246,200.3,241.3,205,235.6,205z"/>
	<g>
		<g>
			<path class="st1" d="M76.7,71.5H15.3c-1.5,0-2.8-1.2-2.8-2.8V43.3c0-1.5,1.2-2.8,2.8-2.8h61.4c1.5,0,2.8,1.2,2.8,2.8v25.4
				C79.5,70.3,78.3,71.5,76.7,71.5z"/>
			<path class="st1" d="M153.5,72H92c-1.5,0-2.8-1.2-2.8-2.8V43.8c0-1.5,1.2-2.8,2.8-2.8h61.4c1.5,0,2.8,1.2,2.8,2.8v25.4
				C156.2,70.8,155,72,153.5,72z"/>
			<path class="st1" d="M230.2,72h-61.4c-1.5,0-2.8-1.2-2.8-2.8V43.8c0-1.5,1.2-2.8,2.8-2.8h61.4c1.5,0,2.8,1.2,2.8,2.8v25.4
				C233,70.8,231.8,72,230.2,72z"/>
		</g>
		<g>
			<path class="st1" d="M76.7,111.2H15.3c-1.5,0-2.8-1.2-2.8-2.8V82.9c0-1.5,1.2-2.8,2.8-2.8h61.4c1.5,0,2.8,1.2,2.8,2.8v25.4
				C79.5,109.9,78.3,111.2,76.7,111.2z"/>
			<path class="st1" d="M153.5,111.7H92c-1.5,0-2.8-1.2-2.8-2.8V83.4c0-1.5,1.2-2.8,2.8-2.8h61.4c1.5,0,2.8,1.2,2.8,2.8v25.4
				C156.2,110.4,155,111.7,153.5,111.7z"/>
			<path class="st1" d="M230.2,111.7h-61.4c-1.5,0-2.8-1.2-2.8-2.8V83.4c0-1.5,1.2-2.8,2.8-2.8h61.4c1.5,0,2.8,1.2,2.8,2.8v25.4
				C233,110.4,231.8,111.7,230.2,111.7z"/>
		</g>
		<g>
			<path class="st1" d="M76.7,150.8H15.3c-1.5,0-2.8-1.2-2.8-2.8v-25.4c0-1.5,1.2-2.8,2.8-2.8h61.4c1.5,0,2.8,1.2,2.8,2.8v25.4
				C79.5,149.6,78.3,150.8,76.7,150.8z"/>
			<path class="st1" d="M153.5,151.3H92c-1.5,0-2.8-1.2-2.8-2.8v-25.4c0-1.5,1.2-2.8,2.8-2.8h61.4c1.5,0,2.8,1.2,2.8,2.8v25.4
				C156.2,150.1,155,151.3,153.5,151.3z"/>
			<path class="st1" d="M230.2,151.3h-61.4c-1.5,0-2.8-1.2-2.8-2.8v-25.4c0-1.5,1.2-2.8,2.8-2.8h61.4c1.5,0,2.8,1.2,2.8,2.8v25.4
				C233,150.1,231.8,151.3,230.2,151.3z"/>
		</g>
		<g>
			<path class="st1" d="M76.7,190.5H15.3c-1.5,0-2.8-1.2-2.8-2.8v-25.4c0-1.5,1.2-2.8,2.8-2.8h61.4c1.5,0,2.8,1.2,2.8,2.8v25.4
				C79.5,189.3,78.3,190.5,76.7,190.5z"/>
			<path class="st1" d="M153.5,191H92c-1.5,0-2.8-1.2-2.8-2.8v-25.4c0-1.5,1.2-2.8,2.8-2.8h61.4c1.5,0,2.8,1.2,2.8,2.8v25.4
				C156.2,189.8,155,191,153.5,191z"/>
			<path class="st1" d="M230.2,191h-61.4c-1.5,0-2.8-1.2-2.8-2.8v-25.4c0-1.5,1.2-2.8,2.8-2.8h61.4c1.5,0,2.8,1.2,2.8,2.8v25.4
				C233,189.8,231.8,191,230.2,191z"/>
		</g>
	</g>
</g>
</svg>
