<?xml version="1.0" encoding="utf-8"?>
<!-- Generator: Adobe Illustrator 24.1.2, SVG Export Plug-In . SVG Version: 6.00 Build 0)  -->
<svg version="1.1" id="Layer_1" xmlns="http://www.w3.org/2000/svg" xmlns:xlink="http://www.w3.org/1999/xlink" x="0px" y="0px"
	 viewBox="0 0 100 100" style="enable-background:new 0 0 100 100;" xml:space="preserve">
<style type="text/css">
	.st0{fill:#5FB49C;}
</style>
<path class="st0" d="M97,50C97,24,76,3,50,3S3,24,3,50s21,47,47,47S97,76,97,50z M19.4,49.8h14l-6-23.8h45.2l-6.1,23.8h14L50,80
	L19.4,49.8z"/>
</svg>
