<?xml version="1.0" encoding="utf-8"?>
<!-- Generator: Adobe Illustrator 24.1.2, SVG Export Plug-In . SVG Version: 6.00 Build 0)  -->
<svg version="1.1" id="Layer_1" xmlns="http://www.w3.org/2000/svg" xmlns:xlink="http://www.w3.org/1999/xlink" x="0px" y="0px"
	 viewBox="0 0 162.7 115.3" style="enable-background:new 0 0 162.7 115.3;" xml:space="preserve">
<style type="text/css">
	.st0{fill:#9ECB2B;}
	.st1{fill:none;stroke:#FFFFFF;stroke-width:3;stroke-linecap:round;stroke-linejoin:round;stroke-miterlimit:9.9999;}
</style>
<path class="st0" d="M121.3,5.5H12.2c-2.9,0-7.5,0.7-5.9,3.4l29.5,45.9c2,1.7,2,3.7,0,5.4L6.3,106.1c-2.5,2.7,3.1,3.4,5.9,3.4h109.1
	c2.9,0,5.5-1,6.9-2.7l29.5-46.6c1.4-1.7,1.4-3.8,0-5.4L128.2,8.2C126.8,6.5,124.2,5.5,121.3,5.5z"/>
<g>
	<polygon class="st1" points="104,21.3 67,21.3 57,38.3 114,38.3 	"/>
	<rect x="55.5" y="74.8" class="st1" width="61" height="7"/>
	<polygon class="st1" points="93.5,53.8 78.5,53.8 80.5,68.8 91.5,68.8 	"/>
	<polyline class="st1" points="58.5,47.8 116.5,47.8 116.5,55.8 124.5,55.8 	"/>
	<line class="st1" x1="65.5" y1="38.8" x2="65.5" y2="74.8"/>
	<line class="st1" x1="106.5" y1="38.8" x2="106.5" y2="74.8"/>
	<line class="st1" x1="58.5" y1="81.8" x2="58.5" y2="97.8"/>
	<line class="st1" x1="113.5" y1="81.8" x2="113.5" y2="97.8"/>
	<line class="st1" x1="85.5" y1="38.8" x2="85.5" y2="53.8"/>
</g>
</svg>
