<?xml version="1.0" encoding="utf-8"?>
<!-- Generator: Adobe Illustrator 24.1.2, SVG Export Plug-In . SVG Version: 6.00 Build 0)  -->
<svg version="1.1" id="Layer_1" xmlns="http://www.w3.org/2000/svg" xmlns:xlink="http://www.w3.org/1999/xlink" x="0px" y="0px"
	 viewBox="0 0 767 299" style="enable-background:new 0 0 767 299;" xml:space="preserve">
<style type="text/css">
	.st0{fill:#FF88BE;}
	.st1{fill:#61FBFF;}
	.st2{fill-rule:evenodd;clip-rule:evenodd;fill:#D4AC8C;}
	.st3{fill-rule:evenodd;clip-rule:evenodd;}
	.st4{fill-rule:evenodd;clip-rule:evenodd;fill:#9DC3E6;}
	.st5{fill-rule:evenodd;clip-rule:evenodd;fill:#5B9BD5;}
	.st6{fill-rule:evenodd;clip-rule:evenodd;fill:#2E75B6;}
	.st7{fill-rule:evenodd;clip-rule:evenodd;fill:#C9C9C9;}
	.st8{fill-rule:evenodd;clip-rule:evenodd;fill:#A5A5A5;}
	.st9{fill-rule:evenodd;clip-rule:evenodd;fill:#7C7C7C;}
	.st10{fill-rule:evenodd;clip-rule:evenodd;fill:#BBA17C;}
	.st11{fill-rule:evenodd;clip-rule:evenodd;fill:#FFD966;}
	.st12{fill-rule:evenodd;clip-rule:evenodd;fill:#FFC000;}
	.st13{fill-rule:evenodd;clip-rule:evenodd;fill:#8FAADC;}
	.st14{fill-rule:evenodd;clip-rule:evenodd;fill:#4472C4;}
	.st15{fill-rule:evenodd;clip-rule:evenodd;fill:#2F5597;}
	.st16{fill-rule:evenodd;clip-rule:evenodd;fill:#BF9000;}
	.st17{fill:#FFFFFF;}
</style>
<g>
	<g>
		<path class="st0" d="M699.7,123.5c-22.6,9.6-33.1,35.7-23.5,58.3c9.6,22.6,35.7,33.1,58.3,23.5s33.1-35.7,23.5-58.3
			C748.4,124.5,722.3,113.9,699.7,123.5z M726.8,187.5c-12.7,5.4-27.4-0.5-32.8-13.2c-5.4-12.7,0.5-27.4,13.2-32.8
			c12.7-5.4,27.4,0.5,32.8,13.2C745.5,167.4,739.5,182.1,726.8,187.5z"/>
		<path class="st0" d="M757.6,241.8l-13,5.5c-1.4,0.6-3.1-0.1-3.7-1.5l-20.4-48.1c-0.6-1.4,0.1-3.1,1.5-3.7l13-5.5
			c1.4-0.6,3.1,0.1,3.7,1.5l20.4,48.1C759.7,239.5,759,241.2,757.6,241.8z"/>
		<path class="st0" d="M725.1,239.1l-5.5-13c-0.6-1.4,0.1-3.1,1.5-3.7l34.8-14.8c1.4-0.6,3.1,0.1,3.7,1.5l5.5,13
			c0.6,1.4-0.1,3.1-1.5,3.7l-34.8,14.8C727.4,241.2,725.8,240.5,725.1,239.1z"/>
	</g>
</g>
<g>
	<g>
		<path class="st1" d="M684.4,171.1c21.6,11.6,48.6,3.6,60.2-18s3.6-48.6-18-60.2s-48.6-3.6-60.2,18S662.8,159.5,684.4,171.1z
			 M717.3,110c12.2,6.6,16.7,21.7,10.2,33.9c-6.6,12.2-21.7,16.7-33.9,10.2c-12.2-6.6-16.7-21.7-10.2-33.9
			C690,108,705.2,103.4,717.3,110z"/>
		<path class="st1" d="M740.6,52l12.4,6.7c1.4,0.7,1.9,2.5,1.2,3.8l-24.8,46c-0.7,1.4-2.5,1.9-3.8,1.2l-12.4-6.7
			c-1.4-0.7-1.9-2.5-1.2-3.8l24.8-46C737.5,51.8,739.2,51.3,740.6,52z"/>
		<path class="st1" d="M713.7,59.5l1.3,4.4c0.8,2.5,3.4,4,5.9,3.2l23.3-7l7,23.3c0.8,2.5,3.4,4,5.9,3.2l4.4-1.3
			c2.5-0.8,4-3.4,3.2-5.9L756.8,53c0-0.5,0-1.1-0.2-1.6l-1.3-4.4c-0.4-1.3-1.3-2.3-2.5-2.9c-1.1-0.7-2.5-0.9-3.8-0.5l-4.4,1.3
			c-0.5,0.2-1,0.4-1.4,0.7l-26.3,7.9C714.4,54.3,713,56.9,713.7,59.5z"/>
	</g>
</g>
<g>
	<path class="st2" d="M736.9,232.8l25,61.3l-58.4-23.3L693.2,260c11.9-11.7,23.8-23.5,35.7-35.2L736.9,232.8L736.9,232.8
		L736.9,232.8z"/>
	<path class="st3" d="M747.8,278.8c-2.2,2.2-4.1,4.8-5.6,7.3c19.5,8.1,19.5,8.1,19.5,8.1c-8.2-19.9-8.2-19.9-8.2-19.9
		C751.6,275.5,749.7,276.9,747.8,278.8L747.8,278.8z"/>
	<polygon class="st4" points="646.2,213.5 590.7,158 602.2,146.6 657.4,202.4 	"/>
	<polygon class="st5" points="657.4,202.4 602.2,146.6 614.1,134.8 669.3,190.6 	"/>
	<polygon class="st6" points="669.3,190.6 614.1,134.8 626.7,122.4 682.1,177.9 	"/>
	<polygon class="st7" points="590.9,158.2 535.5,102.7 547.3,90.9 602.5,146.7 	"/>
	<polygon class="st8" points="602.5,146.7 547.3,90.9 559.1,79.2 614.3,135 	"/>
	<polygon class="st9" points="614.3,135 559.1,79.2 571.4,67 626.8,122.5 	"/>
	<polygon class="st10" points="492.6,42 476.4,43.5 483.9,27.9 496.7,15.2 512.3,7.8 510.5,24.2 492.6,42 	"/>
	<polygon class="st11" points="536.3,103.5 483.6,50.7 476.6,43.7 492.6,36 547.9,91.9 	"/>
	<polygon class="st12" points="547.9,91.9 492.6,36 504.4,24.2 559.8,80.1 	"/>
	<path class="st3" d="M495.9,27.4c-2.8,2.8-5.7,4.4-6.5,3.6s0.9-3.7,3.7-6.5s5.7-4.4,6.5-3.6C500.3,21.7,498.7,24.6,495.9,27.4
		L495.9,27.4z"/>
	<path class="st13" d="M703.4,270.9L645.6,213l11.6-11.6c0,0,0,0,54.3,54.9c1.2,1.2,1.7,3.5,1.1,5.3c0,0,0,0-1.3,4.1
		c-0.4,1.7-2.3,3.6-4.2,4.1c0,0,0,0-1.7,0.5L703.4,270.9z"/>
	<path class="st14" d="M657,201.6c54.3,54.9,54.3,54.9,54.3,54.9c1.2,1.2,3.4,1.8,5.1,1.4c3.8-0.9,3.8-0.9,3.8-0.9
		c1.6-0.3,3.3-2,3.7-3.7c0.8-3.7,0.8-3.7,0.8-3.7c0.4-1.7-0.2-3.9-1.4-5.1C669,189.6,669,189.6,669,189.6L657,201.6L657,201.6
		L657,201.6z"/>
	<path class="st15" d="M723.2,244.6c0,0,0,0-54.3-54.9l12.5-12.4l54.2,54.3l0.3,0.3c1.2,1.2,1.7,3.4,1.2,5.2c0,0,0,0-1,3.8
		c-0.5,1.8-2.2,3.4-3.9,3.9c0,0,0,0-3.9,1.1C726.7,246.4,724.4,245.8,723.2,244.6L723.2,244.6z"/>
	<polygon class="st16" points="559.8,80.1 504.4,24.2 509.8,13.3 509.8,13.2 512.4,7.9 572.1,67.8 571.7,68.2 571.8,68.2 	"/>
</g>
<polygon class="st14" points="646.4,213.8 5.1,213.8 5.1,268.8 701.3,268.8 "/>
<polygon class="st5" points="645.6,212.9 591.5,158.8 5.1,158.8 5.1,213.8 646.4,213.8 "/>
<polygon class="st8" points="590.7,158 536.6,103.8 5.1,103.8 5.1,158.8 591.5,158.8 "/>
<polygon class="st12" points="536.3,103.5 536.3,103.5 483.6,50.7 476.7,43.8 5.1,43.8 5.1,103.8 536.6,103.8 "/>
<g>
	<g>
		<path class="st17" d="M50.1,67.8V84H48V67.8H50.1z"/>
		<path class="st17" d="M63.8,67v14c0,1,0,2.2,0.1,3H62l-0.1-2l0,0c-0.6,1.3-2.1,2.3-4,2.3c-2.8,0-5-2.4-5-5.9
			c0-3.9,2.4-6.2,5.2-6.2c1.8,0,3,0.8,3.5,1.8l0,0v-7H63.8z M61.6,77.1c0-0.3,0-0.6-0.1-0.9c-0.3-1.3-1.5-2.4-3-2.4
			c-2.2,0-3.5,1.9-3.5,4.5c0,2.4,1.2,4.3,3.4,4.3c1.4,0,2.7-0.9,3.1-2.5c0.1-0.3,0.1-0.6,0.1-0.9V77.1z"/>
		<path class="st17" d="M68.4,78.6c0,2.9,1.9,4,4,4c1.5,0,2.4-0.3,3.2-0.6l0.4,1.5c-0.7,0.3-2,0.7-3.9,0.7c-3.6,0-5.7-2.4-5.7-5.9
			s2.1-6.3,5.4-6.3c3.8,0,4.8,3.3,4.8,5.5c0,0.4,0,0.8-0.1,1h-8.1V78.6z M74.6,77.1c0-1.3-0.6-3.4-2.9-3.4c-2.1,0-3.1,2-3.2,3.4
			H74.6z"/>
		<path class="st17" d="M79.3,75.5c0-1.2,0-2.2-0.1-3.1h1.9l0.1,1.9l0,0c0.6-1.1,1.9-2.2,3.8-2.2c1.6,0,4.1,1,4.1,4.9v7H87v-6.7
			c0-1.9-0.7-3.4-2.7-3.4c-1.4,0-2.5,1-2.8,2.2c-0.1,0.3-0.1,0.6-0.1,1v7h-2.1C79.3,84.1,79.3,75.5,79.3,75.5z"/>
		<path class="st17" d="M95,69v3.3h3V74h-3v6.3c0,1.4,0.4,2.3,1.6,2.3c0.6,0,1-0.1,1.2-0.1l0.1,1.6c-0.4,0.2-1.1,0.3-1.9,0.3
			c-1,0-1.8-0.3-2.3-0.9c-0.6-0.6-0.8-1.7-0.8-3V74h-1.8v-1.6H93v-2.8L95,69z"/>
		<path class="st17" d="M102.8,69.1c0,0.7-0.5,1.3-1.3,1.3c-0.7,0-1.3-0.6-1.3-1.3c0-0.7,0.6-1.3,1.3-1.3
			C102.3,67.8,102.8,68.4,102.8,69.1z M100.4,84V72.4h2.1V84H100.4z"/>
		<path class="st17" d="M106.3,84V74h-1.6v-1.6h1.6v-0.6c0-3.1,1.8-5.1,5.1-5.1c1.1,0,2.4,0.3,3,0.8l-0.6,1.6
			c-0.5-0.4-1.4-0.7-2.4-0.7c-2.2,0-2.9,1.6-2.9,3.4v0.6h6.7V84H113V74h-4.7v10H106.3z"/>
		<path class="st17" d="M126.9,83.6c-0.6,0.3-1.8,0.7-3.3,0.7c-3.5,0-5.8-2.4-5.8-5.9c0-3.6,2.4-6.2,6.2-6.2c1.2,0,2.4,0.3,2.9,0.6
			l-0.5,1.6c-0.5-0.3-1.3-0.6-2.4-0.6c-2.7,0-4.1,2-4.1,4.4c0,2.7,1.7,4.3,4,4.3c1.2,0,2-0.3,2.6-0.6L126.9,83.6z"/>
		<path class="st17" d="M135.8,84l-0.2-1.5h-0.1c-0.6,0.9-1.9,1.7-3.6,1.7c-2.4,0-3.6-1.7-3.6-3.3c0-2.8,2.5-4.3,7-4.3v-0.2
			c0-1-0.3-2.7-2.6-2.7c-1.1,0-2.2,0.3-3,0.9l-0.5-1.4c1-0.6,2.4-1,3.8-1c3.6,0,4.4,2.4,4.4,4.8v4.3c0,1,0,2,0.2,2.8h-1.8V84z
			 M135.5,78.1c-2.3,0-4.9,0.4-4.9,2.6c0,1.4,0.9,2,2,2c1.5,0,2.5-1,2.8-1.9c0.1-0.2,0.1-0.5,0.1-0.7L135.5,78.1L135.5,78.1z"/>
		<path class="st17" d="M149.2,83.6c-0.6,0.3-1.8,0.7-3.3,0.7c-3.5,0-5.8-2.4-5.8-5.9c0-3.6,2.4-6.2,6.2-6.2c1.2,0,2.4,0.3,2.9,0.6
			l-0.5,1.6c-0.5-0.3-1.3-0.6-2.4-0.6c-2.7,0-4.1,2-4.1,4.4c0,2.7,1.7,4.3,4,4.3c1.2,0,2-0.3,2.6-0.6L149.2,83.6z"/>
		<path class="st17" d="M154,69.1c0,0.7-0.5,1.3-1.3,1.3c-0.7,0-1.3-0.6-1.3-1.3c0-0.7,0.6-1.3,1.3-1.3
			C153.5,67.8,154,68.4,154,69.1z M151.7,84V72.4h2.1V84H151.7z"/>
		<path class="st17" d="M167.8,78.1c0,4.3-3,6.2-5.8,6.2c-3.1,0-5.6-2.3-5.6-6c0-3.9,2.5-6.2,5.8-6.2
			C165.6,72.1,167.8,74.5,167.8,78.1z M158.6,78.2c0,2.5,1.5,4.5,3.5,4.5s3.5-1.9,3.5-4.5c0-2-1-4.5-3.5-4.5
			C159.7,73.7,158.6,76,158.6,78.2z M165.3,67.4l-2.9,3.4h-1.5l2.1-3.4H165.3z"/>
		<path class="st17" d="M170.5,75.5c0-1.2,0-2.2-0.1-3.1h1.9l0.1,1.9l0,0c0.6-1.1,1.9-2.2,3.8-2.2c1.6,0,4.1,1,4.1,4.9v7h-2.1v-6.7
			c0-1.9-0.7-3.4-2.7-3.4c-1.4,0-2.5,1-2.8,2.2c-0.1,0.3-0.1,0.6-0.1,1v7h-2.1L170.5,75.5L170.5,75.5z"/>
	</g>
</g>
<g>
	<g>
		<path class="st17" d="M59.4,138.5c-0.8,0.4-2.3,0.8-4.3,0.8c-4.6,0-8-2.9-8-8.2c0-5.1,3.4-8.5,8.4-8.5c2,0,3.3,0.4,3.8,0.7
			l-0.5,1.7c-0.8-0.4-1.9-0.7-3.3-0.7c-3.8,0-6.3,2.4-6.3,6.7c0,4,2.3,6.5,6.2,6.5c1.3,0,2.6-0.3,3.4-0.7L59.4,138.5z"/>
		<path class="st17" d="M68.2,139l-0.2-1.5h-0.1c-0.6,0.9-1.9,1.7-3.6,1.7c-2.4,0-3.6-1.7-3.6-3.3c0-2.8,2.5-4.3,7-4.3v-0.2
			c0-1-0.3-2.7-2.6-2.7c-1.1,0-2.2,0.3-3,0.9l-0.5-1.4c1-0.6,2.4-1,3.8-1c3.6,0,4.4,2.4,4.4,4.8v4.3c0,1,0,2,0.2,2.8h-1.8V139z
			 M67.9,133.1c-2.3,0-4.9,0.4-4.9,2.6c0,1.4,0.9,2,2,2c1.5,0,2.5-1,2.8-1.9c0.1-0.2,0.1-0.5,0.1-0.7V133.1z"/>
		<path class="st17" d="M73.3,130.5c0-1.2,0-2.2-0.1-3.1H75l0.1,1.9h0.1c0.6-1.1,1.7-2.1,3.6-2.1c1.6,0,2.8,1,3.3,2.3l0,0
			c0.4-0.6,0.8-1.2,1.3-1.5c0.7-0.5,1.5-0.8,2.6-0.8c1.5,0,3.8,1,3.8,5v6.8h-2.1v-6.6c0-2.2-0.8-3.6-2.5-3.6c-1.2,0-2.1,0.9-2.5,1.9
			c-0.1,0.3-0.2,0.7-0.2,1.1v7.2h-2.1v-7c0-1.8-0.8-3.2-2.4-3.2c-1.3,0-2.3,1.1-2.6,2.1c-0.1,0.3-0.2,0.7-0.2,1v7h-2.1v-8.4H73.3z"
			/>
		<path class="st17" d="M93.2,139c0-0.8,0.1-2,0.1-3v-14h2.1v7.3l0,0c0.7-1.3,2.1-2.1,4-2.1c2.9,0,4.9,2.4,4.9,5.9
			c0,4.2-2.6,6.2-5.2,6.2c-1.7,0-3-0.6-3.9-2.2h-0.1L95,139H93.2z M95.4,134.3c0,0.3,0,0.5,0.1,0.8c0.4,1.5,1.6,2.5,3.2,2.5
			c2.2,0,3.5-1.8,3.5-4.5c0-2.3-1.2-4.3-3.5-4.3c-1.4,0-2.8,1-3.2,2.6c0,0.2-0.1,0.5-0.1,0.9V134.3z"/>
		<path class="st17" d="M109.3,124.1c0,0.7-0.5,1.3-1.3,1.3c-0.7,0-1.3-0.6-1.3-1.3c0-0.7,0.6-1.3,1.3-1.3
			C108.8,122.8,109.3,123.4,109.3,124.1z M107,139v-11.6h2.1V139H107z"/>
		<path class="st17" d="M123.1,133.1c0,4.3-3,6.2-5.8,6.2c-3.1,0-5.6-2.3-5.6-6c0-3.9,2.5-6.2,5.8-6.2
			C120.8,127.1,123.1,129.5,123.1,133.1z M113.9,133.2c0,2.5,1.5,4.5,3.5,4.5s3.5-1.9,3.5-4.5c0-2-1-4.5-3.5-4.5
			C115,128.7,113.9,131,113.9,133.2z"/>
		<path class="st17" d="M125.5,136.8c0.6,0.4,1.7,0.8,2.8,0.8c1.5,0,2.3-0.8,2.3-1.7c0-1-0.6-1.6-2.2-2.1c-2.1-0.7-3.1-1.9-3.1-3.3
			c0-1.9,1.5-3.4,4-3.4c1.2,0,2.2,0.3,2.9,0.7l-0.5,1.5c-0.5-0.3-1.3-0.7-2.4-0.7c-1.2,0-1.9,0.7-1.9,1.6c0,1,0.7,1.4,2.2,2
			c2,0.8,3,1.8,3,3.5c0,2-1.6,3.5-4.3,3.5c-1.3,0-2.4-0.3-3.3-0.8L125.5,136.8z"/>
		<path class="st17" d="M140.4,130.5c0-1.2,0-2.2-0.1-3.1h1.8l0.1,1.9h0.1c0.6-1.1,1.7-2.1,3.6-2.1c1.6,0,2.8,1,3.3,2.3l0,0
			c0.4-0.6,0.8-1.2,1.3-1.5c0.7-0.5,1.5-0.8,2.6-0.8c1.5,0,3.8,1,3.8,5v6.8h-2.1v-6.6c0-2.2-0.8-3.6-2.5-3.6c-1.2,0-2.1,0.9-2.5,1.9
			c-0.1,0.3-0.2,0.7-0.2,1.1v7.2h-2.1v-7c0-1.8-0.8-3.2-2.4-3.2c-1.3,0-2.3,1.1-2.6,2.1c-0.1,0.3-0.2,0.7-0.2,1v7h-2.1v-8.4H140.4z"
			/>
		<path class="st17" d="M166.8,139l-0.2-1.5h-0.1c-0.6,0.9-1.9,1.7-3.6,1.7c-2.4,0-3.6-1.7-3.6-3.3c0-2.8,2.5-4.3,7-4.3v-0.2
			c0-1-0.3-2.7-2.6-2.7c-1.1,0-2.2,0.3-3,0.9l-0.5-1.4c1-0.6,2.4-1,3.8-1c3.6,0,4.4,2.4,4.4,4.8v4.3c0,1,0,2,0.2,2.8h-1.8V139z
			 M166.5,133.1c-2.3,0-4.9,0.4-4.9,2.6c0,1.4,0.9,2,2,2c1.5,0,2.5-1,2.8-1.9c0.1-0.2,0.1-0.5,0.1-0.7L166.5,133.1L166.5,133.1z"/>
		<path class="st17" d="M174.4,124v3.3h3v1.6h-3v6.3c0,1.4,0.4,2.3,1.6,2.3c0.6,0,1-0.1,1.2-0.1l0.1,1.6c-0.4,0.2-1.1,0.3-1.9,0.3
			c-1,0-1.8-0.3-2.3-0.9c-0.6-0.6-0.8-1.7-0.8-3V129h-1.8v-1.6h1.8v-2.8L174.4,124z"/>
		<path class="st17" d="M180.8,133.6c0,2.9,1.9,4,4,4c1.5,0,2.4-0.3,3.2-0.6l0.4,1.5c-0.7,0.3-2,0.7-3.9,0.7c-3.6,0-5.7-2.4-5.7-5.9
			s2.1-6.3,5.4-6.3c3.8,0,4.8,3.3,4.8,5.5c0,0.4,0,0.8-0.1,1h-8.1V133.6z M187,132.1c0-1.3-0.6-3.4-2.9-3.4c-2.1,0-3.1,2-3.2,3.4
			H187z"/>
		<path class="st17" d="M191.7,131c0-1.4,0-2.5-0.1-3.6h1.8l0.1,2.3h0.1c0.5-1.6,1.8-2.5,3.2-2.5c0.2,0,0.4,0,0.6,0.1v2
			c-0.2,0-0.4-0.1-0.7-0.1c-1.5,0-2.5,1.1-2.8,2.7c0,0.3-0.1,0.6-0.1,1v6.2h-2.1V131z"/>
		<path class="st17" d="M202,124.1c0,0.7-0.5,1.3-1.3,1.3c-0.7,0-1.3-0.6-1.3-1.3c0-0.7,0.6-1.3,1.3-1.3
			C201.5,122.8,202,123.4,202,124.1z M199.6,139v-11.6h2.1V139H199.6z"/>
		<path class="st17" d="M211.7,139l-0.2-1.5h-0.1c-0.6,0.9-1.9,1.7-3.6,1.7c-2.4,0-3.6-1.7-3.6-3.3c0-2.8,2.5-4.3,7-4.3v-0.2
			c0-1-0.3-2.7-2.6-2.7c-1.1,0-2.2,0.3-3,0.9l-0.5-1.4c1-0.6,2.4-1,3.8-1c3.6,0,4.4,2.4,4.4,4.8v4.3c0,1,0,2,0.2,2.8h-1.8V139z
			 M211.4,133.1c-2.3,0-4.9,0.4-4.9,2.6c0,1.4,0.9,2,2,2c1.5,0,2.5-1,2.8-1.9c0.1-0.2,0.1-0.5,0.1-0.7L211.4,133.1L211.4,133.1z"/>
		<path class="st17" d="M216.8,122h2.1v17h-2.1V122z"/>
		<path class="st17" d="M223.6,133.6c0,2.9,1.9,4,4,4c1.5,0,2.4-0.3,3.2-0.6l0.4,1.5c-0.7,0.3-2,0.7-3.9,0.7c-3.6,0-5.7-2.4-5.7-5.9
			s2.1-6.3,5.4-6.3c3.8,0,4.8,3.3,4.8,5.5c0,0.4,0,0.8-0.1,1h-8.1V133.6z M229.8,132.1c0-1.3-0.6-3.4-2.9-3.4c-2.1,0-3.1,2-3.2,3.4
			H229.8z"/>
		<path class="st17" d="M234.2,136.8c0.6,0.4,1.7,0.8,2.8,0.8c1.5,0,2.3-0.8,2.3-1.7c0-1-0.6-1.6-2.2-2.1c-2.1-0.7-3.1-1.9-3.1-3.3
			c0-1.9,1.5-3.4,4-3.4c1.2,0,2.2,0.3,2.9,0.7l-0.5,1.5c-0.5-0.3-1.3-0.7-2.4-0.7c-1.2,0-1.9,0.7-1.9,1.6c0,1,0.7,1.4,2.2,2
			c2,0.8,3,1.8,3,3.5c0,2-1.6,3.5-4.3,3.5c-1.3,0-2.4-0.3-3.3-0.8L234.2,136.8z"/>
	</g>
</g>
<g>
	<g>
		<path class="st17" d="M51.6,194l-5.3-16.2h2.3l2.5,8c0.7,2.2,1.3,4.2,1.7,6l0,0c0.5-1.9,1.1-3.9,1.8-6l2.7-8h2.2L53.9,194H51.6z"
			/>
		<path class="st17" d="M63.3,179.1c0,0.7-0.5,1.3-1.3,1.3c-0.7,0-1.3-0.6-1.3-1.3s0.6-1.3,1.3-1.3
			C62.8,177.8,63.3,178.4,63.3,179.1z M61,194v-11.6h2.1V194H61z"/>
		<path class="st17" d="M66.3,191.8c0.6,0.4,1.7,0.8,2.8,0.8c1.5,0,2.3-0.8,2.3-1.7c0-1-0.6-1.6-2.2-2.1c-2.1-0.7-3.1-1.9-3.1-3.3
			c0-1.9,1.5-3.4,4-3.4c1.2,0,2.2,0.3,2.9,0.7l-0.5,1.5c-0.5-0.3-1.3-0.7-2.4-0.7c-1.2,0-1.9,0.7-1.9,1.6c0,1,0.7,1.4,2.2,2
			c2,0.8,3,1.8,3,3.5c0,2-1.6,3.5-4.3,3.5c-1.3,0-2.4-0.3-3.3-0.8L66.3,191.8z"/>
		<path class="st17" d="M78.5,179.1c0,0.7-0.5,1.3-1.3,1.3c-0.7,0-1.3-0.6-1.3-1.3s0.6-1.3,1.3-1.3C78,177.8,78.5,178.4,78.5,179.1z
			 M76.1,194v-11.6h2.1V194H76.1z"/>
		<path class="st17" d="M84.3,179v3.3h3v1.6h-3v6.3c0,1.4,0.4,2.3,1.6,2.3c0.6,0,1-0.1,1.2-0.1l0.1,1.6c-0.4,0.2-1.1,0.3-1.9,0.3
			c-1,0-1.8-0.3-2.3-0.9c-0.6-0.6-0.8-1.7-0.8-3V184h-1.8v-1.6h1.8v-2.8L84.3,179z"/>
		<path class="st17" d="M96.1,194l-0.2-1.5h-0.1c-0.6,0.9-1.9,1.7-3.6,1.7c-2.4,0-3.6-1.7-3.6-3.3c0-2.8,2.5-4.3,7-4.3v-0.2
			c0-1-0.3-2.7-2.6-2.7c-1.1,0-2.2,0.3-3,0.9l-0.5-1.4c1-0.6,2.4-1,3.8-1c3.6,0,4.4,2.4,4.4,4.8v4.3c0,1,0,2,0.2,2.8h-1.8V194z
			 M95.8,188.1c-2.3,0-4.9,0.4-4.9,2.6c0,1.4,0.9,2,2,2c1.5,0,2.5-1,2.8-1.9c0.1-0.2,0.1-0.5,0.1-0.7V188.1z"/>
		<path class="st17" d="M101,191.8c0.6,0.4,1.7,0.8,2.8,0.8c1.5,0,2.3-0.8,2.3-1.7c0-1-0.6-1.6-2.2-2.1c-2.1-0.7-3.1-1.9-3.1-3.3
			c0-1.9,1.5-3.4,4-3.4c1.2,0,2.2,0.3,2.9,0.7l-0.5,1.5c-0.5-0.3-1.3-0.7-2.4-0.7c-1.2,0-1.9,0.7-1.9,1.6c0,1,0.7,1.4,2.2,2
			c2,0.8,3,1.8,3,3.5c0,2-1.6,3.5-4.3,3.5c-1.3,0-2.4-0.3-3.3-0.8L101,191.8z"/>
		<path class="st17" d="M116.6,182.4l2.5,6.9c0.3,0.8,0.6,1.7,0.7,2.4l0,0c0.2-0.7,0.5-1.6,0.7-2.4l2.3-6.8h2.2l-3.2,8.3
			c-1.5,4-2.5,6-4,7.3c-1,0.9-2.1,1.3-2.6,1.4l-0.5-1.8c0.5-0.2,1.2-0.5,1.8-1c0.6-0.5,1.3-1.3,1.8-2.4c0.1-0.2,0.2-0.4,0.2-0.5
			s0-0.3-0.1-0.6l-4.3-10.7L116.6,182.4L116.6,182.4z"/>
		<path class="st17" d="M132.2,186c0-1.4,0-2.5-0.1-3.6h1.8l0.1,2.3h0.1c0.5-1.6,1.8-2.5,3.2-2.5c0.2,0,0.4,0,0.6,0.1v2
			c-0.2,0-0.4-0.1-0.7-0.1c-1.5,0-2.5,1.1-2.8,2.7c0,0.3-0.1,0.6-0.1,1v6.2h-2.1V186z"/>
		<path class="st17" d="M141,188.6c0,2.9,1.9,4,4,4c1.5,0,2.4-0.3,3.2-0.6l0.4,1.5c-0.7,0.3-2,0.7-3.9,0.7c-3.6,0-5.7-2.4-5.7-5.9
			s2.1-6.3,5.4-6.3c3.8,0,4.8,3.3,4.8,5.5c0,0.4,0,0.8-0.1,1H141V188.6z M147.2,187.1c0-1.3-0.6-3.4-2.9-3.4c-2.1,0-3.1,2-3.2,3.4
			H147.2z"/>
		<path class="st17" d="M161.6,190.8c0,1.2,0,2.3,0.1,3.2h-1.9l-0.1-1.9l0,0c-0.6,0.9-1.8,2.2-3.8,2.2c-1.8,0-4-1-4-5.1v-6.8h2.1
			v6.4c0,2.2,0.7,3.7,2.6,3.7c1.4,0,2.4-1,2.8-1.9c0.1-0.3,0.2-0.7,0.2-1.1v-7.1h2.1v8.4H161.6z"/>
		<path class="st17" d="M165.1,185.5c0-1.2,0-2.2-0.1-3.1h1.9l0.1,1.9l0,0c0.6-1.1,1.9-2.2,3.8-2.2c1.6,0,4.1,1,4.1,4.9v6.9h-2.1
			v-6.7c0-1.9-0.7-3.4-2.7-3.4c-1.4,0-2.5,1-2.8,2.2c-0.1,0.3-0.1,0.6-0.1,1v7h-2.1L165.1,185.5L165.1,185.5z"/>
		<path class="st17" d="M180.8,179.1c0,0.7-0.5,1.3-1.3,1.3c-0.7,0-1.3-0.6-1.3-1.3s0.6-1.3,1.3-1.3S180.8,178.4,180.8,179.1z
			 M178.4,194v-11.6h2.1V194H178.4z"/>
		<path class="st17" d="M194.5,188.1c0,4.3-3,6.2-5.8,6.2c-3.1,0-5.6-2.3-5.6-6c0-3.9,2.5-6.2,5.8-6.2
			C192.3,182.1,194.5,184.5,194.5,188.1z M185.3,188.2c0,2.5,1.5,4.5,3.5,4.5s3.5-1.9,3.5-4.5c0-2-1-4.5-3.5-4.5
			C186.4,183.7,185.3,186,185.3,188.2z"/>
		<path class="st17" d="M197.2,185.5c0-1.2,0-2.2-0.1-3.1h1.9l0.1,1.9l0,0c0.6-1.1,1.9-2.2,3.8-2.2c1.6,0,4.1,1,4.1,4.9v6.9h-2v-6.7
			c0-1.9-0.7-3.4-2.7-3.4c-1.4,0-2.5,1-2.8,2.2c-0.1,0.3-0.1,0.6-0.1,1v7h-2.1L197.2,185.5L197.2,185.5z"/>
		<path class="st17" d="M211.7,188.6c0,2.9,1.9,4,4,4c1.5,0,2.4-0.3,3.2-0.6l0.4,1.5c-0.7,0.3-2,0.7-3.9,0.7c-3.6,0-5.7-2.4-5.7-5.9
			s2.1-6.3,5.4-6.3c3.8,0,4.8,3.3,4.8,5.5c0,0.4,0,0.8-0.1,1h-8.1V188.6z M217.9,187.1c0-1.3-0.6-3.4-2.9-3.4c-2.1,0-3.1,2-3.2,3.4
			H217.9z"/>
		<path class="st17" d="M222.2,191.8c0.6,0.4,1.7,0.8,2.8,0.8c1.5,0,2.3-0.8,2.3-1.7c0-1-0.6-1.6-2.2-2.1c-2.1-0.7-3.1-1.9-3.1-3.3
			c0-1.9,1.5-3.4,4-3.4c1.2,0,2.2,0.3,2.9,0.7l-0.5,1.5c-0.5-0.3-1.3-0.7-2.4-0.7c-1.2,0-1.9,0.7-1.9,1.6c0,1,0.7,1.4,2.2,2
			c2,0.8,3,1.8,3,3.5c0,2-1.6,3.5-4.3,3.5c-1.3,0-2.4-0.3-3.3-0.8L222.2,191.8z"/>
	</g>
</g>
<g>
	<g>
		<path class="st17" d="M47.8,246.5c0.9,0.6,2.3,1.1,3.7,1.1c2.1,0,3.4-1.1,3.4-2.8c0-1.5-0.9-2.4-3-3.2c-2.6-0.9-4.3-2.3-4.3-4.6
			c0-2.5,2.1-4.4,5.2-4.4c1.7,0,2.9,0.4,3.6,0.8l-0.6,1.7c-0.5-0.3-1.6-0.8-3.1-0.8c-2.2,0-3,1.3-3,2.4c0,1.5,1,2.3,3.2,3.1
			c2.7,1.1,4.1,2.4,4.1,4.8c0,2.5-1.8,4.7-5.7,4.7c-1.6,0-3.3-0.5-4.1-1L47.8,246.5z"/>
		<path class="st17" d="M66.3,249l-0.2-1.5H66c-0.6,0.9-1.9,1.7-3.6,1.7c-2.4,0-3.6-1.7-3.6-3.3c0-2.8,2.5-4.3,7-4.3v-0.2
			c0-1-0.3-2.7-2.6-2.7c-1.1,0-2.2,0.3-3,0.9l-0.5-1.4c1-0.6,2.4-1,3.8-1c3.6,0,4.4,2.4,4.4,4.8v4.3c0,1,0,2,0.2,2.8h-1.8V249z
			 M66,243.1c-2.3,0-4.9,0.4-4.9,2.6c0,1.4,0.9,2,2,2c1.5,0,2.5-1,2.8-1.9c0.1-0.2,0.1-0.5,0.1-0.7V243.1z"/>
		<path class="st17" d="M71.5,240.5c0-1.2,0-2.2-0.1-3.1h1.9l0.1,1.9l0,0c0.6-1.1,1.9-2.2,3.8-2.2c1.6,0,4.1,1,4.1,4.9v6.9h-2.1
			v-6.7c0-1.9-0.7-3.4-2.7-3.4c-1.4,0-2.5,1-2.8,2.2c-0.1,0.3-0.1,0.6-0.1,1v7h-2.1C71.5,249,71.5,240.5,71.5,240.5z"/>
		<path class="st17" d="M86,243.6c0,2.9,1.9,4,4,4c1.5,0,2.4-0.3,3.2-0.6l0.4,1.5c-0.7,0.3-2,0.7-3.9,0.7c-3.6,0-5.7-2.4-5.7-5.9
			s2.1-6.3,5.4-6.3c3.8,0,4.8,3.3,4.8,5.5c0,0.4,0,0.8-0.1,1H86V243.6z M92.1,242.1c0-1.3-0.6-3.4-2.9-3.4c-2.1,0-3.1,2-3.2,3.4
			H92.1z"/>
		<path class="st17" d="M103.2,249l-0.2-1.5l0,0c-0.6,0.9-1.9,1.7-3.6,1.7c-2.4,0-3.6-1.7-3.6-3.3c0-2.8,2.5-4.3,7-4.3v-0.2
			c0-1-0.3-2.7-2.6-2.7c-1.1,0-2.2,0.3-3,0.9l-0.5-1.4c1-0.6,2.4-1,3.8-1c3.6,0,4.4,2.4,4.4,4.8v4.3c0,1,0,2,0.2,2.8h-1.9V249z
			 M102.9,243.1c-2.3,0-4.9,0.4-4.9,2.6c0,1.4,0.9,2,2,2c1.5,0,2.5-1,2.8-1.9c0.1-0.2,0.1-0.5,0.1-0.7V243.1z"/>
		<path class="st17" d="M108.4,240.5c0-1.2,0-2.2-0.1-3.1h1.8l0.1,1.9h0.1c0.6-1.1,1.7-2.1,3.6-2.1c1.6,0,2.8,1,3.3,2.3l0,0
			c0.4-0.6,0.8-1.2,1.3-1.5c0.7-0.5,1.5-0.8,2.6-0.8c1.5,0,3.8,1,3.8,5v6.8h-2.1v-6.6c0-2.2-0.8-3.6-2.5-3.6c-1.2,0-2.1,0.9-2.5,1.9
			c-0.1,0.3-0.2,0.7-0.2,1.1v7.2h-2.1v-7c0-1.8-0.8-3.2-2.4-3.2c-1.3,0-2.3,1.1-2.6,2.1c-0.1,0.3-0.2,0.7-0.2,1v7h-2.1v-8.4H108.4z"
			/>
		<path class="st17" d="M130.7,234.1c0,0.7-0.5,1.3-1.3,1.3c-0.7,0-1.3-0.6-1.3-1.3s0.6-1.3,1.3-1.3
			C130.2,232.8,130.7,233.4,130.7,234.1z M128.4,249v-11.6h2.1V249H128.4z"/>
		<path class="st17" d="M135.2,243.6c0,2.9,1.9,4,4,4c1.5,0,2.4-0.3,3.2-0.6l0.4,1.5c-0.7,0.3-2,0.7-3.9,0.7c-3.6,0-5.7-2.4-5.7-5.9
			s2.1-6.3,5.4-6.3c3.8,0,4.8,3.3,4.8,5.5c0,0.4,0,0.8-0.1,1h-8.1V243.6z M141.4,242.1c0-1.3-0.6-3.4-2.9-3.4c-2.1,0-3.1,2-3.2,3.4
			H141.4z"/>
		<path class="st17" d="M146,240.5c0-1.2,0-2.2-0.1-3.1h1.9l0.1,1.9l0,0c0.6-1.1,1.9-2.2,3.8-2.2c1.6,0,4.1,1,4.1,4.9v6.9h-2.1v-6.7
			c0-1.9-0.7-3.4-2.7-3.4c-1.4,0-2.5,1-2.8,2.2c-0.1,0.3-0.1,0.6-0.1,1v7H146V240.5z"/>
		<path class="st17" d="M161.8,234v3.3h3v1.6h-3v6.3c0,1.4,0.4,2.3,1.6,2.3c0.6,0,1-0.1,1.2-0.1l0.1,1.6c-0.4,0.2-1.1,0.3-1.9,0.3
			c-1,0-1.8-0.3-2.3-0.9c-0.6-0.6-0.8-1.7-0.8-3V239h-1.8v-1.6h1.8v-2.8L161.8,234z"/>
		<path class="st17" d="M177.6,243.1c0,4.3-3,6.2-5.8,6.2c-3.1,0-5.6-2.3-5.6-6c0-3.9,2.5-6.2,5.8-6.2S177.6,239.5,177.6,243.1z
			 M168.3,243.2c0,2.5,1.5,4.5,3.5,4.5s3.5-1.9,3.5-4.5c0-2-1-4.5-3.5-4.5C169.4,238.7,168.3,241,168.3,243.2z"/>
	</g>
</g>
<path class="st0" d="M758,147.1c-9.6-22.6-35.7-33.1-58.3-23.5c-0.2,0.1-0.4,0.2-0.7,0.3l7.6,17.9c0.2-0.1,0.4-0.2,0.7-0.3
	c12.7-5.4,27.4,0.5,32.8,13.2c5.4,12.7-0.5,27.4-13.2,32.8c-0.2,0.1-0.5,0.2-0.7,0.3l7.6,17.9c0.2-0.1,0.5-0.2,0.7-0.3
	C757,195.7,767.5,169.7,758,147.1z"/>
</svg>
