<?xml version="1.0" encoding="utf-8"?>
<!-- Generator: Adobe Illustrator 24.1.2, SVG Export Plug-In . SVG Version: 6.00 Build 0)  -->
<svg version="1.1" id="Layer_1" xmlns="http://www.w3.org/2000/svg" xmlns:xlink="http://www.w3.org/1999/xlink" x="0px" y="0px"
	 viewBox="0 0 531 535" style="enable-background:new 0 0 531 535;" xml:space="preserve">
<style type="text/css">
	.st0{fill:#FFFFFF;}
</style>
<g>
	<path class="st0" d="M449.11,44.8l-5.82-4.32c-0.25-1.66-0.58-3.32-1.08-4.9l3.07-6.98c0.17-0.33,0.17-0.75-0.08-1.08
		c-0.25-0.33-0.58-0.58-0.91-0.58l-6.98-0.83c-1.08-1.41-2.33-2.83-3.66-4.07l-0.83-7.31c-0.08-0.42-0.25-0.75-0.58-0.91
		s-0.75-0.25-1.08-0.08l-6.07,2.66c-2.41-1-4.82-1.75-7.4-2.16l-4.32-5.9c-0.5-0.66-1.5-0.66-1.99,0l-4.4,5.98
		c-1.66,0.33-3.32,0.75-4.99,1.33l-6.9-2.99c-0.33-0.17-0.75-0.17-1.08,0.08c-0.33,0.17-0.58,0.58-0.58,0.91l-0.83,7.48
		c-1.25,1.08-2.49,2.24-3.57,3.57l-7.48,0.83c-0.42,0.08-0.75,0.25-0.91,0.58s-0.25,0.75-0.08,1.08l2.99,6.81
		c-0.58,1.66-1.08,3.41-1.41,5.15l-6.07,4.49c-0.33,0.25-0.5,0.58-0.5,1c0,0.42,0.17,0.75,0.5,1l5.98,4.4
		c0.33,1.75,0.75,3.57,1.41,5.24l-2.99,6.81c-0.17,0.33-0.17,0.75,0.08,1.08c0.25,0.33,0.58,0.58,0.91,0.58l7.31,0.83
		c1.16,1.41,2.49,2.74,3.82,3.91l0.83,7.4c0.08,0.42,0.25,0.75,0.58,0.91c0.33,0.17,0.75,0.25,1.08,0.08l6.73-2.91
		c1.75,0.66,3.49,1.16,5.32,1.41l4.4,5.98c0.25,0.33,0.58,0.5,1,0.5s0.75-0.17,1-0.5l4.4-5.9c1.66-0.25,3.32-0.75,4.9-1.25
		l7.06,3.07c0.33,0.17,0.75,0.17,1.08-0.08c0.33-0.17,0.58-0.58,0.58-0.91l0.83-7.48c1.25-1,2.41-2.16,3.49-3.41l7.73-0.91
		c0.42-0.08,0.75-0.25,0.91-0.58s0.25-0.75,0.08-1.08l-2.99-6.9c0.58-1.58,1.08-3.16,1.41-4.74l6.23-4.57c0.33-0.25,0.5-0.58,0.5-1
		S449.45,44.96,449.11,44.8z M441.05,49.62c-0.25,0.17-0.42,0.5-0.5,0.75c-0.33,1.83-0.91,3.57-1.58,5.32c-0.17,0.33-0.08,0.66,0,1
		l2.49,5.82l-6.57,0.75c-0.33,0-0.58,0.17-0.83,0.42c-1.16,1.33-2.49,2.66-3.91,3.74c-0.25,0.17-0.42,0.5-0.5,0.83l-0.75,6.32
		l-5.98-2.58c-0.33-0.17-0.66-0.17-0.91,0c-1.75,0.66-3.57,1.08-5.4,1.41c-0.33,0.08-0.58,0.25-0.83,0.5l-3.66,4.99l-3.66-4.99
		c-0.17-0.25-0.5-0.42-0.83-0.5c-1.99-0.33-3.91-0.83-5.82-1.58c-0.17-0.08-0.33-0.08-0.42-0.08c-0.17,0-0.33,0-0.5,0.08l-5.65,2.49
		l-0.66-6.23c0-0.33-0.17-0.58-0.42-0.83c-1.5-1.25-2.91-2.66-4.16-4.24c-0.17-0.25-0.5-0.42-0.83-0.5l-6.15-0.66l2.49-5.73
		c0.17-0.33,0.17-0.66,0-0.91c-0.66-1.83-1.25-3.82-1.5-5.73c-0.08-0.33-0.25-0.58-0.5-0.83l-4.99-3.74l5.07-3.74
		c0.25-0.17,0.42-0.5,0.5-0.83c0.33-1.91,0.83-3.82,1.58-5.65c0.08-0.33,0.08-0.66,0-0.91l-2.49-5.73l6.32-0.75
		c0.33,0,0.58-0.17,0.83-0.42c1.16-1.41,2.49-2.74,3.91-3.91c0.25-0.17,0.42-0.5,0.42-0.83l0.75-6.32l5.82,2.49
		c0.33,0.17,0.66,0.17,0.91,0c1.75-0.66,3.57-1.16,5.48-1.5c0.33-0.08,0.58-0.25,0.83-0.5l3.74-5.07l3.66,4.9
		c0.17,0.25,0.5,0.42,0.83,0.5c2.66,0.42,5.32,1.16,7.73,2.33c0.33,0.17,0.66,0.17,1,0l5.07-2.16l0.66,6.07
		c0,0.33,0.17,0.58,0.42,0.83c1.5,1.33,2.83,2.83,3.99,4.4c0.17,0.25,0.5,0.5,0.83,0.5l5.82,0.66l-2.58,5.9
		c-0.08,0.25-0.17,0.58,0,0.91c0.58,1.75,1,3.57,1.25,5.4c0.08,0.33,0.25,0.66,0.5,0.83l4.9,3.66L441.05,49.62z"/>
	<path class="st0" d="M412.46,20.78c-13.3,0-24.1,10.8-24.1,24.1s10.8,24.1,24.1,24.1s24.1-10.8,24.1-24.1
		S425.76,20.78,412.46,20.78z M412.46,66.49c-11.88,0-21.61-9.72-21.61-21.61s9.72-21.61,21.61-21.61
		c11.88,0,21.61,9.72,21.61,21.61S424.35,66.49,412.46,66.49z"/>
</g>
<path class="st0" d="M340.23,40.28c-0.3-1.43-1.28-2.7-2.7-3.68c-2.78-1.8-9.98-1.43-10.8-1.43c-0.38,0-0.68,0.23-0.9,0.53
	c-0.23,0.3-0.23,0.68-0.07,1.05c0.3,0.75,3,7.35,5.85,9.15c1.13,0.68,2.25,1.05,3.38,1.05c0.38,0,0.75-0.08,1.13-0.15
	c1.05-0.23,1.95-0.83,2.7-1.65c2.48,1.73,5.55,5.93,7.13,8.25c1.05,10.13,0.83,19.28,0.83,19.51c0,0.6,0.45,1.13,1.13,1.13l0,0
	c0.6,0,1.13-0.45,1.13-1.13s0.15-7.73-0.53-16.2c0.53-3.45,2.25-11.78,4.65-15.53c1.05,0.53,2.1,0.75,3.08,0.75
	c2.25,0,4.43-1.2,6-3.53c2.4-3.68,2.1-13.2,2.1-14.25c0-0.38-0.23-0.68-0.53-0.9c-0.3-0.23-0.68-0.23-1.05-0.15
	c-0.98,0.38-9.9,3.83-12.38,7.5c-2.18,3.3-1.8,6.9,0.83,9.3c-1.58,2.4-2.78,6.08-3.6,9.38c-1.05-7.88-2.93-15.75-6.3-20.18
	c2.7-2.85,2.78-6.83,0.08-10.2c-3-3.75-13.05-6.6-14.18-6.9c-0.38-0.08-0.75,0-0.98,0.23s-0.45,0.6-0.45,0.9
	c0.07,1.2,0.68,11.63,3.68,15.3c1.73,2.18,3.9,3.3,6.15,3.3c1.35,0,2.63-0.38,3.9-1.2c2.93,3.9,4.65,10.95,5.7,18.23
	c-1.58-2.03-3.53-4.2-5.33-5.48C340.31,42.31,340.46,41.33,340.23,40.28z M352.24,31.95c1.43-2.18,6.68-4.73,9.75-6
	c0,3.38-0.3,9.15-1.73,11.33c-1.73,2.63-4.05,2.93-5.85,2.18l6-9.08c0.38-0.53,0.23-1.2-0.3-1.58c-0.53-0.38-1.2-0.23-1.58,0.3
	l-6,9.08C351.19,36.83,350.51,34.65,352.24,31.95z M331.23,27.15c-1.8-2.25-2.78-8.7-3.08-12.45c3.53,1.13,9.6,3.38,11.48,5.7
	c2.25,2.85,1.73,5.4,0.23,7.05L332.28,18c-0.38-0.45-1.13-0.53-1.58-0.15c-0.45,0.38-0.53,1.13-0.15,1.58l7.58,9.45
	C336.11,29.93,333.56,30,331.23,27.15z M335.51,44.71c-0.83,0.23-1.8,0-2.78-0.6l0,0c-1.35-0.9-3.15-4.05-4.28-6.6
	c2.78,0,6.45,0.23,7.8,1.13c0.98,0.6,1.58,1.35,1.73,2.25c0.08,0.45,0.08,0.9-0.08,1.35l-5.63-3.6c-0.53-0.3-1.2-0.15-1.58,0.38
	c-0.3,0.53-0.15,1.2,0.38,1.58l5.63,3.6C336.41,44.33,335.96,44.56,335.51,44.71z"/>
<g>
	<path class="st0" d="M62.58,454.94c10.42,0,18.2-3.89,18.2-9.04v-34.46c0-5.15-7.78-9.04-18.2-9.04s-18.2,3.89-18.2,9.04v34.46
		C44.38,451.05,52.17,454.94,62.58,454.94z M47.7,446.01v-29.08c1.49,1.03,3.43,1.95,5.72,2.52v15.57c0,0.92,0.8,1.72,1.72,1.72
		c0.92,0,1.72-0.8,1.72-1.72v-14.88c1.83,0.23,3.66,0.34,5.61,0.34c2.98,0,5.84-0.34,8.24-0.92v30.91c-1.49,0.46-3.21,0.8-5.15,0.92
		v-17.06c0-0.92-0.8-1.72-1.72-1.72c-0.92,0-1.72,0.8-1.72,1.72v17.17C53.2,451.39,47.82,448.19,47.7,446.01z M77.24,411.33
		c0,1.37-1.83,2.98-5.15,4.12c-0.11,0-0.23,0.11-0.34,0.11c-2.4,0.8-5.61,1.37-9.27,1.37c-2.63,0-4.92-0.23-6.87-0.69
		c-0.11,0-0.11,0-0.23,0c-4.81-1.03-7.67-3.21-7.67-4.81c0-2.4,5.61-5.61,14.77-5.61S77.24,409.15,77.24,411.33z M74.15,449.1
		v-30.68c1.14-0.46,2.17-1.03,3.09-1.6v29.08C77.24,446.93,76.21,448.07,74.15,449.1z"/>
	<path class="st0" d="M70.37,411.44c0-2.98-4.01-4.46-7.9-4.46s-7.9,1.49-7.9,4.46c0,2.98,4.01,4.46,7.9,4.46
		C66.48,415.9,70.37,414.42,70.37,411.44z M66.82,411.44c-0.57,0.46-2.06,1.03-4.35,1.03c-2.29,0-3.78-0.69-4.35-1.03
		c0.57-0.46,2.06-1.03,4.35-1.03C64.87,410.41,66.36,410.98,66.82,411.44z"/>
	<path class="st0" d="M1.23,398.39v47.51c0,5.15,7.78,9.04,18.2,9.04c0.34,0,0.69,0,1.03,0c0.11,0,0.11,0,0.23,0
		c0.11,0,0.23,0,0.34,0c9.5-0.34,16.48-4.12,16.48-8.93V398.5c0-5.15-7.78-9.04-18.2-9.04C8.9,389.46,1.11,393.24,1.23,398.39z
		 M4.43,446.01v-42.13c1.49,1.03,3.43,1.95,5.72,2.52v36.17c0,0.92,0.8,1.72,1.72,1.72c0.92,0,1.72-0.8,1.72-1.72v-35.49
		c1.83,0.23,3.66,0.34,5.61,0.34c2.98,0,5.84-0.34,8.24-0.92v31.94c0,0.92,0.8,1.72,1.72,1.72s1.72-0.8,1.72-1.72v-32.97
		c1.14-0.46,2.17-1.03,3.09-1.6v42.13c0,1.95-4.35,4.81-11.68,5.38v-16.94c0-0.92-0.8-1.72-1.72-1.72c-0.92,0-1.72,0.8-1.72,1.72
		v17.06C9.93,451.39,4.55,448.19,4.43,446.01z M4.55,398.28c0-2.4,5.61-5.61,14.77-5.61s14.77,3.32,14.77,5.61
		c0,1.37-1.83,2.98-5.15,4.12c-0.11,0-0.23,0.11-0.34,0.11c-2.4,0.8-5.61,1.37-9.27,1.37c-2.63,0-4.92-0.23-6.87-0.69
		c-0.11,0-0.11,0-0.23,0C7.29,402.17,4.55,400.11,4.55,398.28z"/>
	<path class="st0" d="M11.42,398.39c0,2.98,4.01,4.46,7.9,4.46s7.9-1.49,7.9-4.46c0-2.98-4.01-4.46-7.9-4.46
		C15.31,393.93,11.42,395.41,11.42,398.39z M14.96,398.39c0.57-0.46,2.06-1.03,4.35-1.03s3.78,0.69,4.35,1.03
		c-0.57,0.46-2.06,1.03-4.35,1.03S15.54,398.85,14.96,398.39z"/>
</g>
<path class="st0" d="M342.38,500.16c0-12.97-10.56-23.53-23.53-23.53s-23.53,10.56-23.53,23.53c0,12.97,10.56,23.53,23.53,23.53
	S342.38,513.13,342.38,500.16z M306.95,500.16c0-2.61,0.27-5.08,0.74-7.42h10.16v15.44h-10.03
	C307.28,505.64,306.95,502.97,306.95,500.16z M330.75,500.16c0,2.81-0.33,5.55-0.87,8.02h-10.03v-15.44h10.16
	C330.48,495.02,330.75,497.56,330.75,500.16z M319.85,521.22v-11.03h9.49C327.47,516.27,323.93,520.62,319.85,521.22z
	 M319.85,490.74v-11.63c4.21,0.6,7.82,5.21,9.63,11.63H319.85z M317.84,479.11v11.63h-9.63
	C310.02,484.25,313.63,479.71,317.84,479.11z M317.84,510.12v11.03c-4.08-0.6-7.62-4.95-9.49-11.03H317.84z M325.2,520.68
	c2.67-2.34,4.81-6.02,6.15-10.56h6.48C335.23,515.14,330.68,518.95,325.2,520.68z M338.77,508.12h-6.95
	c0.53-2.47,0.87-5.21,0.87-8.02c0-2.61-0.27-5.08-0.74-7.42h7.02c0.87,2.34,1.34,4.81,1.34,7.42
	C340.37,502.97,339.77,505.64,338.77,508.12z M338.17,490.74h-6.62c-1.27-4.81-3.54-8.69-6.28-11.1
	C330.88,481.38,335.56,485.46,338.17,490.74z M312.43,479.57c-2.81,2.41-5.01,6.35-6.28,11.1h-6.68
	C302.07,485.46,306.75,481.38,312.43,479.57z M298.66,492.74h7.02c-0.47,2.34-0.74,4.81-0.74,7.42c0,2.81,0.33,5.48,0.87,8.02h-6.95
	c-1-2.47-1.54-5.15-1.54-8.02C297.32,497.56,297.79,495.02,298.66,492.74z M299.8,510.12h6.48c1.34,4.55,3.48,8.22,6.15,10.56
	C306.95,518.95,302.4,515.14,299.8,510.12z"/>
<path class="st0" d="M196.83,71.46c-2.5,0-5.08,0.43-7.4,1.2c-2.24,0.77-4.65,0.77-6.88,0c-2.41-0.77-4.91-1.2-7.4-1.2
	c-13.08,0-22.98,18.33-22.98,30.12c0,12.65,10.33,22.98,22.98,22.98c3.27,0,6.54-0.69,9.55-2.07v34.34c0,0.69,0.6,1.29,1.29,1.29
	c0.69,0,1.29-0.6,1.29-1.29v-34.34c3.01,1.38,6.28,2.07,9.55,2.07c12.65,0,22.98-10.33,22.98-22.98
	C219.8,89.7,209.99,71.46,196.83,71.46z M196.83,121.97c-3.36,0-6.63-0.86-9.55-2.41v-2.41l13.77-13.77c0.52-0.52,0.52-1.29,0-1.81
	s-1.29-0.52-1.81,0l-11.96,11.96V95.21c0-0.69-0.6-1.29-1.29-1.29c-0.69,0-1.29,0.6-1.29,1.29v10.41l-8.43-8.43
	c-0.52-0.52-1.29-0.52-1.81,0c-0.52,0.52-0.52,1.29,0,1.81l10.33,10.33v10.41c-2.93,1.55-6.2,2.41-9.55,2.41
	c-11.27,0-20.39-9.12-20.39-20.4c0-10.93,9.12-27.54,20.39-27.54c2.24,0,4.47,0.34,6.63,1.12c2.75,0.95,5.77,0.95,8.52,0
	c2.15-0.69,4.3-1.12,6.63-1.12c11.27,0,20.39,16.69,20.39,27.54C217.22,112.85,208.1,121.97,196.83,121.97z"/>
<g>
	<path class="st0" d="M342.21,436.96h-2.35c-0.61-14.75-12.78-26.55-27.69-26.55c-10.06,0-19.37,5.52-24.28,14.37
		c-0.23,0.38-0.15,0.76,0,1.13c0.23,0.38,0.61,0.53,0.98,0.53h9.83c0.3,0,0.61-0.15,0.83-0.38c3.33-3.48,7.79-5.45,12.56-5.45
		c9.23,0,16.79,7.19,17.4,16.26h-2.27c-0.45,0-0.91,0.3-1.06,0.68c-0.15,0.38-0.08,0.91,0.3,1.21l7.49,7.19
		c0.23,0.23,0.53,0.3,0.76,0.3s0.53-0.08,0.76-0.3l7.49-7.19c0.3-0.3,0.45-0.83,0.3-1.21C343.12,437.19,342.67,436.96,342.21,436.96
		z M334.8,443.69l-4.61-4.46h0.61c0.61,0,1.13-0.53,1.13-1.13c0-10.82-8.85-19.67-19.67-19.67c-5.22,0-10.14,2.04-13.92,5.75H291
		c4.69-7.11,12.63-11.5,21.26-11.5c13.99,0,25.42,11.42,25.42,25.42c0,0.61,0.53,1.13,1.13,1.13h0.61L334.8,443.69z"/>
	<path class="st0" d="M312.26,465.78c10.06,0,19.37-5.52,24.28-14.37c0.23-0.38,0.15-0.76,0-1.13c-0.15-0.38-0.61-0.53-0.98-0.53
		h-9.83c-0.3,0-0.61,0.15-0.83,0.38c-3.33,3.48-7.79,5.45-12.63,5.45c-9.23,0-16.79-7.19-17.4-16.26h2.27c0.45,0,0.91-0.3,1.06-0.68
		c0.15-0.38,0.08-0.91-0.3-1.21l-7.49-7.19c-0.45-0.45-1.13-0.45-1.59,0l-7.49,7.19c-0.3,0.3-0.45,0.83-0.3,1.21
		c0.15,0.38,0.61,0.68,1.06,0.68h2.35C285.18,453.98,297.36,465.78,312.26,465.78z M289.64,432.5l4.61,4.46h-0.61
		c-0.61,0-1.13,0.53-1.13,1.13c0,10.82,8.85,19.67,19.67,19.67c5.3,0,10.21-2.04,13.92-5.75h7.41c-4.69,7.19-12.63,11.5-21.26,11.5
		c-13.99,0-25.42-11.42-25.42-25.42c0-0.61-0.53-1.13-1.13-1.13h-0.61L289.64,432.5z"/>
</g>
<g>
	<path class="st0" d="M28.37,11.3H16.28c-0.77,0-1.45,0.68-1.45,1.45v43.13c-4.16,2.61-6.77,7.16-6.77,12.09
		c0,7.83,6.38,14.22,14.22,14.22s14.22-6.38,14.22-14.22c0-4.93-2.51-9.48-6.77-12.09V12.75C29.82,11.88,29.14,11.3,28.37,11.3z
		 M33.59,67.87c0,6.19-5.03,11.31-11.31,11.31c-6.19,0-11.31-5.03-11.31-11.31c0-4.16,2.32-8.03,6-9.96
		c0.48-0.29,0.77-0.77,0.77-1.26V14.2h9.19v42.45c0,0.58,0.29,1.06,0.77,1.26C31.36,59.94,33.59,63.71,33.59,67.87z"/>
	<path class="st0" d="M23.72,62.94V22.03c0-0.77-0.68-1.45-1.45-1.45s-1.45,0.68-1.45,1.45v40.91c-2.13,0.68-3.77,2.61-3.77,4.93
		c0,2.9,2.32,5.22,5.22,5.22s5.22-2.32,5.22-5.22C27.5,65.55,25.95,63.52,23.72,62.94z"/>
	<path class="st0" d="M38.04,50.17h7.25c0.77,0,1.45-0.68,1.45-1.45v-14.7h1.45c0.48,0,0.97-0.29,1.26-0.77
		c0.29-0.48,0.29-1.06,0-1.45l-6.58-10.64c-0.29-0.39-0.77-0.68-1.26-0.68s-0.97,0.29-1.26,0.68L33.78,31.8
		c-0.29,0.48-0.29,0.97,0,1.45c0.29,0.48,0.77,0.77,1.26,0.77h1.45v14.7C36.59,49.49,37.17,50.17,38.04,50.17z M41.61,24.74
		l3.96,6.38h-0.29c-0.77,0-1.45,0.68-1.45,1.45v14.7h-4.35v-14.7c0-0.77-0.68-1.45-1.45-1.45h-0.29L41.61,24.74z"/>
</g>
<g>
	<path class="st0" d="M169.87,15.31c-0.23-0.23-0.53-0.31-0.84-0.23c-0.76,0.08-18.61,2.21-28.9,14.87
		c-1.3,1.53-2.36,3.28-3.43,5.11c-1.14-2.36-2.52-4.65-4.27-6.79c-10.3-12.58-28.14-14.72-28.9-14.87c-0.31,0-0.61,0.08-0.84,0.23
		c-0.23,0.23-0.38,0.46-0.38,0.76c-0.08,0.76-1.53,18.68,8.77,31.27s28.14,14.72,28.9,14.87c0.08,0,0.08,0,0.15,0l0,0l0,0
		c0,0,0,0,0.08,0c0,0,0,0,0.08,0c0.08,0,0.23,0,0.31-0.08c6.25-1.91,15.02-5.72,21.05-13.12c10.3-12.58,8.77-30.5,8.77-31.27
		C170.25,15.85,170.1,15.54,169.87,15.31z M112.82,44.22c-8.24-10.07-8.39-24.17-8.31-28.37c4.12,0.69,17.92,3.74,26.16,13.8
		c7.24,8.92,8.24,21.05,8.31,26.61l-23.79-29.21c-0.38-0.46-1.14-0.53-1.6-0.15s-0.53,1.14-0.15,1.6l23.87,29.21
		C131.81,56.57,120.07,53.14,112.82,44.22z M159.8,45.97c-5.26,6.41-12.66,9.99-18.45,11.9c0.08-1.3,0.08-3.2-0.15-5.49l18.07-22.12
		c0.38-0.46,0.31-1.22-0.15-1.6c-0.46-0.38-1.22-0.31-1.6,0.15l-16.62,20.36c-0.46-3.43-1.3-7.4-2.9-11.44
		c1.14-2.36,2.44-4.5,3.97-6.33c8.24-10.07,22.04-13.12,26.16-13.8C168.19,21.72,167.96,35.9,159.8,45.97z"/>
</g>
<g>
	<path class="st0" d="M38.94,134.08c1.49-1.49,2.98-3.21,4.35-5.04l-0.8,45.67h11.1l-0.8-45.67c1.37,1.83,2.86,3.55,4.35,5.04
		c3.43,3.43,9.5,8.24,13.51,8.24c1.03,0,1.95-0.34,2.63-1.03c3.55-3.55-2.86-11.79-7.21-16.14c-3.32-3.32-8.01-6.98-11.68-7.9
		c0.11-0.69,0.11-1.49,0-2.17l0,0c3.66-1.03,8.36-4.58,11.68-7.9c4.35-4.35,10.76-12.59,7.21-16.14c-1.03-1.03-3.09-1.83-7.44,0.46
		c-2.75,1.49-5.84,3.89-8.81,6.75c-3.32,3.32-6.98,8.01-7.9,11.68c-0.69-0.11-1.49-0.11-2.17,0l0,0c-1.03-3.66-4.58-8.36-7.9-11.68
		c-2.98-2.98-6.07-5.27-8.81-6.75C26,89.32,23.83,90,22.8,91.03c-1.03,1.03-1.83,3.09,0.46,7.44c1.49,2.75,3.89,5.84,6.75,8.81
		c3.32,3.32,8.01,6.98,11.68,7.9c-0.11,0.69-0.11,1.49,0,2.17l0,0c-3.66,1.03-8.36,4.58-11.68,7.9c-2.98,2.98-5.27,6.07-6.75,8.81
		c-2.29,4.24-1.49,6.41-0.46,7.44c0.69,0.69,1.6,1.03,2.63,1.03C29.44,142.32,35.39,137.62,38.94,134.08z M50.04,171.28h-4.12
		l0.92-48.76v-0.11c0.34,0.11,0.69,0.11,1.14,0.11c0.34,0,0.69,0,1.14-0.11l0,0v0.11L50.04,171.28z M70.76,138.88
		c-0.92,0.23-5.49-1.37-11.33-7.21c-4.01-4.01-6.18-7.56-6.87-9.73v-1.37l0.23-0.23c1.83,0.23,6.07,2.4,10.76,7.21
		C69.39,133.39,70.99,137.97,70.76,138.88z M59.43,100.54c5.84-5.84,10.3-7.44,11.33-7.21c0.23,0.92-1.37,5.49-7.21,11.33
		c-4.81,4.81-9.04,6.98-10.76,7.21l-0.46-0.46C52.45,109.46,54.62,105.23,59.43,100.54z M47.98,113.13c0.57,0,1.26,0.23,1.72,0.57
		c0.69,0.46,1.14,1.14,1.26,1.95c0.23,1.6-0.8,3.21-2.4,3.43c-0.8,0.11-1.6,0-2.29-0.46c-0.69-0.46-1.14-1.14-1.26-1.95
		c-0.11-0.8,0-1.6,0.46-2.29c0.46-0.69,1.14-1.14,1.95-1.26C47.64,113.13,47.75,113.13,47.98,113.13z M25.2,93.32
		c0.92-0.23,5.49,1.37,11.33,7.21c4.81,4.81,6.98,9.04,7.21,10.76l-0.46,0.46c-1.83-0.23-6.07-2.4-10.76-7.21
		C26.58,98.82,24.86,94.24,25.2,93.32z M25.2,138.88c-0.23-0.92,1.37-5.49,7.21-11.33c4.81-4.81,9.04-6.98,10.76-7.21l0.23,0.23
		v1.37c-0.69,2.17-2.86,5.72-6.87,9.73C30.7,137.51,26.12,139.11,25.2,138.88z"/>
	<path class="st0" d="M120.56,83.48c2.29-4.24,1.49-6.41,0.46-7.44c-1.03-1.03-3.09-1.83-7.44,0.46c-2.75,1.49-5.84,3.89-8.81,6.75
		c-3.32,3.32-6.98,8.01-7.9,11.68l0,0c-0.69-0.11-1.49-0.11-2.17,0c-1.03-3.66-4.58-8.36-7.9-11.68c-2.98-2.98-6.07-5.27-8.81-6.75
		c-4.24-2.17-6.41-1.49-7.44-0.46c-1.03,1.03-1.83,3.09,0.46,7.44c1.49,2.75,3.89,5.84,6.75,8.81c3.32,3.32,8.01,6.98,11.68,7.9l0,0
		c-0.11,0.8-0.11,1.49,0,2.17c-3.66,1.03-8.36,4.58-11.68,7.9c-2.98,2.98-5.27,6.07-6.75,8.81c-2.29,4.24-1.49,6.41-0.46,7.44
		c0.57,0.57,1.37,1.03,2.63,1.03c1.14,0,2.75-0.34,4.69-1.49c2.75-1.49,5.84-3.89,8.81-6.75c1.49-1.49,3.09-3.21,4.35-5.04
		l-0.92,60.56h11.1l-0.92-60.56c1.37,1.83,2.86,3.55,4.35,5.04c2.98,2.98,6.07,5.27,8.81,6.75c2.06,1.03,3.55,1.49,4.69,1.49
		c1.26,0,2.06-0.46,2.63-1.03c1.03-1.03,1.83-3.09-0.46-7.44c-1.49-2.75-3.89-5.84-6.75-8.81c-3.32-3.32-8.01-6.98-11.68-7.9l0,0
		c0.11-0.8,0.11-1.49,0-2.17c3.66-1.03,8.36-4.58,11.68-7.9C116.67,89.32,119.07,86.23,120.56,83.48z M95.72,98.25
		c0.23,0,0.34,0,0.57,0c0.8,0.11,1.49,0.57,1.95,1.26c0.46,0.69,0.69,1.49,0.46,2.29c-0.11,0.8-0.57,1.49-1.26,1.95
		c-0.69,0.46-1.49,0.69-2.29,0.46c-0.8-0.11-1.49-0.57-1.95-1.26s-0.69-1.49-0.46-2.29c0.11-0.8,0.57-1.49,1.26-1.95
		C94.57,98.47,95.14,98.25,95.72,98.25z M72.94,78.44c0.92-0.23,5.49,1.37,11.33,7.21c4.81,4.81,6.98,9.04,7.21,10.76l-0.46,0.46
		c-1.83-0.23-6.07-2.4-10.76-7.21C74.31,83.94,72.71,79.47,72.94,78.44z M84.27,116.9c-5.84,5.84-10.3,7.44-11.33,7.21
		c-0.23-0.92,1.37-5.49,7.21-11.33c4.81-4.81,9.04-6.98,10.76-7.21l0.23,0.23v1.37C90.45,109.24,88.28,112.9,84.27,116.9z
		 M97.78,171.28h-4.12l0.92-63.65v-0.11l0,0c0.34,0.11,0.69,0.11,1.14,0.11c0.34,0,0.8,0,1.14-0.11c0,0,0,0,0,0.11L97.78,171.28z
		 M118.61,124.12c-0.92,0.23-5.49-1.37-11.33-7.21c-4.01-4.01-6.18-7.67-6.87-9.73v-1.37l0.23-0.23c1.83,0.23,6.07,2.4,10.76,7.21
		C117.24,118.62,118.84,123.09,118.61,124.12z M100.53,96.99l-0.46-0.46c0.23-1.83,2.4-6.07,7.21-10.76
		c5.84-5.84,10.3-7.44,11.33-7.21c0.23,0.92-1.37,5.49-7.21,11.33C106.59,94.58,102.36,96.76,100.53,96.99z"/>
</g>
<path class="st0" d="M225.66,483.34c-0.05,0.05-0.09,0.1-0.13,0.16c0.2-4.18,1.18-9.18,2.13-14.09c1.81-9.28,3.51-18.04,0.76-23.3
	c-1.86-3.56-4.06-5.38-6.54-5.4c-0.02,0-0.03,0-0.05,0c-3.07,0-5.29,2.78-6.22,4.19c-6.4-6.09-16.6-5.35-29.98-4.35
	c-4.12,0.31-8.38,0.62-13.06,0.8c-12.81,0.49-17.03-1.97-18.41-3.47c-0.85-0.92-0.8-1.7-0.79-1.79c0.05-0.27,0.01-0.53-0.06-0.77
	c2.08-1.73,3.16-4.09,3.29-6.42c0.21-3.68-1.93-6.71-5.09-7.19c-2.34-0.36-4.58,0.48-6.53,1.74c-1.31-0.78-5.58-2.9-9.64-0.19
	c-1,0.66-3.28,1.6-5.71,2.59c-6.59,2.69-15.6,6.38-17.99,11.82c-1.31,2.99-3.15,8.53-0.84,12.07c0.81,1.24,2.48,2.72,5.82,2.72
	c2.03,0,3.42-0.77,4.65-1.45c1.8-0.99,3.69-2,8.51-1.24c1.17,1.72,4.99,8.57,3.95,23.51c-0.97,13.9,3.38,19.45,6.05,21.53
	c1.7,1.32,3.64,2,5.58,2c0.8,0,1.6-0.13,2.39-0.37c0.88,2.42,1.75,5.43,2.24,8.83c0.36,2.54,0.66,4.73,0.91,6.64
	c0.66,4.93,1.06,7.91,1.72,9.9c0.47,1.42,1.6,2.41,3.17,2.78c0.46,0.11,0.93,0.16,1.42,0.16c1.96,0,4.07-0.84,5.5-2.27
	c1.52-1.52,1.66-3.45,1.83-5.89c0.16-2.24,0.36-5.03,1.58-8.9c1.34-4.24,2.02-8.38,2.1-12.48c3.28-1.01,13.97-3.96,23.52-3.03
	c1.05,1.85,2.34,3.74,3.86,5.76c3.1,4.13,3.28,11.6,3.39,16.53c0.08,3.35,0.15,5.15,0.72,6.28c1.08,2.17,3.74,3.1,5.95,3.1
	c0.18,0,0.36-0.01,0.54-0.02c2.18-0.15,3.8-1.23,4.35-2.87c0.28-0.85,0.3-2.4,0.31-6.13c0.02-8.24,0.06-25.39,5.82-32.67
	c8.48-10.71,9.06-21.37,1.84-33.56c-0.21-0.35-0.44-0.66-0.66-0.99c0.09-0.1,0.19-0.19,0.26-0.31c0.57-1.04,2.22-3.17,3.69-3.17
	c0.01,0,0.01,0,0.02,0c1.09,0.01,2.35,1.28,3.54,3.56c2.19,4.2,0.53,12.78-1.09,21.07c-1.96,10.09-3.82,19.61-0.07,24.86
	c1.93,2.7,3.66,4.02,5.27,4.02c0.16,0,0.32-0.01,0.48-0.04c1.14-0.19,2.03-1.05,2.42-2.35c0.9-3.01-0.62-8.55-4.34-12
	C227.38,482.61,226.3,482.65,225.66,483.34z M214.03,480.03c-6.5,8.21-6.54,25.5-6.56,34.79c0,2.24-0.01,4.56-0.13,5.05
	c-0.07,0.22-0.57,0.49-1.35,0.54c-1.33,0.09-2.83-0.46-3.19-1.19c-0.26-0.55-0.31-2.93-0.36-4.84c-0.14-5.7-0.32-13.49-4.08-18.5
	c-4.98-6.64-7.23-11.29-5.68-18.26c0.21-0.92-0.38-1.83-1.3-2.04c-0.92-0.2-1.83,0.38-2.04,1.3c-0.99,4.47-0.66,8.14,0.72,11.74
	c-8.88-0.42-17.96,1.88-21.92,3.04c-0.17-2.38-0.52-4.75-1.12-7.13c-0.23-0.92-1.16-1.47-2.07-1.24c-0.92,0.23-1.47,1.16-1.24,2.07
	c1.75,7.01,1.48,13.98-0.83,21.29c-1.34,4.25-1.57,7.39-1.73,9.69c-0.15,2.1-0.25,3.13-0.84,3.72c-0.93,0.93-2.59,1.47-3.72,1.2
	c-0.58-0.14-0.68-0.41-0.71-0.53c-0.56-1.68-0.94-4.54-1.58-9.28c-0.26-1.91-0.55-4.12-0.92-6.67c-1.32-9.21-5.19-15.75-5.35-16.02
	c-0.48-0.81-1.53-1.07-2.34-0.59c-0.81,0.48-1.07,1.53-0.59,2.34c0.01,0.02,0.59,1.01,1.36,2.71c-1.51,0.35-3.15-0.02-4.56-1.12
	c-3.64-2.82-5.36-9.59-4.74-18.59c0.85-12.12-1.4-19.45-3.18-23.23c7.71,0.43,11.42-2.82,11.59-2.97c0.7-0.63,0.76-1.71,0.13-2.41
	c-0.63-0.7-1.71-0.76-2.41-0.13c-0.04,0.03-3.88,3.24-12.23,1.73c-6.52-1.19-9.24,0.31-11.42,1.52c-1.07,0.59-1.85,1.02-2.99,1.02
	c-2.2,0-2.77-0.88-2.96-1.17c-1.02-1.56-0.59-4.94,1.11-8.82c1.83-4.18,10.45-7.7,16.15-10.03c2.81-1.15,5.03-2.05,6.31-2.91
	c1.71-1.14,3.57-0.77,4.81-0.29c-1.82,1.76-3.05,3.49-3.32,3.89c-0.53,0.78-0.33,1.84,0.44,2.37c0.78,0.53,1.84,0.33,2.38-0.44
	c1.38-2.01,5.75-7.1,9.44-6.54c1.63,0.25,2.28,2.05,2.19,3.62c-0.15,2.55-2.21,5.6-7.55,5.81c-0.94,0.04-1.68,0.83-1.64,1.77
	c0.04,0.92,0.79,1.64,1.71,1.64c0.02,0,0.04,0,0.07,0c1.62-0.06,3.04-0.35,4.28-0.79c0.15,0.8,0.52,1.8,1.38,2.82
	c3.04,3.61,10.2,5.22,21.26,4.81c4.74-0.18,9.23-0.51,13.19-0.81c14.96-1.11,24.85-1.85,29.72,6.38
	C222.1,461.29,221.62,470.45,214.03,480.03z M229.21,494.04c-0.4-0.27-1.12-0.91-2.19-2.4c-1.05-1.47-1.48-3.61-1.53-6.17
	c0.07,0.11,0.16,0.2,0.25,0.29C228.68,488.48,229.47,492.59,229.21,494.04z"/>
<path class="st0" d="M190.43,38.38c0.85,0.74,20.52,17.79,33.91,20.42c0.7,4.81,1.22,11.64,0.04,18.28
	c-0.12,0.69,0.17,1.39,0.74,1.79c1.63,1.13,4.32,2.41,6.91,2.41c1.57,0,3.1-0.47,4.35-1.72c2.01-2.01,2.18-5.22,2.36-8.61
	c0.16-2.95,0.32-6,1.75-7.61c0.09-0.1,0.16-0.2,0.25-0.3c1.16,0.24,7.62,1.52,13.81,1.52c2.31,0,4.58-0.18,6.51-0.66
	c0.04,0.6,0.07,1.21,0.07,1.84c0,3.67-0.34,6.64-0.62,9.04c-0.39,3.44-0.65,5.72,0.53,7.29c1.11,1.48,4.11,2.23,6.95,2.23
	c0.79,0,1.57-0.06,2.3-0.18c2.9-0.47,4.87-1.86,5.55-3.91c0.65-1.96,0.4-4.77,0.11-8.02c-0.35-3.92-0.78-8.79,0.87-10.64
	c0.61-0.68,1.92-1.12,3.45-1.62c5.31-1.75,13.34-4.4,14.05-23.28c0.14-3.72-0.33-7.29-1.35-10.63c0.02-0.01,0.03-0.01,0.05-0.02
	c0.76-0.47,2.33-1.25,4.08-1.71c-0.77,1.99-0.79,4.17,0.04,6.24c1.61,4.02,4.81,6.79,7.59,6.79c0.41,0,0.81-0.06,1.19-0.18
	c1.6-0.52,4.02-2.44,2.26-9.5c-0.66-2.65-1.87-4.6-3.59-5.82c1.8-0.62,4.05-0.58,6.17,0.98c0.8,0.58,1.92,0.41,2.51-0.39
	c0.59-0.8,0.41-1.92-0.39-2.51c-4.38-3.21-9.47-2.21-12.58,0.2c-0.11,0.09-0.22,0.18-0.33,0.26c-3.5-0.1-6.94,1.56-8.26,2.27
	c-2.31-5.25-6.08-9.77-11.12-13.14c-8.02-5.36-26.14-12.21-57.37,2.11c-5.38-9.41-14.91-9.55-15.03-9.55c-0.99,0-1.79,0.8-1.79,1.79
	c0,4.62,0.9,9.73,1.81,13.73c-0.36,0.21-0.67,0.53-0.82,0.95c-0.09,0.24-2.25,5.85-15.24,5.06c-0.92-0.08-1.7,0.57-1.87,1.46
	c-0.06,0.31-1.4,7.57-0.44,12.35C189.92,37.77,190.13,38.12,190.43,38.38z M301.28,24.14c0.14,0.04,0.28,0.09,0.41,0.14
	c1.46,0.6,2.45,1.97,3.01,4.21c0.99,3.96,0.26,5.17,0.12,5.22c-0.56,0.19-2.98-1.14-4.34-4.53
	C299.7,27.24,300.26,25.46,301.28,24.14z M193.58,27.23c9.41,0.23,13.8-2.87,15.77-5.19c0.4,1.46,0.7,2.4,0.74,2.53
	c0.24,0.76,0.95,1.25,1.71,1.25c0.18,0,0.37-0.03,0.55-0.09c0.94-0.3,1.46-1.31,1.16-2.26c-0.03-0.1-2.99-9.41-3.44-17.6
	c3.38,0.71,10.4,3.51,12.53,14.45c0.19,0.97,1.12,1.61,2.1,1.42c0.97-0.19,1.61-1.13,1.42-2.1c-0.35-1.79-0.83-3.35-1.38-4.79
	c21.66-9.92,41.29-10.8,53.88-2.39c8.08,5.4,12.51,14.17,12.14,24.05c-0.62,16.38-6.7,18.39-11.59,20.01
	c-1.93,0.64-3.76,1.24-5,2.64c-2.68,3.02-2.19,8.5-1.76,13.35c0.23,2.62,0.47,5.32,0.06,6.57c-0.25,0.75-1.22,1.15-2,1.35
	c-2.66,0.7-5.99-0.04-6.53-0.52c-0.32-0.48-0.05-2.84,0.17-4.73c0.28-2.48,0.64-5.57,0.64-9.44c0-8.89-4.09-16.27-4.27-16.58
	c-0.49-0.86-1.58-1.17-2.44-0.68c-0.86,0.49-1.17,1.58-0.68,2.44c0.03,0.05,2.24,4.04,3.27,9.47c-0.12,0.01-0.23-0.01-0.35,0.02
	c-5.45,1.36-14.5-0.08-17.73-0.68c0.62-2.43-0.18-4.75-1.01-7.15c-0.37-1.08-0.76-2.19-1.07-3.43c-0.24-0.96-1.21-1.54-2.18-1.31
	c-0.96,0.24-1.55,1.21-1.31,2.18c0.35,1.39,0.78,2.63,1.16,3.73c1.21,3.51,1.63,5.02-0.31,7.2c-2.27,2.55-2.47,6.41-2.65,9.81
	c-0.14,2.57-0.28,5.23-1.31,6.27c-1.36,1.36-4.1,0.34-5.74-0.54c1.87-12.4-1.44-24.61-1.58-25.14c-0.26-0.96-1.26-1.52-2.21-1.25
	c-0.95,0.26-1.52,1.25-1.25,2.21c0.01,0.03,0.27,1.03,0.61,2.66c-11.3-2.99-27.44-16.36-30.41-18.88
	C192.85,33.22,193.27,29.34,193.58,27.23z"/>
<path class="st0" d="M89.34,223.08c-2.95,4.31-2.89,8.76-1.51,11.26c0.77,1.39,1.92,2.18,3.18,2.18c0.04,0,0.07,0,0.11,0
	c0.77-0.03,2.23-0.4,3.25-2.61c1.44-3.13,0.75-9.08,0.02-15.38c-0.57-4.92-1.17-10.01-0.67-13.35c0.22-1.44,0.75-3.32,2.05-4.07
	c1.23-0.71,2.74-0.18,2.81-0.16c-0.06,0.35-0.13,0.7-0.18,1.07c-2.01,15.19,2.15,19.8,5.19,23.16c1.13,1.25,1.94,2.15,2.2,3.34
	c0.71,3.3,0.82,11.36,0.9,17.25c0.06,4.15,0.1,6.35,0.26,7.16c0.49,2.46,4.6,3.21,7.23,2.96c3.7-0.37,3.99-2.59,3.99-3.26
	c0-0.61-0.14-1.59-0.35-3.07c-0.75-5.26-2.51-17.59,2.37-20.84c3.11-2.07,7.79-2.36,11.93-0.72c3.13,1.24,5.33,3.33,5.86,5.6
	c1.49,6.33,2.29,17.84,2.29,19.42c0,1.97,2.54,3.01,5.04,3.01c3.06,0,5.04-1.64,5.04-4.17l0-1.01c-0.11-19.99,2.07-22.85,2.74-23.26
	c0.86-0.51,2.01-0.97,3.22-1.46c3.9-1.57,9.25-3.71,9.93-10.17c0.14-1.32,0.25-2.78,0.37-4.31c0.53-6.77,1.19-15.19,4.69-19.27
	c0.17-0.19,0.26-0.42,0.31-0.65c0.43,0.05,0.87,0.07,1.32,0.07c0.39,0,0.79-0.02,1.2-0.06c3.05-0.28,5.28-0.36,6.9-0.41
	c3.13-0.11,4.7-0.16,6.33-1.47c1.62-1.29,1.77-2.83,1.87-3.95c0.06-0.67,0.11-1.07,0.34-1.37c1.43-1.9-0.55-3.55-1.99-4.74
	c-1.37-1.14-3.07-2.55-3.57-4.35c-1.25-4.6-6.56-10.45-10.11-12.22c-3.36-1.68-9.37-2.08-13.1,1.78
	c-4.47-3.05-10.74-6.49-17.24-7.36c-5-0.66-6.1,1.48-6.31,2.82c-0.59,3.64,5.23,9.67,12.8,13.37c-0.08,0.24-0.12,0.49-0.07,0.75
	c0.01,0.07,1.15,6.63-1.98,10.88c-1.49,2.02-3.76,3.22-6.76,3.59c-3.3,0.4-7.65-0.05-12.25-0.54c-11.5-1.2-25.55-2.67-29.66,9.42
	c-0.87-0.26-3.05-0.71-5.1,0.47c-1.91,1.1-3.11,3.21-3.58,6.3c-0.56,3.75,0.06,9.05,0.65,14.17c0.16,1.33,0.31,2.68,0.45,3.98
	c-0.07-0.07-0.15-0.14-0.24-0.2C90.79,222.19,89.83,222.37,89.34,223.08z M101.46,202.45c1.65-12.51,12.31-12.38,27.19-10.83
	c4.78,0.5,9.3,0.97,12.94,0.53c3.89-0.47,6.88-2.1,8.9-4.84c3.08-4.19,2.92-9.76,2.68-12.13c1.64,0.61,3.32,1.12,5.01,1.44
	c0.1,0.02,0.19,0.03,0.29,0.03c0.73,0,1.38-0.52,1.52-1.26c0.16-0.84-0.39-1.65-1.24-1.81c-8.66-1.64-16.42-7.81-18.17-11.51
	c-0.34-0.73-0.31-1.09-0.28-1.14c0-0.01,0.49-0.51,2.83-0.2c10.99,1.47,21.92,11.52,22.03,11.62c0.63,0.58,1.61,0.55,2.19-0.08
	c0.58-0.63,0.55-1.61-0.08-2.19c-0.16-0.15-1.62-1.49-3.92-3.23c2.67-2.39,6.79-2.03,9.15-0.84c2.91,1.46,7.5,6.58,8.5,10.27
	c0.75,2.75,2.96,4.58,4.58,5.92c0.38,0.32,0.87,0.72,1.16,1.01c-0.46,0.85-0.54,1.71-0.61,2.42c-0.09,0.96-0.15,1.37-0.72,1.83
	c-0.8,0.64-1.6,0.69-4.5,0.8c-1.66,0.06-3.94,0.14-7.08,0.42c-7.12,0.65-9.14-6.33-9.22-6.62c-0.23-0.82-1.08-1.31-1.91-1.08
	c-0.82,0.23-1.31,1.08-1.08,1.9c0.66,2.43,2.82,6.32,6.87,8.06c-3.76,4.95-4.45,13.53-4.99,20.49c-0.12,1.5-0.23,2.93-0.37,4.23
	c-0.48,4.61-4.31,6.14-8,7.62c-1.33,0.53-2.59,1.04-3.66,1.68c-3.06,1.84-4.33,9.59-4.25,25.93l0,0.99c0,0.36-0.09,0.61-0.55,0.82
	c-1.03,0.46-2.7,0.17-3.34-0.13c-0.1-2.78-0.89-13.42-2.36-19.66c-0.78-3.31-3.6-6.14-7.74-7.78c-5.14-2.03-10.81-1.63-14.79,1.03
	c-6.51,4.34-4.63,17.53-3.73,23.86c0.15,1.04,0.29,2.04,0.32,2.5c-0.23,0.14-0.88,0.35-1.97,0.33c-1.51-0.02-2.74-0.43-3.13-0.7
	c-0.09-0.9-0.14-3.81-0.17-6.41c-0.08-6.02-0.2-14.26-0.97-17.85c-0.43-2.01-1.64-3.35-2.93-4.77
	C103.11,220.05,99.65,216.22,101.46,202.45z M91.9,224.83c0.01-0.01,0.01-0.02,0.02-0.03c0.28,3.38,0.31,6.3-0.38,7.81
	c-0.32,0.7-0.58,0.82-0.58,0.82c0.01-0.03-0.37-0.32-0.66-1.16C89.74,230.63,89.86,227.81,91.9,224.83z"/>
<path class="st0" d="M525.13,328.49c-0.86,0.62-1.05,1.82-0.42,2.68c1.29,1.78,1.29,4.23,0.89,5.79c-0.3,1.18-0.78,1.75-0.79,1.82
	c-0.01,0-0.49-0.19-1.18-1.5c-1.54-2.89-0.22-6.95,1.46-12.09c1.81-5.54,4.05-12.44,3.55-20.69c-0.82-13.55-7.79-16.41-10.97-17
	c-3.82-13.53-12.22-12.68-24.76-11.34c-4.38,0.47-9.35,1-15.14,1.11c-14.55,0.32-25.2-3.74-28.85-5.36c2.77-2.37,4.96-5.1,5.08-7.83
	c0.09-1.91-0.75-4.56-5.22-6.34c-4.25-1.7-8-1.75-11.14-0.14c-1.4,0.72-2.51,1.69-3.39,2.71c-13.02-3.66-19.34,7.86-21.44,11.72
	c-1.64,3-4.35,4.98-6.75,6.72c-1.48,1.08-2.76,2.01-3.62,3.07c-2.08,2.6,0.56,7.55,2.83,10.24c2.09,2.47,4.36,3.78,6.43,3.78
	c0.8,0,1.56-0.19,2.28-0.59c2.99-1.66,4.6-2.04,9.72-2.13c1.41,2.27,8.36,13.74,10.01,22.4c1.84,9.66,5.21,19.38,16.09,19.38
	c0.3,0,0.62-0.03,0.93-0.04c1.05,4.15,1.82,8.81,1.66,13.33c-0.23,6.4-1.12,9.46-1.65,11.28c-0.65,2.23-0.93,3.69,1.38,5.61
	c1.07,0.89,3.63,2.74,6.48,2.74c0.46,0,0.93-0.05,1.41-0.16c1.29-0.3,3.07-1.2,4.21-3.75c1.02-2.29,1.19-9.16,1.4-20.17
	c0.07-3.67,0.14-7.53,0.27-11.12c14.86-9.17,25.6-0.99,26.09-0.6c0.12,0.1,0.27,0.15,0.41,0.21c0.13,0.52,0.25,1.03,0.34,1.52
	c0.86,4.59,0.44,13.6,0.13,20.17c-0.23,4.84-0.34,7.64-0.15,9.01c0.32,2.27,2.47,4.06,5.74,4.8c0.84,0.19,1.77,0.31,2.72,0.31
	c2.18,0,4.4-0.62,5.59-2.4c2.34-3.51,3.68-14.14,2.7-21.46c-0.15-1.13-0.34-2.22-0.52-3.29c-0.96-5.68-1.66-9.78,3.33-14.77
	c7.45-7.45,9.62-18.99,6.45-34.32c2.33,1.1,5.58,4.21,6.1,12.94c0.46,7.53-1.58,13.77-3.37,19.27c-1.88,5.78-3.51,10.76-1.2,15.09
	c1.55,2.9,3.29,3.52,4.5,3.52c0.02,0,0.03,0,0.04,0c1.55-0.02,2.95-1.05,3.84-2.84c1.4-2.79,1.59-7.55-0.82-10.86
	C527.19,328.06,525.99,327.87,525.13,328.49z M509.56,323.41c-6.39,6.38-5.38,12.35-4.4,18.12c0.17,1.02,0.35,2.07,0.49,3.15
	c0.95,7.09-0.61,16.61-2.09,18.83c-0.34,0.51-2.06,0.98-4.26,0.48c-1.87-0.43-2.74-1.25-2.79-1.6c-0.15-1.07,0.01-4.58,0.18-8.29
	c0.33-7.14,0.75-16.02-0.2-21.06c-1.48-7.88-8.07-20.18-8.35-20.7c-0.5-0.93-1.67-1.28-2.6-0.78c-0.93,0.5-1.28,1.67-0.78,2.6
	c0.05,0.09,3.44,6.44,5.85,12.71c-4.78-2.17-13.73-4.46-24.53,1.23c0.22-3.93,0.56-7.2,1.1-9.03c0.3-1.02-0.28-2.08-1.3-2.38
	c-1.03-0.3-2.08,0.28-2.38,1.3c-1.33,4.53-1.53,15.29-1.72,25.69c-0.14,7.57-0.31,16.99-1.07,18.68c-0.6,1.35-1.33,1.52-1.58,1.58
	c-1.14,0.26-2.93-0.44-4.55-1.79c-0.29-0.24-0.42-0.38-0.46-0.39c0.03-0.23,0.18-0.74,0.31-1.2c0.54-1.87,1.55-5.34,1.8-12.22
	c0.49-13.76-6.61-28.14-6.92-28.75c-0.47-0.95-1.62-1.33-2.57-0.86c-0.95,0.47-1.33,1.63-0.86,2.57c0.04,0.07,2.01,4.1,3.78,9.76
	c-6.51-0.08-10-4.82-12.17-16.25c-1.48-7.8-6.69-17.28-9.31-21.71c0.39,0,0.77,0,1.19,0c9.2,0,13.1-6.96,13.87-10.64
	c0.22-1.04-0.45-2.05-1.48-2.27c-1.03-0.22-2.06,0.45-2.27,1.48c-0.07,0.31-1.7,7.59-10.11,7.59c-10.09,0-12.49,0-17.24,2.64
	c-0.71,0.39-1.87-0.4-2.33-0.76c-2.61-2.02-4.44-5.89-4.27-7.01c0.56-0.64,1.65-1.43,2.79-2.27c2.59-1.88,5.81-4.23,7.86-7.98
	c3.12-5.71,7.72-11.85,15.92-10.16c-0.52,1.14-0.74,1.98-0.76,2.06c-0.26,1.02,0.37,2.06,1.39,2.32c1.02,0.25,2.07-0.36,2.33-1.38
	c0.01-0.04,1.08-4.05,4.35-5.71c2.11-1.07,4.78-0.97,7.94,0.3c1.91,0.76,2.85,1.64,2.81,2.61c-0.16,3.69-9.93,9.92-13.68,11.04
	c-1.02,0.3-1.59,1.37-1.29,2.39c0.25,0.83,1.01,1.37,1.84,1.37c0.18,0,0.37-0.03,0.55-0.08c1.43-0.43,4.69-1.98,7.94-4.15
	c0.07,0.05,0.12,0.12,0.2,0.17c0.52,0.28,13,6.83,32.12,6.46c5.96-0.12,11.01-0.66,15.47-1.14c13.22-1.41,18.16-1.93,21,9.74
	C518.08,305.16,516.47,316.49,509.56,323.41z"/>
<path class="st0" d="M112.75,302.93c-0.46-1.76-1.07-3.55-1.89-5.36c-7.65-16.94-28.45-20.13-37.32-19.02
	c-2.44,0.31-4.17,0.02-5.3-0.87c-2.1-1.66-2.7-5.69-3.31-11.21c-1.1-9.92-13.61-18.36-14.14-18.72c-0.59-0.39-1.36-0.34-1.88,0.12
	c-2.85,2.49-2.45,7.23-2.14,11.03c0.1,1.16,0.23,2.83,0.12,3.6c-4.07,0.06-12.7,0.94-14.99,7.23c-1.06,2.91-2.37,4.45-3.43,5.68
	c-0.95,1.11-1.84,2.16-1.84,3.65c0,3.15,4.65,6.65,7.59,8.12c2.07,1.03,4.93,0.96,7.71,0.89c1.75-0.05,3.55-0.09,4.98,0.15
	c0.05,0.78-0.11,2.34-0.24,3.53c-0.42,4.04-0.98,9.56,1.46,13.05c1.19,1.71,2.71,3.17,4.18,4.58c3.1,2.98,5.78,5.55,4.89,9.74
	c-1.21,5.64-2.1,8.75-2.42,9.79c-4.43,3.87-6.32,6.76-5.65,8.59c0.22,0.6,0.89,1.61,2.85,1.61h19.67c0.6,0,1.12-0.34,1.38-0.84
	c7.91,0.59,22.51-0.57,28.3-3.46c5.04-2.52,11.16-10.64,12.23-20.98c7.94,1.05,12.12,3.88,12.64,6.14c0.33,1.44-0.95,2.61-2.08,3.34
	c-1.57,1.01-3.4,2.05-5.17,3.05c-6.28,3.57-10.12,5.9-9.96,8.8c0.08,1.39,1.07,2.5,2.94,3.3c0.74,0.32,1.88,0.48,3.28,0.48
	c4.21,0,10.75-1.48,15.58-4.67c4.99-3.29,7.63-7.88,7.63-13.28C138.43,306.35,116.68,303.35,112.75,302.93z M99.95,332.01
	c-7.1,3.55-27.69,3.83-30.18,2.59c-0.8-0.4-0.7-1.22-0.62-1.55c0.32-1.37,2.03-2.75,5.11-2.75c0.51,0,0.99-0.25,1.28-0.67
	c0.29-0.42,0.35-0.96,0.17-1.44c-0.03-0.08-3.14-8.42,0.45-14.89c2.08-3.75,6.07-6.23,11.85-7.36c0.84-0.16,1.39-0.98,1.23-1.82
	c-0.16-0.84-0.98-1.39-1.82-1.23c-6.73,1.31-11.43,4.31-13.98,8.92c-3.18,5.74-2.08,12.34-1.23,15.55c-3.51,0.62-5.56,2.8-6.08,4.97
	c-0.31,1.33-0.06,2.64,0.64,3.65H52.41c0.74-1.18,2.67-3.26,4.74-5.03c0.21-0.18,0.37-0.42,0.46-0.69
	c0.04-0.13,1.08-3.27,2.63-10.52c1.26-5.88-2.48-9.46-5.77-12.63c-1.36-1.31-2.77-2.66-3.79-4.12c-1.78-2.54-1.28-7.41-0.92-10.96
	c0.37-3.6,0.64-6.2-1.53-6.74c-1.91-0.48-4.18-0.42-6.38-0.36c-2.39,0.06-4.87,0.13-6.24-0.56c-3.35-1.67-5.87-4.39-5.87-5.34
	c0-0.34,0.48-0.91,1.1-1.63c1.09-1.28,2.74-3.2,3.98-6.64c1.75-4.81,10.02-5.19,12.52-5.19c0.71,0,1.36-0.28,1.82-0.78
	c1.11-1.21,0.94-3.29,0.7-6.17c-0.2-2.43-0.47-5.61,0.39-7.46c3.02,2.27,10.83,8.75,11.59,15.62c0.7,6.28,1.43,10.9,4.47,13.31
	c1.82,1.43,4.31,1.93,7.61,1.52c7.8-0.98,27.24,2.01,34.1,17.21C114.97,314.22,106.34,328.82,99.95,332.01z M129.09,331.66
	c-6.27,4.13-14.47,4.55-15.93,3.93c-0.82-0.35-1.03-0.62-1.06-0.62h0c0.18-1.26,5.32-4.18,8.39-5.93c1.81-1.03,3.68-2.09,5.32-3.14
	c3.77-2.42,3.76-5.21,3.43-6.65c-0.98-4.21-6.9-7.46-15.51-8.55c0-1.49-0.11-3.01-0.34-4.56c5.15,0.71,21.92,3.87,21.92,14.84
	C135.32,325.34,133.23,328.94,129.09,331.66z"/>
<path class="st0" d="M398.19,146.62c-3.84,5.62-3.76,11.41-1.97,14.67c1,1.81,2.5,2.84,4.14,2.84c0.05,0,0.09,0,0.14,0
	c1.01-0.04,2.9-0.52,4.23-3.4c1.88-4.08,0.98-11.83,0.02-20.03c-0.75-6.41-1.52-13.03-0.87-17.39c0.28-1.88,0.97-4.32,2.67-5.3
	c1.6-0.92,3.57-0.24,3.65-0.2c-0.08,0.46-0.16,0.92-0.23,1.4c-2.61,19.78,2.81,25.79,6.76,30.17c1.47,1.62,2.53,2.8,2.86,4.36
	c0.92,4.29,1.07,14.79,1.17,22.46c0.08,5.4,0.13,8.27,0.34,9.33c0.64,3.2,6,4.19,9.41,3.85c4.82-0.48,5.2-3.37,5.2-4.25
	c0-0.79-0.18-2.07-0.46-4c-0.98-6.85-3.27-22.9,3.09-27.14c4.05-2.7,10.15-3.07,15.54-0.94c4.08,1.61,6.94,4.34,7.63,7.3
	c1.94,8.25,2.98,23.24,2.98,25.29c0,2.57,3.3,3.91,6.57,3.91c3.99,0,6.57-2.13,6.57-5.43l0-1.31c-0.14-26.03,2.7-29.77,3.57-30.29
	c1.12-0.67,2.61-1.27,4.2-1.9c5.08-2.04,12.05-4.83,12.93-13.25c0.18-1.72,0.33-3.62,0.49-5.62c0.69-8.81,1.55-19.78,6.11-25.1
	c0.22-0.25,0.34-0.54,0.41-0.84c0.56,0.06,1.13,0.1,1.72,0.1c0.51,0,1.03-0.02,1.57-0.07c3.97-0.36,6.87-0.46,8.99-0.54
	c4.07-0.14,6.12-0.21,8.25-1.92c2.11-1.69,2.3-3.69,2.44-5.15c0.08-0.87,0.14-1.39,0.44-1.78c1.86-2.48-0.72-4.62-2.6-6.18
	c-1.78-1.48-4-3.32-4.64-5.67c-1.63-5.99-8.54-13.61-13.17-15.92c-4.38-2.19-12.2-2.71-17.06,2.32c-5.82-3.97-13.99-8.46-22.46-9.59
	c-6.51-0.86-7.94,1.93-8.22,3.67c-0.76,4.75,6.81,12.6,16.67,17.41c-0.1,0.31-0.16,0.64-0.09,0.98c0.02,0.09,1.5,8.64-2.58,14.17
	c-1.94,2.62-4.9,4.2-8.81,4.67c-4.3,0.52-9.96-0.07-15.95-0.7c-14.98-1.56-33.28-3.47-38.63,12.27c-1.14-0.34-3.97-0.92-6.65,0.62
	c-2.49,1.43-4.06,4.19-4.66,8.2c-0.73,4.88,0.07,11.78,0.85,18.45c0.2,1.74,0.41,3.49,0.58,5.19c-0.09-0.1-0.2-0.19-0.31-0.27
	C400.08,145.46,398.82,145.7,398.19,146.62z M413.98,119.74c2.15-16.3,16.04-16.12,35.42-14.1c6.23,0.65,12.12,1.26,16.86,0.69
	c5.07-0.61,8.96-2.73,11.59-6.3c4.01-5.46,3.8-12.71,3.49-15.79c2.13,0.8,4.32,1.46,6.53,1.87c0.13,0.02,0.25,0.04,0.38,0.04
	c0.95,0,1.8-0.68,1.98-1.64c0.21-1.1-0.51-2.15-1.61-2.36c-11.28-2.13-21.39-10.17-23.66-14.98c-0.45-0.94-0.4-1.41-0.36-1.48
	c0-0.01,0.64-0.66,3.69-0.26c14.32,1.91,28.55,15,28.69,15.13c0.82,0.76,2.1,0.71,2.85-0.1c0.76-0.82,0.71-2.09-0.1-2.85
	c-0.21-0.2-2.11-1.94-5.11-4.2c3.47-3.11,8.84-2.64,11.92-1.1c3.79,1.9,9.77,8.57,11.07,13.37c0.98,3.58,3.86,5.97,5.96,7.72
	c0.5,0.41,1.13,0.94,1.51,1.32c-0.6,1.11-0.71,2.22-0.8,3.15c-0.12,1.25-0.2,1.78-0.94,2.38c-1.04,0.84-2.08,0.9-5.87,1.04
	c-2.17,0.08-5.13,0.18-9.22,0.55c-9.27,0.85-11.9-8.24-12.01-8.63c-0.3-1.07-1.41-1.71-2.48-1.4c-1.07,0.3-1.7,1.4-1.41,2.47
	c0.86,3.17,3.67,8.24,8.94,10.5c-4.9,6.45-5.79,17.63-6.51,26.68c-0.15,1.96-0.3,3.82-0.48,5.51c-0.63,6-5.61,7.99-10.42,9.92
	c-1.74,0.7-3.38,1.35-4.77,2.19c-3.99,2.39-5.64,12.5-5.53,33.78l0,1.29c0,0.47-0.12,0.8-0.72,1.07c-1.35,0.61-3.51,0.23-4.35-0.17
	c-0.13-3.62-1.16-17.48-3.07-25.6c-1.02-4.31-4.69-8-10.08-10.13c-6.69-2.64-14.07-2.13-19.27,1.34
	c-8.48,5.65-6.03,22.83-4.85,31.08c0.19,1.36,0.38,2.65,0.41,3.26c-0.3,0.18-1.14,0.45-2.56,0.44c-1.96-0.02-3.57-0.56-4.07-0.91
	c-0.12-1.17-0.18-4.97-0.22-8.35c-0.11-7.84-0.26-18.57-1.26-23.25c-0.56-2.62-2.14-4.37-3.81-6.22
	C416.12,142.66,411.61,137.67,413.98,119.74z M401.52,148.9c0.01-0.01,0.02-0.02,0.02-0.03c0.37,4.4,0.41,8.21-0.5,10.17
	c-0.42,0.91-0.76,1.07-0.76,1.07c0.02-0.04-0.48-0.41-0.86-1.51C398.7,156.45,398.87,152.78,401.52,148.9z"/>
<path class="st0" d="M331.54,401.49c0.79,0.69,18.94,16.42,31.3,18.84c0.65,4.44,1.13,10.74,0.04,16.87
	c-0.11,0.64,0.15,1.28,0.69,1.65c1.51,1.04,3.98,2.22,6.37,2.22c1.45,0,2.86-0.43,4.02-1.58c1.85-1.85,2.01-4.81,2.18-7.95
	c0.14-2.72,0.29-5.54,1.62-7.02c0.08-0.09,0.15-0.18,0.23-0.28c1.07,0.22,7.03,1.4,12.74,1.4c2.13,0,4.22-0.17,6.01-0.61
	c0.04,0.56,0.07,1.12,0.07,1.69c0,3.38-0.31,6.13-0.57,8.34c-0.36,3.18-0.6,5.28,0.49,6.73c1.03,1.37,3.79,2.06,6.41,2.06
	c0.73,0,1.45-0.05,2.12-0.16c2.67-0.43,4.5-1.72,5.13-3.61c0.6-1.8,0.37-4.4,0.11-7.4c-0.32-3.61-0.72-8.11,0.8-9.82
	c0.56-0.63,1.78-1.03,3.18-1.5c4.9-1.62,12.31-4.06,12.97-21.48c0.13-3.43-0.31-6.73-1.25-9.81c0.01-0.01,0.03-0.01,0.05-0.02
	c0.7-0.43,2.15-1.16,3.77-1.58c-0.71,1.83-0.72,3.85,0.04,5.75c1.48,3.71,4.44,6.27,7,6.27c0.38,0,0.74-0.05,1.1-0.17
	c1.48-0.48,3.71-2.25,2.08-8.77c-0.61-2.45-1.72-4.25-3.32-5.37c1.66-0.57,3.74-0.54,5.7,0.9c0.74,0.54,1.77,0.38,2.32-0.36
	c0.54-0.74,0.38-1.77-0.36-2.31c-4.04-2.96-8.74-2.04-11.61,0.18c-0.1,0.08-0.2,0.16-0.3,0.24c-3.23-0.09-6.41,1.44-7.62,2.1
	c-2.13-4.84-5.61-9.02-10.26-12.12c-7.4-4.95-24.12-11.26-52.94,1.95c-4.96-8.69-13.76-8.81-13.87-8.81c-0.91,0-1.66,0.74-1.66,1.66
	c0,4.26,0.83,8.98,1.67,12.67c-0.33,0.19-0.61,0.49-0.75,0.88c-0.08,0.22-2.08,5.4-14.06,4.67c-0.85-0.07-1.57,0.53-1.73,1.35
	c-0.05,0.28-1.29,6.99-0.41,11.39C331.07,400.93,331.26,401.25,331.54,401.49z M433.83,388.35c0.13,0.04,0.26,0.08,0.38,0.13
	c1.35,0.55,2.26,1.82,2.78,3.89c0.91,3.65,0.24,4.77,0.11,4.81c-0.52,0.18-2.75-1.05-4-4.18
	C432.37,391.21,432.89,389.57,433.83,388.35z M334.44,391.2c8.68,0.21,12.73-2.65,14.55-4.79c0.37,1.35,0.65,2.22,0.68,2.33
	c0.23,0.7,0.88,1.15,1.58,1.15c0.17,0,0.34-0.03,0.51-0.08c0.87-0.28,1.35-1.21,1.07-2.08c-0.03-0.09-2.76-8.69-3.18-16.24
	c3.12,0.66,9.6,3.24,11.57,13.34c0.17,0.9,1.04,1.49,1.94,1.31c0.9-0.17,1.48-1.04,1.31-1.94c-0.32-1.65-0.77-3.09-1.28-4.42
	c19.99-9.16,38.1-9.96,49.72-2.2c7.46,4.98,11.54,13.07,11.2,22.19c-0.57,15.12-6.18,16.97-10.7,18.46
	c-1.78,0.59-3.47,1.14-4.62,2.44c-2.47,2.78-2.02,7.85-1.63,12.32c0.22,2.41,0.44,4.91,0.05,6.06c-0.23,0.69-1.13,1.06-1.84,1.25
	c-2.46,0.65-5.53-0.04-6.02-0.48c-0.29-0.44-0.05-2.62,0.16-4.37c0.26-2.29,0.59-5.14,0.59-8.72c0-8.2-3.78-15.01-3.94-15.3
	c-0.45-0.8-1.46-1.08-2.25-0.63c-0.8,0.45-1.08,1.46-0.63,2.25c0.03,0.05,2.06,3.73,3.02,8.74c-0.11,0.01-0.21-0.01-0.32,0.02
	c-5.03,1.26-13.38-0.07-16.36-0.63c0.57-2.24-0.16-4.38-0.93-6.6c-0.34-0.99-0.7-2.02-0.98-3.16c-0.22-0.89-1.12-1.43-2.01-1.2
	c-0.89,0.22-1.43,1.12-1.2,2.01c0.32,1.28,0.72,2.43,1.07,3.44c1.12,3.24,1.5,4.63-0.29,6.65c-2.09,2.36-2.28,5.91-2.45,9.05
	c-0.13,2.37-0.26,4.83-1.21,5.78c-1.25,1.26-3.78,0.31-5.29-0.5c1.72-11.45-1.33-22.71-1.46-23.2c-0.24-0.88-1.16-1.4-2.04-1.16
	c-0.88,0.24-1.4,1.15-1.16,2.04c0.01,0.03,0.25,0.95,0.56,2.46c-10.43-2.76-25.32-15.1-28.06-17.42
	C333.77,396.73,334.16,393.15,334.44,391.2z"/>
<path class="st0" d="M509.2,477.09c-1.67,0-3.4,0.29-4.95,0.81c-1.5,0.52-3.11,0.52-4.6,0c-1.61-0.52-3.28-0.81-4.95-0.81
	c-8.75,0-15.36,12.26-15.36,20.14c0,8.46,6.91,15.36,15.36,15.36c2.19,0,4.37-0.46,6.39-1.38v22.96c0,0.46,0.4,0.86,0.86,0.86
	s0.86-0.4,0.86-0.86v-22.96c2.01,0.92,4.2,1.38,6.39,1.38c8.46,0,15.36-6.91,15.36-15.36C524.56,489.29,518,477.09,509.2,477.09z
	 M509.2,510.87c-2.24,0-4.43-0.58-6.39-1.61v-1.61l9.21-9.21c0.35-0.35,0.35-0.86,0-1.21c-0.35-0.35-0.86-0.35-1.21,0l-8,8v-12.26
	c0-0.46-0.4-0.86-0.86-0.86s-0.86,0.4-0.86,0.86v6.96l-5.64-5.64c-0.35-0.35-0.86-0.35-1.21,0c-0.35,0.35-0.35,0.86,0,1.21
	l6.91,6.91v6.96c-1.96,1.04-4.14,1.61-6.39,1.61c-7.54,0-13.64-6.1-13.64-13.64c0-7.31,6.1-18.41,13.64-18.41
	c1.5,0,2.99,0.23,4.43,0.75c1.84,0.63,3.86,0.63,5.7,0c1.44-0.46,2.88-0.75,4.43-0.75c7.54,0,13.64,11.16,13.64,18.41
	C522.84,504.77,516.74,510.87,509.2,510.87z"/>
<g>
	<path class="st0" d="M455.44,237.12v-23.41c0-3.5-5.29-6.14-12.37-6.14c-7.08,0-12.37,2.64-12.37,6.14v23.41
		c0,3.5,5.29,6.14,12.37,6.14C450.15,243.27,455.44,240.62,455.44,237.12z M443.39,240.93v-11.67c0-0.62-0.54-1.17-1.17-1.17
		c-0.62,0-1.17,0.54-1.17,1.17v11.59c-1.32-0.08-2.49-0.31-3.5-0.62v-21c1.63,0.39,3.58,0.62,5.6,0.62c1.32,0,2.57-0.08,3.81-0.23
		v10.11c0,0.62,0.54,1.17,1.17,1.17s1.17-0.54,1.17-1.17v-10.58c1.56-0.39,2.88-1.01,3.89-1.71v19.75
		C453.11,238.68,449.45,240.85,443.39,240.93z M443.15,209.9c6.22,0,10.03,2.18,10.03,3.81c0,1.09-1.94,2.57-5.21,3.27
		c-0.08,0-0.08,0-0.16,0c-1.32,0.31-2.88,0.47-4.67,0.47c-2.49,0-4.67-0.39-6.3-0.93c-0.08,0-0.16-0.08-0.23-0.08
		c-2.26-0.78-3.5-1.87-3.5-2.8C433.12,212.16,436.93,209.9,443.15,209.9z M433.12,237.12v-19.75c0.62,0.39,1.32,0.78,2.1,1.09v20.84
		C433.82,238.6,433.12,237.82,433.12,237.12z"/>
	<path class="st0" d="M443.15,216.75c2.64,0,5.37-1.01,5.37-3.03s-2.72-3.03-5.37-3.03c-2.64,0-5.37,1.01-5.37,3.03
		S440.43,216.75,443.15,216.75z M443.15,213.01c1.56,0,2.57,0.39,2.96,0.7c-0.39,0.23-1.4,0.7-2.96,0.7c-1.56,0-2.57-0.39-2.96-0.7
		C440.51,213.4,441.52,213.01,443.15,213.01z"/>
	<path class="st0" d="M472.47,198.78c-7.08,0-12.37,2.64-12.37,6.14v32.27c0,3.27,4.74,5.83,11.2,6.07c0.08,0,0.16,0,0.23,0
		c0.08,0,0.08,0,0.16,0c0.23,0,0.47,0,0.7,0c7.08,0,12.37-2.64,12.37-6.14v-32.27C484.84,201.35,479.55,198.78,472.47,198.78z
		 M472.78,240.93v-11.59c0-0.62-0.54-1.17-1.17-1.17s-1.17,0.54-1.17,1.17v11.51c-4.98-0.39-7.93-2.33-7.93-3.66v-28.62
		c0.62,0.39,1.32,0.78,2.1,1.09v22.4c0,0.62,0.54,1.17,1.17,1.17c0.62,0,1.17-0.54,1.17-1.17v-21.7c1.63,0.39,3.58,0.62,5.6,0.62
		c1.32,0,2.57-0.08,3.81-0.23v24.11c0,0.62,0.54,1.17,1.17,1.17c0.62,0,1.17-0.54,1.17-1.17v-24.58c1.56-0.39,2.88-1.01,3.89-1.71
		v28.62C482.5,238.68,478.85,240.85,472.78,240.93z M477.29,208.11c-0.08,0-0.08,0-0.16,0c-1.32,0.31-2.88,0.47-4.67,0.47
		c-2.49,0-4.67-0.39-6.3-0.93c-0.08,0-0.16-0.08-0.23-0.08c-2.26-0.78-3.5-1.87-3.5-2.8c0-1.56,3.81-3.81,10.03-3.81
		c6.22,0,10.03,2.18,10.03,3.81C482.5,206.01,480.64,207.41,477.29,208.11z"/>
	<path class="st0" d="M472.47,201.81c-2.64,0-5.37,1.01-5.37,3.03s2.72,3.03,5.37,3.03c2.64,0,5.37-1.01,5.37-3.03
		S475.19,201.81,472.47,201.81z M472.47,205.55c-1.56,0-2.57-0.39-2.96-0.7c0.39-0.23,1.4-0.7,2.96-0.7c1.56,0,2.57,0.39,2.96,0.7
		C475.04,205.16,474.03,205.55,472.47,205.55z"/>
</g>
<path class="st0" d="M302.91,130.04c0-20.13-16.4-36.53-36.53-36.53s-36.53,16.4-36.53,36.53s16.4,36.53,36.53,36.53
	S302.91,150.17,302.91,130.04z M247.91,130.04c0-4.05,0.42-7.89,1.14-11.52h15.77v23.97h-15.57
	C248.43,138.55,247.91,134.4,247.91,130.04z M284.85,130.04c0,4.36-0.52,8.61-1.35,12.45h-15.57v-23.97h15.77
	C284.44,122.05,284.85,126,284.85,130.04z M267.94,162.73v-17.12h14.73C279.77,155.05,274.27,161.8,267.94,162.73z M267.94,115.41
	V97.36c6.54,0.93,12.14,8.09,14.94,18.06H267.94z M264.83,97.36v18.06h-14.94C252.69,105.35,258.29,98.29,264.83,97.36z
	 M264.83,145.5v17.12c-6.33-0.93-11.83-7.68-14.73-17.12H264.83z M276.24,161.9c4.15-3.63,7.47-9.34,9.55-16.4h10.07
	C291.81,153.29,284.75,159.2,276.24,161.9z M297.31,142.39h-10.79c0.83-3.84,1.35-8.09,1.35-12.45c0-4.05-0.42-7.89-1.14-11.52h10.9
	c1.35,3.63,2.08,7.47,2.08,11.52C299.8,134.4,298.86,138.55,297.31,142.39z M296.37,115.41H286.1c-1.97-7.47-5.5-13.49-9.75-17.23
	C285.06,100.88,292.32,107.21,296.37,115.41z M256.42,98.08c-4.36,3.74-7.78,9.86-9.75,17.23h-10.38
	C240.34,107.21,247.6,100.88,256.42,98.08z M235.05,118.52h10.9c-0.73,3.63-1.14,7.47-1.14,11.52c0,4.36,0.52,8.51,1.35,12.45
	h-10.79c-1.56-3.84-2.39-7.99-2.39-12.45C232.97,126,233.7,122.05,235.05,118.52z M236.81,145.5h10.07
	c2.08,7.06,5.4,12.76,9.55,16.4C247.91,159.2,240.86,153.29,236.81,145.5z"/>
<g>
	<path class="st0" d="M459.08,463.03c-0.35-0.35-0.83-0.47-1.3-0.35c-1.18,0.12-28.86,3.43-44.82,23.06
		c-2.01,2.37-3.67,5.09-5.32,7.92c-1.77-3.67-3.9-7.21-6.62-10.53c-15.97-19.51-43.64-22.82-44.82-23.06c-0.47,0-0.95,0.12-1.3,0.35
		c-0.35,0.35-0.59,0.71-0.59,1.18c-0.12,1.18-2.37,28.97,13.6,48.49c15.97,19.51,43.64,22.82,44.82,23.06c0.12,0,0.12,0,0.24,0l0,0
		l0,0c0,0,0,0,0.12,0c0,0,0,0,0.12,0c0.12,0,0.35,0,0.47-0.12c9.7-2.96,23.3-8.87,32.64-20.34c15.97-19.51,13.6-47.3,13.6-48.49
		C459.67,463.85,459.44,463.38,459.08,463.03z M370.62,507.85c-12.77-15.61-13.01-37.49-12.89-43.99
		c6.39,1.06,27.79,5.79,40.56,21.41c11.23,13.84,12.77,32.64,12.89,41.27l-36.9-45.29c-0.59-0.71-1.77-0.83-2.48-0.24
		s-0.83,1.77-0.24,2.48l37.02,45.29C400.07,527.01,381.86,521.68,370.62,507.85z M443.47,510.57c-8.16,9.93-19.63,15.49-28.62,18.45
		c0.12-2.01,0.12-4.97-0.24-8.51l28.03-34.3c0.59-0.71,0.47-1.89-0.24-2.48c-0.71-0.59-1.89-0.47-2.48,0.24l-25.78,31.58
		c-0.71-5.32-2.01-11.47-4.49-17.74c1.77-3.67,3.78-6.98,6.15-9.82c12.77-15.61,34.18-20.34,40.56-21.41
		C456.48,472.96,456.12,494.96,443.47,510.57z"/>
</g>
<g>
	<path class="st0" d="M89.28,349.27c-0.18-0.18-0.41-0.23-0.64-0.18c-0.58,0.06-14.26,1.69-22.15,11.39
		c-0.99,1.17-1.81,2.51-2.63,3.92c-0.88-1.81-1.93-3.56-3.27-5.2c-7.89-9.64-21.56-11.28-22.15-11.39c-0.23,0-0.47,0.06-0.64,0.18
		c-0.18,0.18-0.29,0.35-0.29,0.58c-0.06,0.58-1.17,14.32,6.72,23.96c7.89,9.64,21.56,11.28,22.15,11.39c0.06,0,0.06,0,0.12,0l0,0
		l0,0c0,0,0,0,0.06,0c0,0,0,0,0.06,0c0.06,0,0.18,0,0.23-0.06c4.79-1.46,11.51-4.38,16.13-10.05c7.89-9.64,6.72-23.37,6.72-23.96
		C89.57,349.68,89.45,349.44,89.28,349.27z M45.57,371.42c-6.31-7.71-6.43-18.52-6.37-21.74c3.16,0.53,13.73,2.86,20.04,10.58
		c5.55,6.84,6.31,16.13,6.37,20.39l-18.23-22.38c-0.29-0.35-0.88-0.41-1.23-0.12c-0.35,0.29-0.41,0.88-0.12,1.23l18.29,22.38
		C60.12,380.88,51.12,378.25,45.57,371.42z M81.56,372.76c-4.03,4.91-9.7,7.65-14.14,9.12c0.06-0.99,0.06-2.45-0.12-4.21
		l13.85-16.95c0.29-0.35,0.23-0.93-0.12-1.23c-0.35-0.29-0.93-0.23-1.23,0.12l-12.74,15.6c-0.35-2.63-0.99-5.67-2.22-8.77
		c0.88-1.81,1.87-3.45,3.04-4.85c6.31-7.71,16.89-10.05,20.04-10.58C87.99,354.18,87.81,365.05,81.56,372.76z"/>
</g>
<g>
	<path class="st0" d="M242.22,294.15h-3.58c-0.92-22.54-19.54-40.58-42.31-40.58c-15.38,0-29.6,8.44-37.11,21.97
		c-0.35,0.58-0.23,1.16,0,1.73c0.35,0.58,0.92,0.81,1.5,0.81h15.03c0.46,0,0.92-0.23,1.27-0.58c5.09-5.32,11.91-8.32,19.19-8.32
		c14.1,0,25.66,10.98,26.59,24.86h-3.47c-0.69,0-1.39,0.46-1.62,1.04c-0.23,0.58-0.12,1.39,0.46,1.85l11.45,10.98
		c0.35,0.35,0.81,0.46,1.16,0.46c0.35,0,0.81-0.12,1.16-0.46l11.45-10.98c0.46-0.46,0.69-1.27,0.46-1.85
		C243.6,294.49,242.91,294.15,242.22,294.15z M230.89,304.43l-7.05-6.82h0.92c0.92,0,1.73-0.81,1.73-1.73
		c0-16.53-13.53-30.06-30.06-30.06c-7.98,0-15.49,3.12-21.27,8.79h-11.21c7.17-10.87,19.31-17.57,32.49-17.57
		c21.39,0,38.84,17.46,38.84,38.84c0,0.92,0.81,1.73,1.73,1.73h0.92L230.89,304.43z"/>
	<path class="st0" d="M196.44,338.19c15.38,0,29.6-8.44,37.11-21.97c0.35-0.58,0.23-1.16,0-1.73c-0.23-0.58-0.92-0.81-1.5-0.81
		h-15.03c-0.46,0-0.92,0.23-1.27,0.58c-5.09,5.32-11.91,8.32-19.31,8.32c-14.1,0-25.66-10.98-26.59-24.86h3.47
		c0.69,0,1.39-0.46,1.62-1.04s0.12-1.39-0.46-1.85l-11.45-10.98c-0.69-0.69-1.73-0.69-2.43,0l-11.45,10.98
		c-0.46,0.46-0.69,1.27-0.46,1.85c0.23,0.58,0.92,1.04,1.62,1.04h3.58C155.05,320.16,173.66,338.19,196.44,338.19z M161.87,287.32
		l7.05,6.82H168c-0.92,0-1.73,0.81-1.73,1.73c0,16.53,13.53,30.06,30.06,30.06c8.09,0,15.61-3.12,21.27-8.79h11.33
		c-7.17,10.98-19.31,17.57-32.49,17.57c-21.39,0-38.84-17.46-38.84-38.84c0-0.92-0.81-1.73-1.73-1.73h-0.92L161.87,287.32z"/>
</g>
<path class="st0" d="M310.14,119.72c0,3.65,1.78,6.75,5.16,8.97c3.27,2.16,7.68,3.16,10.53,3.16c0.94,0,1.71-0.11,2.22-0.32
	c1.27-0.54,1.93-1.29,1.99-2.23c0.11-1.96-2.49-3.53-6.73-5.94c-1.2-0.68-2.44-1.38-3.49-2.06c-0.77-0.49-1.63-1.28-1.41-2.26
	c0.35-1.53,3.18-3.44,8.55-4.15c0.72,6.99,4.86,12.47,8.26,14.18c3.91,1.96,13.78,2.74,19.12,2.34c0.17,0.34,0.53,0.57,0.93,0.57
	h13.29c1.33,0,1.78-0.68,1.93-1.09c0.46-1.24-0.82-3.19-3.82-5.81c-0.21-0.7-0.82-2.81-1.64-6.62c-0.61-2.83,1.21-4.57,3.3-6.58
	c0.99-0.95,2.02-1.94,2.83-3.09c1.65-2.36,1.27-6.09,0.99-8.82c-0.08-0.81-0.19-1.86-0.16-2.38c0.97-0.16,2.18-0.13,3.37-0.1
	c1.88,0.05,3.81,0.1,5.21-0.6c1.98-0.99,5.13-3.36,5.13-5.49c0-1.01-0.6-1.71-1.24-2.46c-0.71-0.84-1.6-1.88-2.32-3.84
	c-1.55-4.25-7.38-4.85-10.13-4.89c-0.08-0.52,0.02-1.65,0.08-2.43c0.21-2.57,0.48-5.77-1.44-7.45c-0.36-0.31-0.88-0.35-1.27-0.08
	c-0.36,0.24-8.81,5.94-9.56,12.65c-0.41,3.73-0.82,6.46-2.24,7.58c-0.76,0.6-1.94,0.8-3.58,0.59c-5.99-0.75-20.05,1.41-25.22,12.85
	c-0.55,1.22-0.97,2.43-1.27,3.62C324.83,107.81,310.14,109.84,310.14,119.72z M330.68,104.77c4.64-10.28,17.77-12.29,23.05-11.63
	c2.23,0.28,3.92-0.06,5.14-1.02c2.06-1.63,2.55-4.75,3.02-8.99c0.52-4.64,5.79-9.02,7.83-10.56c0.58,1.25,0.4,3.4,0.26,5.04
	c-0.16,1.95-0.28,3.35,0.47,4.17c0.31,0.34,0.75,0.53,1.23,0.53c1.68,0,7.27,0.25,8.46,3.51c0.84,2.32,1.96,3.62,2.69,4.49
	c0.42,0.49,0.74,0.87,0.74,1.1c0,0.64-1.7,2.48-3.97,3.61c-0.93,0.47-2.6,0.42-4.22,0.38c-1.49-0.04-3.02-0.08-4.31,0.24
	c-1.47,0.37-1.29,2.12-1.03,4.55c0.25,2.4,0.58,5.68-0.62,7.4c-0.69,0.99-1.64,1.9-2.56,2.78c-2.23,2.14-4.75,4.56-3.9,8.53
	c1.05,4.9,1.75,7.02,1.78,7.11c0.06,0.18,0.17,0.34,0.31,0.46c1.4,1.2,2.7,2.61,3.2,3.4h-9.7c0.48-0.68,0.65-1.57,0.43-2.47
	c-0.35-1.47-1.73-2.94-4.11-3.36c0.57-2.17,1.31-6.63-0.83-10.51c-1.72-3.11-4.9-5.14-9.45-6.03c-0.57-0.11-1.12,0.26-1.23,0.83
	c-0.11,0.57,0.26,1.12,0.83,1.23c3.9,0.76,6.6,2.43,8.01,4.97c2.43,4.37,0.33,10.01,0.31,10.06c-0.12,0.32-0.08,0.69,0.12,0.97
	c0.2,0.28,0.52,0.45,0.86,0.45c2.08,0,3.23,0.93,3.45,1.86c0.05,0.23,0.12,0.78-0.42,1.05c-1.68,0.84-15.6,0.65-20.4-1.75
	C331.82,125.02,325.99,115.15,330.68,104.77z M312.23,119.72c0-7.41,11.33-9.55,14.82-10.03c-0.16,1.05-0.23,2.08-0.23,3.08
	c-5.81,0.74-9.82,2.93-10.48,5.78c-0.23,0.98-0.23,2.86,2.32,4.5c1.11,0.71,2.37,1.43,3.59,2.12c2.08,1.18,5.55,3.15,5.67,4.01h0
	c-0.02,0-0.16,0.18-0.72,0.42c-0.98,0.42-6.53,0.14-10.76-2.66C313.65,125.1,312.23,122.67,312.23,119.72z"/>
<path class="st0" d="M254.36,223.56c-2.55,3.51-2.36,8.55-0.87,11.51c0.95,1.89,2.43,2.99,4.07,3.01c0.02,0,0.03,0,0.05,0
	c1.28,0,3.13-0.66,4.77-3.73c2.44-4.59,0.72-9.87-1.27-15.99c-1.9-5.83-4.06-12.44-3.57-20.42c0.56-9.25,3.99-12.54,6.47-13.71
	c-3.35,16.24-1.06,28.47,6.84,36.37c5.28,5.28,4.54,9.63,3.53,15.65c-0.19,1.13-0.39,2.29-0.55,3.48
	c-1.03,7.76,0.39,19.02,2.86,22.74c1.25,1.88,3.61,2.54,5.92,2.54c1,0,1.99-0.13,2.88-0.33c3.47-0.79,5.74-2.69,6.08-5.09
	c0.21-1.45,0.08-4.42-0.16-9.54c-0.32-6.97-0.77-16.51,0.14-21.37c0.1-0.52,0.22-1.06,0.36-1.61c0.15-0.07,0.3-0.12,0.43-0.22
	c0.51-0.4,11.9-9.07,27.64,0.64c0.13,3.81,0.21,7.89,0.28,11.78c0.22,11.67,0.4,18.95,1.48,21.37c1.21,2.71,3.09,3.66,4.46,3.98
	c0.5,0.12,1,0.17,1.49,0.17c3.01,0,5.73-1.96,6.86-2.9c2.44-2.03,2.14-3.58,1.46-5.94c-0.56-1.93-1.5-5.17-1.75-11.95
	c-0.17-4.79,0.64-9.72,1.76-14.12c0.33,0.02,0.67,0.05,0.99,0.05c11.52,0,15.1-10.3,17.05-20.54c1.75-9.17,9.11-21.33,10.61-23.73
	c5.42,0.09,7.13,0.5,10.3,2.26c0.75,0.42,1.57,0.63,2.41,0.63c2.19,0,4.61-1.39,6.82-4c2.41-2.85,5.2-8.1,3-10.85
	c-0.9-1.13-2.26-2.11-3.83-3.26c-2.54-1.85-5.42-3.94-7.15-7.12c-2.23-4.09-8.93-16.3-22.72-12.42c-0.93-1.08-2.1-2.11-3.59-2.87
	c-3.33-1.7-7.3-1.65-11.8,0.15c-4.73,1.89-5.62,4.7-5.53,6.72c0.13,2.89,2.45,5.79,5.38,8.3c-3.87,1.71-15.16,6.01-30.57,5.68
	c-6.14-0.13-11.4-0.69-16.04-1.18c-13.29-1.41-22.19-2.32-26.24,12.02c-3.38,0.62-10.76,3.65-11.63,18.01
	c-0.53,8.75,1.85,16.06,3.77,21.93c1.78,5.45,3.18,9.76,1.55,12.81c-0.73,1.38-1.24,1.58-1.25,1.59c-0.01-0.08-0.51-0.69-0.83-1.93
	c-0.42-1.65-0.42-4.25,0.95-6.14c0.66-0.91,0.46-2.18-0.45-2.84C256.29,222.45,255.02,222.65,254.36,223.56z M268.65,182.03
	c3.01-12.37,8.25-11.82,22.25-10.32c4.72,0.5,10.08,1.07,16.39,1.2c20.26,0.39,33.49-6.55,34.04-6.85c0.08-0.05,0.14-0.12,0.21-0.18
	c3.43,2.3,6.89,3.94,8.41,4.4c0.19,0.06,0.39,0.09,0.58,0.09c0.88,0,1.68-0.57,1.95-1.45c0.32-1.07-0.29-2.21-1.36-2.53
	c-3.97-1.19-14.32-7.79-14.49-11.7c-0.05-1.03,0.95-1.96,2.97-2.76c3.35-1.34,6.19-1.45,8.42-0.32c3.47,1.75,4.6,6,4.61,6.05
	c0.28,1.08,1.39,1.73,2.47,1.47c1.08-0.28,1.74-1.37,1.47-2.46c-0.02-0.09-0.25-0.98-0.8-2.19c8.69-1.78,13.57,4.72,16.87,10.77
	c2.17,3.98,5.59,6.47,8.33,8.46c1.22,0.89,2.37,1.72,2.96,2.41c0.18,1.19-1.75,5.29-4.52,7.43c-0.49,0.38-1.72,1.22-2.47,0.81
	c-5.03-2.8-7.57-2.8-18.27-2.8c-8.92,0-10.65-7.71-10.72-8.04c-0.23-1.1-1.32-1.8-2.41-1.57c-1.1,0.23-1.8,1.31-1.57,2.41
	c0.82,3.9,4.95,11.27,14.69,11.27c0.44,0,0.85,0,1.26,0c-2.77,4.68-8.29,14.74-9.86,23c-2.31,12.12-6,17.14-12.9,17.22
	c1.88-6,3.97-10.26,4.01-10.34c0.5-1,0.09-2.23-0.91-2.73c-1.01-0.5-2.23-0.09-2.73,0.91c-0.32,0.64-7.85,15.88-7.33,30.46
	c0.26,7.29,1.33,10.97,1.9,12.94c0.14,0.49,0.3,1.03,0.33,1.27c-0.04,0.01-0.18,0.16-0.49,0.41c-1.72,1.43-3.62,2.18-4.83,1.9
	c-0.26-0.06-1.04-0.24-1.67-1.67c-0.8-1.8-0.98-11.78-1.13-19.8c-0.2-11.02-0.41-22.42-1.83-27.22c-0.32-1.07-1.43-1.7-2.52-1.38
	c-1.08,0.32-1.69,1.45-1.38,2.52c0.57,1.94,0.93,5.41,1.16,9.57c-11.44-6.03-20.92-3.61-25.99-1.31c2.55-6.64,6.15-13.37,6.2-13.46
	c0.53-0.99,0.16-2.22-0.83-2.75c-0.98-0.53-2.22-0.16-2.75,0.83c-0.3,0.55-7.28,13.59-8.85,21.94c-1,5.33-0.56,14.74-0.21,22.31
	c0.18,3.93,0.36,7.64,0.19,8.78c-0.05,0.37-0.97,1.25-2.96,1.7c-2.34,0.53-4.16,0.04-4.52-0.51c-1.57-2.35-3.22-12.44-2.22-19.95
	c0.15-1.15,0.34-2.26,0.52-3.34c1.04-6.11,2.11-12.44-4.66-19.2C266.38,210.4,264.67,198.39,268.65,182.03z"/>
<g>
	<path class="st0" d="M232.19,243.46c7.08,0,12.37-2.64,12.37-6.14v-23.41c0-3.5-5.29-6.14-12.37-6.14s-12.37,2.64-12.37,6.14v23.41
		C219.82,240.82,225.11,243.46,232.19,243.46z M222.07,237.39v-19.75c1.01,0.7,2.33,1.32,3.89,1.71v10.58
		c0,0.62,0.54,1.17,1.17,1.17c0.62,0,1.17-0.54,1.17-1.17v-10.11c1.24,0.16,2.49,0.23,3.81,0.23c2.02,0,3.97-0.23,5.6-0.62v21
		c-1.01,0.31-2.18,0.54-3.5,0.62v-11.59c0-0.62-0.54-1.17-1.17-1.17c-0.62,0-1.17,0.54-1.17,1.17v11.67
		C225.81,241.05,222.15,238.87,222.07,237.39z M242.14,213.83c0,0.93-1.24,2.02-3.5,2.8c-0.08,0-0.16,0.08-0.23,0.08
		c-1.63,0.54-3.81,0.93-6.3,0.93c-1.79,0-3.34-0.16-4.67-0.47c-0.08,0-0.08,0-0.16,0c-3.27-0.7-5.21-2.18-5.21-3.27
		c0-1.63,3.81-3.81,10.03-3.81C238.33,210.1,242.14,212.35,242.14,213.83z M240.04,239.49v-20.84c0.78-0.31,1.48-0.7,2.1-1.09v19.75
		C242.14,238.02,241.44,238.79,240.04,239.49z"/>
	<path class="st0" d="M237.47,213.91c0-2.02-2.72-3.03-5.37-3.03s-5.37,1.01-5.37,3.03s2.72,3.03,5.37,3.03
		C234.83,216.94,237.47,215.93,237.47,213.91z M235.06,213.91c-0.39,0.31-1.4,0.7-2.96,0.7c-1.56,0-2.57-0.47-2.96-0.7
		c0.39-0.31,1.4-0.7,2.96-0.7C233.74,213.21,234.75,213.6,235.06,213.91z"/>
	<path class="st0" d="M190.5,205.04v32.27c0,3.5,5.29,6.14,12.37,6.14c0.23,0,0.47,0,0.7,0c0.08,0,0.08,0,0.16,0
		c0.08,0,0.16,0,0.23,0c6.45-0.23,11.2-2.8,11.2-6.07v-32.27c0-3.5-5.29-6.14-12.37-6.14C195.71,198.97,190.42,201.54,190.5,205.04z
		 M192.68,237.39v-28.62c1.01,0.7,2.33,1.32,3.89,1.71v24.58c0,0.62,0.54,1.17,1.17,1.17c0.62,0,1.17-0.54,1.17-1.17v-24.11
		c1.24,0.16,2.49,0.23,3.81,0.23c2.02,0,3.97-0.23,5.6-0.62v21.7c0,0.62,0.54,1.17,1.17,1.17c0.62,0,1.17-0.54,1.17-1.17v-22.4
		c0.78-0.31,1.48-0.7,2.1-1.09v28.62c0,1.32-2.96,3.27-7.93,3.66v-11.51c0-0.62-0.54-1.17-1.17-1.17c-0.62,0-1.17,0.54-1.17,1.17
		v11.59C196.41,241.05,192.76,238.87,192.68,237.39z M192.76,204.96c0-1.63,3.81-3.81,10.03-3.81s10.03,2.26,10.03,3.81
		c0,0.93-1.24,2.02-3.5,2.8c-0.08,0-0.16,0.08-0.23,0.08c-1.63,0.54-3.81,0.93-6.3,0.93c-1.79,0-3.34-0.16-4.67-0.47
		c-0.08,0-0.08,0-0.16,0C194.62,207.61,192.76,206.21,192.76,204.96z"/>
	<path class="st0" d="M197.42,205.04c0,2.02,2.72,3.03,5.37,3.03s5.37-1.01,5.37-3.03s-2.72-3.03-5.37-3.03
		C200.07,202.01,197.42,203.02,197.42,205.04z M199.83,205.04c0.39-0.31,1.4-0.7,2.96-0.7c1.56,0,2.57,0.47,2.96,0.7
		c-0.39,0.31-1.4,0.7-2.96,0.7C201.23,205.74,200.22,205.35,199.83,205.04z"/>
</g>
<g>
	<path class="st0" d="M414.43,233.77l-4.36-3.24c-0.19-1.25-0.44-2.49-0.81-3.68l2.31-5.24c0.12-0.25,0.12-0.56-0.06-0.81
		s-0.44-0.44-0.69-0.44l-5.24-0.62c-0.81-1.06-1.75-2.12-2.74-3.06l-0.62-5.49c-0.06-0.31-0.19-0.56-0.44-0.69
		c-0.25-0.12-0.56-0.19-0.81-0.06l-4.55,2c-1.81-0.75-3.62-1.31-5.55-1.62l-3.24-4.43c-0.37-0.5-1.12-0.5-1.5,0l-3.3,4.49
		c-1.25,0.25-2.49,0.56-3.74,1l-5.18-2.24c-0.25-0.12-0.56-0.12-0.81,0.06c-0.25,0.12-0.44,0.44-0.44,0.69l-0.62,5.61
		c-0.94,0.81-1.87,1.68-2.68,2.68l-5.61,0.62c-0.31,0.06-0.56,0.19-0.69,0.44s-0.19,0.56-0.06,0.81l2.24,5.11
		c-0.44,1.25-0.81,2.56-1.06,3.87l-4.55,3.37c-0.25,0.19-0.37,0.44-0.37,0.75s0.12,0.56,0.37,0.75l4.49,3.3
		c0.25,1.31,0.56,2.68,1.06,3.93l-2.24,5.11c-0.12,0.25-0.12,0.56,0.06,0.81c0.19,0.25,0.44,0.44,0.69,0.44l5.49,0.62
		c0.87,1.06,1.87,2.06,2.87,2.93l0.62,5.55c0.06,0.31,0.19,0.56,0.44,0.69s0.56,0.19,0.81,0.06l5.05-2.18
		c1.31,0.5,2.62,0.87,3.99,1.06l3.3,4.49c0.19,0.25,0.44,0.37,0.75,0.37c0.31,0,0.56-0.12,0.75-0.37l3.3-4.43
		c1.25-0.19,2.49-0.56,3.68-0.94l5.3,2.31c0.25,0.12,0.56,0.12,0.81-0.06c0.25-0.12,0.44-0.44,0.44-0.69l0.62-5.61
		c0.94-0.75,1.81-1.62,2.62-2.56l5.8-0.69c0.31-0.06,0.56-0.19,0.69-0.44c0.12-0.25,0.19-0.56,0.06-0.81l-2.24-5.18
		c0.44-1.18,0.81-2.37,1.06-3.55l4.68-3.43c0.25-0.19,0.37-0.44,0.37-0.75S414.68,233.9,414.43,233.77z M408.38,237.39
		c-0.19,0.12-0.31,0.37-0.37,0.56c-0.25,1.37-0.69,2.68-1.18,3.99c-0.12,0.25-0.06,0.5,0,0.75l1.87,4.36l-4.93,0.56
		c-0.25,0-0.44,0.12-0.62,0.31c-0.87,1-1.87,2-2.93,2.81c-0.19,0.12-0.31,0.37-0.37,0.62l-0.56,4.74l-4.49-1.93
		c-0.25-0.12-0.5-0.12-0.69,0c-1.31,0.5-2.68,0.81-4.05,1.06c-0.25,0.06-0.44,0.19-0.62,0.37l-2.74,3.74l-2.74-3.74
		c-0.12-0.19-0.37-0.31-0.62-0.37c-1.5-0.25-2.93-0.62-4.36-1.18c-0.12-0.06-0.25-0.06-0.31-0.06c-0.12,0-0.25,0-0.37,0.06
		l-4.24,1.87l-0.5-4.68c0-0.25-0.12-0.44-0.31-0.62c-1.12-0.94-2.18-2-3.12-3.18c-0.12-0.19-0.37-0.31-0.62-0.37l-4.61-0.5l1.87-4.3
		c0.12-0.25,0.12-0.5,0-0.69c-0.5-1.37-0.94-2.87-1.12-4.3c-0.06-0.25-0.19-0.44-0.37-0.62l-3.74-2.81l3.8-2.81
		c0.19-0.12,0.31-0.37,0.37-0.62c0.25-1.43,0.62-2.87,1.18-4.24c0.06-0.25,0.06-0.5,0-0.69l-1.87-4.3l4.74-0.56
		c0.25,0,0.44-0.12,0.62-0.31c0.87-1.06,1.87-2.06,2.93-2.93c0.19-0.12,0.31-0.37,0.31-0.62l0.56-4.74l4.36,1.87
		c0.25,0.12,0.5,0.12,0.69,0c1.31-0.5,2.68-0.87,4.12-1.12c0.25-0.06,0.44-0.19,0.62-0.37l2.81-3.8l2.74,3.68
		c0.12,0.19,0.37,0.31,0.62,0.37c2,0.31,3.99,0.87,5.8,1.75c0.25,0.12,0.5,0.12,0.75,0l3.8-1.62l0.5,4.55
		c0,0.25,0.12,0.44,0.31,0.62c1.12,1,2.12,2.12,2.99,3.3c0.12,0.19,0.37,0.37,0.62,0.37l4.36,0.5l-1.93,4.43
		c-0.06,0.19-0.12,0.44,0,0.69c0.44,1.31,0.75,2.68,0.94,4.05c0.06,0.25,0.19,0.5,0.37,0.62l3.68,2.74L408.38,237.39z"/>
	<path class="st0" d="M386.93,215.75c-9.98,0-18.08,8.11-18.08,18.08c0,9.98,8.11,18.08,18.08,18.08c9.98,0,18.08-8.11,18.08-18.08
		C405.02,223.86,396.91,215.75,386.93,215.75z M386.93,250.05c-8.92,0-16.21-7.3-16.21-16.21s7.3-16.21,16.21-16.21
		c8.92,0,16.21,7.3,16.21,16.21S395.85,250.05,386.93,250.05z"/>
</g>
<g>
	<path class="st0" d="M386.28,331.01c0.88,0,1.66-0.29,2.24-0.88c0.88-0.88,1.56-2.73-0.39-6.34c-1.27-2.34-3.22-4.98-5.76-7.51
		c-2.83-2.83-6.83-5.86-9.95-6.73l0,0c0.1-0.59,0.1-1.27,0-1.85c3.12-0.78,7.12-3.9,9.95-6.73c2.44-2.54,4.49-5.17,5.76-7.51
		c1.95-3.71,1.27-5.46,0.39-6.34s-2.73-1.46-6.34,0.39c-2.34,1.27-4.98,3.22-7.51,5.76c-2.83,2.83-5.86,6.83-6.73,9.95l0,0
		c-0.59-0.1-1.27-0.1-1.85,0c-0.78-3.12-3.9-7.12-6.73-9.95c-2.54-2.44-5.17-4.49-7.51-5.76c-3.71-1.95-5.46-1.27-6.34-0.39
		c-3.03,3.03,2.44,10.05,6.15,13.76c2.83,2.83,6.83,5.86,9.95,6.73l0,0c-0.1,0.59-0.1,1.27,0,1.85c-3.12,0.78-7.12,3.9-9.95,6.73
		c-3.71,3.71-9.17,10.73-6.15,13.76c0.59,0.59,1.37,0.88,2.24,0.88c3.42,0,8.59-4.1,11.51-7.03c1.27-1.27,2.54-2.73,3.71-4.29
		l-0.68,38.94h9.47l-0.68-38.94c1.17,1.56,2.44,3.03,3.71,4.29C377.79,326.81,382.87,330.81,386.28,331.01z M366.08,313.93v-0.1l0,0
		c0.39,0.1,0.68,0.1,0.98,0.1c0.39,0,0.68,0,0.98-0.1v0.1l0.78,41.57h-3.51L366.08,313.93z M353.79,318.22
		c4-4.1,7.61-5.95,9.17-6.15l0.2,0.2v1.17c-0.59,1.85-2.44,4.88-5.86,8.29c-4.98,4.98-8.88,6.34-9.66,6.15
		C347.45,327.1,348.81,323.2,353.79,318.22z M363.35,304.46l-0.39,0.39c-1.46-0.2-5.07-2.05-9.17-6.15
		c-4.98-4.98-6.34-8.88-6.15-9.66c0.88-0.2,4.68,1.17,9.66,6.15C361.4,299.19,363.26,302.81,363.35,304.46z M367.55,305.93
		c0.68,0.1,1.27,0.49,1.66,1.07c0.39,0.59,0.49,1.27,0.39,1.95c-0.1,0.68-0.49,1.27-1.07,1.66c-0.59,0.39-1.27,0.49-1.95,0.39
		c-1.37-0.2-2.24-1.56-2.05-2.93c0.1-0.68,0.49-1.27,1.07-1.66c0.39-0.29,0.98-0.49,1.46-0.49
		C367.26,305.93,367.35,305.93,367.55,305.93z M380.23,298.61c-4,4.1-7.61,5.95-9.17,6.15l-0.39-0.39c0.2-1.46,2.05-5.07,6.15-9.17
		c4.98-4.98,8.88-6.34,9.66-6.15C386.77,289.83,385.31,293.73,380.23,298.61z M376.82,321.74c-3.42-3.42-5.27-6.44-5.86-8.29v-1.17
		l0.2-0.2c1.46,0.2,5.07,2.05,9.17,6.15c4.98,4.98,6.34,8.88,6.15,9.66C385.7,328.08,381.8,326.71,376.82,321.74z"/>
	<path class="st0" d="M311.15,288.17c2.83,2.83,6.83,5.86,9.95,6.73c-0.1,0.59-0.1,1.17,0,1.85l0,0c-3.12,0.78-7.12,3.9-9.95,6.73
		c-2.44,2.54-4.49,5.17-5.76,7.51c-1.95,3.71-1.27,5.46-0.39,6.34c0.49,0.49,1.17,0.88,2.24,0.88c0.98,0,2.24-0.39,4-1.27
		c2.34-1.27,4.98-3.22,7.51-5.76c1.27-1.27,2.54-2.73,3.71-4.29l-0.78,51.62h9.47l-0.78-51.62c1.07,1.56,2.44,3.03,3.71,4.29
		c2.54,2.44,5.17,4.49,7.51,5.76c1.66,0.98,3.03,1.27,4,1.27c1.07,0,1.76-0.39,2.24-0.88c0.88-0.88,1.56-2.73-0.39-6.34
		c-1.27-2.34-3.22-4.98-5.76-7.51c-2.83-2.83-6.83-5.86-9.95-6.73c0.1-0.59,0.1-1.17,0-1.85l0,0c3.12-0.78,7.12-3.9,9.95-6.73
		c2.44-2.54,4.49-5.17,5.76-7.51c1.95-3.71,1.27-5.46,0.39-6.34c-0.88-0.88-2.73-1.46-6.34,0.39c-2.34,1.27-4.98,3.22-7.51,5.76
		c-2.83,2.83-5.86,6.83-6.73,9.95c-0.59-0.1-1.27-0.1-1.85,0l0,0c-0.78-3.12-3.9-7.12-6.73-9.95c-2.54-2.44-5.17-4.49-7.51-5.76
		c-3.71-1.95-5.46-1.27-6.34-0.39c-0.88,0.88-1.56,2.73,0.39,6.34C306.46,283,308.51,285.63,311.15,288.17z M327.83,293.63
		c0.59,0.39,0.98,0.98,1.07,1.66c0.2,0.68,0,1.37-0.39,1.95s-0.98,0.98-1.66,1.07c-0.68,0.2-1.37,0-1.95-0.39
		c-0.59-0.39-0.98-0.98-1.07-1.66c-0.2-0.68,0-1.37,0.39-1.95c0.39-0.59,0.98-0.98,1.66-1.07c0.2,0,0.29,0,0.49,0
		C326.86,293.24,327.34,293.44,327.83,293.63z M339.54,285.92c-4,4.1-7.61,5.95-9.17,6.15l-0.39-0.39c0.2-1.46,2.05-5.07,6.15-9.17
		c4.98-4.98,8.88-6.34,9.66-6.15C345.98,277.24,344.62,281.04,339.54,285.92z M330.27,300.85v-1.17l0.2-0.2
		c1.46,0.2,5.07,2.05,9.17,6.15c4.98,4.98,6.34,8.88,6.15,9.66c-0.88,0.2-4.68-1.17-9.66-6.15
		C332.71,305.73,330.86,302.61,330.27,300.85z M325.39,301.24c0-0.1,0-0.1,0-0.1c0.29,0.1,0.68,0.1,0.98,0.1c0.39,0,0.68,0,0.98-0.1
		l0,0v0.1l0.78,54.26h-3.51L325.39,301.24z M313,305.64c4-4.1,7.61-5.95,9.17-6.15l0.2,0.2v1.17c-0.59,1.76-2.44,4.88-5.86,8.29
		c-4.98,4.98-8.88,6.34-9.66,6.15C306.66,314.42,308.02,310.61,313,305.64z M313,286.12c-4.98-4.98-6.34-8.88-6.15-9.66
		c0.88-0.2,4.68,1.17,9.66,6.15c4.1,4,5.95,7.61,6.15,9.17l-0.39,0.39C320.71,291.97,317.1,290.12,313,286.12z"/>
</g>
<path class="st0" d="M267.85,381c-3.27,2.32-6.81,6.27-9.68,9.95c1.91-13.22,5.04-26.03,10.36-33.12c2.32,1.5,4.63,2.18,7.09,2.18
	c4.09,0,8.04-2.04,11.18-6c5.45-6.68,6.54-25.62,6.68-27.8c0-0.55-0.41-1.23-0.82-1.64c-0.41-0.41-1.09-0.55-1.77-0.41
	c-2.04,0.55-20.31,5.72-25.76,12.54c-4.91,6.13-4.77,13.36,0.14,18.53c-6.13,8.04-9.54,22.35-11.45,36.66
	c-1.5-6-3.68-12.67-6.54-17.04c4.77-4.36,5.45-10.9,1.5-16.9c-4.5-6.68-20.72-12.95-22.49-13.63c-0.68-0.14-1.36-0.14-1.91,0.27
	c-0.55,0.41-0.95,0.95-0.95,1.64c0,1.91-0.55,19.22,3.82,25.89c2.86,4.22,6.81,6.41,10.9,6.41c1.77,0,3.68-0.41,5.59-1.36
	c4.36,6.81,7.5,21.94,8.45,28.21c-1.23,15.4-0.95,28.21-0.95,29.44c0,1.23,0.95,2.04,2.04,2.04l0,0c1.23,0,2.04-0.95,2.04-2.04
	c0-0.41-0.41-17.04,1.5-35.43c2.86-4.22,8.45-11.86,12.95-14.99c1.36,1.5,3,2.59,4.91,3c0.68,0.14,1.36,0.27,2.04,0.27
	c2.04,0,4.09-0.68,6.13-1.91c5.18-3.27,10.09-15.26,10.63-16.63c0.27-0.68,0.27-1.36-0.14-1.91c-0.41-0.55-0.95-0.95-1.64-0.95
	c-1.5,0-14.58-0.68-19.62,2.59c-2.59,1.77-4.36,4.09-4.91,6.68C266.76,377.46,267.04,379.23,267.85,381z M244.82,371.74l-10.9-16.49
	c-0.68-0.95-1.91-1.23-2.86-0.55c-0.95,0.68-1.23,1.91-0.55,2.86l10.9,16.49c-3.27,1.36-7.5,0.82-10.63-3.95
	c-2.59-3.95-3.13-14.45-3.13-20.58c5.59,2.32,15.13,6.95,17.72,10.9C248.5,365.33,247.28,369.28,244.82,371.74z M270.99,354.84
	l13.76-17.17c0.68-0.82,0.55-2.18-0.27-2.86c-0.82-0.68-2.18-0.55-2.86,0.27l-13.76,17.17c-2.73-3-3.68-7.63,0.41-12.81
	c3.41-4.22,14.45-8.31,20.85-10.36c-0.55,6.81-2.32,18.53-5.59,22.62C279.3,356.88,274.67,356.75,270.99,354.84z M273.58,382.64
	l10.22-6.54c0.95-0.68,1.23-1.91,0.68-2.86c-0.68-0.95-1.91-1.23-2.86-0.68l-10.22,6.54c-0.27-0.82-0.27-1.64-0.14-2.45
	c0.27-1.64,1.36-3,3.13-4.09c2.45-1.64,9.13-2.04,14.17-2.04c-2.04,4.63-5.31,10.36-7.77,11.99l0,0c-1.77,1.09-3.54,1.5-5.04,1.09
	C274.94,383.32,274.12,382.91,273.58,382.64z"/>
<g>
	<path class="st0" d="M208.86,372.44h-9.4c-0.6,0-1.13,0.53-1.13,1.13v33.54c-3.23,2.03-5.26,5.56-5.26,9.4
		c0,6.09,4.96,11.05,11.05,11.05c6.09,0,11.05-4.96,11.05-11.05c0-3.84-1.96-7.37-5.26-9.4v-33.54
		C209.99,372.89,209.47,372.44,208.86,372.44z M212.92,416.43c0,4.81-3.91,8.8-8.8,8.8c-4.81,0-8.8-3.91-8.8-8.8
		c0-3.23,1.8-6.24,4.66-7.75c0.38-0.23,0.6-0.6,0.6-0.98v-33.01h7.14v33.01c0,0.45,0.23,0.83,0.6,0.98
		C211.2,410.26,212.92,413.2,212.92,416.43z"/>
	<path class="st0" d="M205.25,412.59v-31.81c0-0.6-0.53-1.13-1.13-1.13c-0.6,0-1.13,0.53-1.13,1.13v31.81
		c-1.65,0.53-2.93,2.03-2.93,3.84c0,2.26,1.8,4.06,4.06,4.06c2.26,0,4.06-1.8,4.06-4.06C208.19,414.63,206.98,413.05,205.25,412.59z
		"/>
	<path class="st0" d="M216.38,402.67h5.64c0.6,0,1.13-0.53,1.13-1.13v-11.43h1.13c0.38,0,0.75-0.23,0.98-0.6s0.23-0.83,0-1.13
		l-5.11-8.27c-0.23-0.3-0.6-0.53-0.98-0.53s-0.75,0.23-0.98,0.53l-5.11,8.27c-0.23,0.38-0.23,0.75,0,1.13
		c0.23,0.38,0.6,0.6,0.98,0.6h1.13v11.43C215.26,402.14,215.71,402.67,216.38,402.67z M219.17,382.89l3.08,4.96h-0.23
		c-0.6,0-1.13,0.53-1.13,1.13v11.43h-3.38v-11.43c0-0.6-0.53-1.13-1.13-1.13h-0.23L219.17,382.89z"/>
</g>
<path class="st0" d="M186.27,378.1c0.66-3.29-0.27-8.3-0.31-8.51c-0.12-0.61-0.66-1.06-1.29-1.01c-8.95,0.54-10.44-3.32-10.5-3.49
	c-0.1-0.29-0.31-0.51-0.56-0.66c0.63-2.76,1.25-6.28,1.25-9.47c0-0.68-0.55-1.24-1.24-1.24c-0.08,0-6.66,0.09-10.36,6.58
	c-21.53-9.87-34.02-5.15-39.55-1.45c-3.47,2.32-6.08,5.44-7.67,9.06c-0.91-0.49-3.28-1.64-5.69-1.57c-0.07-0.06-0.15-0.12-0.23-0.18
	c-2.14-1.66-5.65-2.34-8.67-0.13c-0.55,0.4-0.67,1.18-0.27,1.73c0.4,0.55,1.18,0.67,1.73,0.27c1.47-1.08,3.01-1.1,4.26-0.67
	c-1.19,0.84-2.02,2.19-2.48,4.02c-1.22,4.87,0.45,6.19,1.56,6.55c0.26,0.09,0.54,0.13,0.82,0.13c1.91,0,4.12-1.91,5.23-4.68
	c0.57-1.42,0.56-2.93,0.03-4.3c1.2,0.32,2.29,0.86,2.81,1.18c0.01,0.01,0.02,0.01,0.03,0.01c-0.7,2.31-1.03,4.77-0.93,7.33
	c0.49,13.01,6.03,14.84,9.69,16.05c1.05,0.35,1.96,0.65,2.38,1.12c1.14,1.28,0.84,4.64,0.6,7.34c-0.2,2.24-0.37,4.18,0.08,5.53
	c0.47,1.42,1.83,2.37,3.83,2.7c0.5,0.08,1.04,0.12,1.58,0.12c1.96,0,4.02-0.52,4.79-1.54c0.81-1.08,0.63-2.65,0.36-5.03
	c-0.19-1.65-0.42-3.7-0.42-6.23c0-0.43,0.02-0.85,0.05-1.27c1.34,0.33,2.9,0.45,4.49,0.45c4.26,0,8.72-0.88,9.52-1.05
	c0.06,0.07,0.11,0.14,0.17,0.21c0.99,1.11,1.1,3.21,1.21,5.25c0.12,2.34,0.24,4.55,1.63,5.94c0.86,0.86,1.92,1.18,3,1.18
	c1.79,0,3.64-0.88,4.76-1.66c0.4-0.28,0.6-0.76,0.51-1.23c-0.82-4.58-0.46-9.29,0.03-12.6c9.23-1.81,22.79-13.56,23.38-14.08
	C186.08,378.61,186.22,378.37,186.27,378.1z M110,372.45c-0.93,2.34-2.6,3.25-2.99,3.12c-0.1-0.03-0.6-0.87,0.08-3.6
	c0.39-1.54,1.06-2.49,2.07-2.9c0.09-0.04,0.19-0.07,0.28-0.1C110.15,369.88,110.54,371.1,110,372.45z M183.92,377.21
	c-2.05,1.74-13.17,10.96-20.96,13.02c0.23-1.13,0.41-1.81,0.42-1.83c0.18-0.66-0.21-1.34-0.86-1.52c-0.66-0.18-1.34,0.2-1.52,0.86
	c-0.1,0.37-2.38,8.78-1.09,17.33c-1.13,0.6-3.02,1.31-3.95,0.37c-0.71-0.71-0.81-2.55-0.9-4.32c-0.12-2.34-0.27-5-1.83-6.76
	c-1.34-1.5-1.05-2.55-0.21-4.96c0.26-0.76,0.56-1.61,0.8-2.57c0.17-0.66-0.24-1.33-0.9-1.5c-0.66-0.16-1.33,0.24-1.5,0.9
	c-0.21,0.85-0.48,1.62-0.74,2.36c-0.57,1.66-1.12,3.25-0.69,4.93c-2.23,0.41-8.47,1.41-12.22,0.47c-0.08-0.02-0.16-0.01-0.24-0.01
	c0.72-3.74,2.24-6.5,2.26-6.53c0.34-0.6,0.12-1.35-0.47-1.68c-0.59-0.34-1.35-0.12-1.68,0.47c-0.12,0.21-2.94,5.3-2.94,11.43
	c0,2.67,0.24,4.8,0.44,6.51c0.15,1.31,0.34,2.93,0.12,3.26c-0.37,0.33-2.66,0.84-4.5,0.36c-0.53-0.14-1.2-0.42-1.38-0.93
	c-0.29-0.86-0.12-2.72,0.04-4.53c0.3-3.34,0.63-7.12-1.22-9.2c-0.86-0.97-2.12-1.38-3.45-1.82c-3.37-1.11-7.56-2.5-7.99-13.79
	c-0.26-6.81,2.79-12.86,8.37-16.58c8.68-5.8,22.21-5.19,37.14,1.65c-0.38,0.99-0.72,2.07-0.95,3.3c-0.13,0.67,0.31,1.32,0.98,1.45
	c0.68,0.13,1.32-0.31,1.45-0.98c1.47-7.55,6.31-9.47,8.64-9.96c-0.32,5.64-2.35,12.06-2.37,12.13c-0.21,0.65,0.15,1.35,0.8,1.56
	c0.13,0.04,0.25,0.06,0.38,0.06c0.52,0,1.01-0.34,1.18-0.86c0.03-0.09,0.23-0.74,0.51-1.74c1.36,1.6,4.38,3.74,10.87,3.58
	C183.91,372.56,184.2,375.23,183.92,377.21z"/>
<g>
	<path class="st0" d="M84.87,62.69c4.45,0,7.77-1.66,7.77-3.86V44.11c0-2.2-3.32-3.86-7.77-3.86s-7.77,1.66-7.77,3.86v14.71
		C77.1,61.02,80.42,62.69,84.87,62.69z M78.51,58.87V46.46c0.64,0.44,1.47,0.83,2.44,1.08v6.65c0,0.39,0.34,0.73,0.73,0.73
		c0.39,0,0.73-0.34,0.73-0.73v-6.35c0.78,0.1,1.56,0.15,2.4,0.15c1.27,0,2.49-0.15,3.52-0.39v13.2c-0.64,0.2-1.37,0.34-2.2,0.39
		v-7.28c0-0.39-0.34-0.73-0.73-0.73c-0.39,0-0.73,0.34-0.73,0.73v7.33C80.86,61.17,78.56,59.8,78.51,58.87z M91.12,44.06
		c0,0.59-0.78,1.27-2.2,1.76c-0.05,0-0.1,0.05-0.15,0.05c-1.03,0.34-2.4,0.59-3.96,0.59c-1.12,0-2.1-0.1-2.93-0.29
		c-0.05,0-0.05,0-0.1,0c-2.05-0.44-3.28-1.37-3.28-2.05c0-1.03,2.4-2.4,6.31-2.4S91.12,43.13,91.12,44.06z M89.8,60.19v-13.1
		c0.49-0.2,0.93-0.44,1.32-0.68v12.42C91.12,59.26,90.68,59.75,89.8,60.19z"/>
	<path class="st0" d="M88.19,44.11c0-1.27-1.71-1.91-3.37-1.91s-3.37,0.64-3.37,1.91s1.71,1.91,3.37,1.91
		C86.53,46.02,88.19,45.38,88.19,44.11z M86.68,44.11c-0.24,0.2-0.88,0.44-1.86,0.44s-1.61-0.29-1.86-0.44
		c0.24-0.2,0.88-0.44,1.86-0.44C85.85,43.67,86.48,43.91,86.68,44.11z"/>
	<path class="st0" d="M58.67,38.54v20.29c0,2.2,3.32,3.86,7.77,3.86c0.15,0,0.29,0,0.44,0c0.05,0,0.05,0,0.1,0c0.05,0,0.1,0,0.15,0
		c4.06-0.15,7.04-1.76,7.04-3.81V38.59c0-2.2-3.32-3.86-7.77-3.86C61.94,34.72,58.62,36.34,58.67,38.54z M60.03,58.87V40.88
		c0.64,0.44,1.47,0.83,2.44,1.08v15.45c0,0.39,0.34,0.73,0.73,0.73s0.73-0.34,0.73-0.73V42.25c0.78,0.1,1.56,0.15,2.4,0.15
		c1.27,0,2.49-0.15,3.52-0.39v13.64c0,0.39,0.34,0.73,0.73,0.73c0.39,0,0.73-0.34,0.73-0.73V41.57c0.49-0.2,0.93-0.44,1.32-0.68
		v17.99c0,0.83-1.86,2.05-4.99,2.3v-7.23c0-0.39-0.34-0.73-0.73-0.73c-0.39,0-0.73,0.34-0.73,0.73v7.28
		C62.38,61.17,60.08,59.8,60.03,58.87z M60.08,38.49c0-1.03,2.4-2.4,6.31-2.4c3.91,0,6.31,1.42,6.31,2.4c0,0.59-0.78,1.27-2.2,1.76
		c-0.05,0-0.1,0.05-0.15,0.05c-1.03,0.34-2.4,0.59-3.96,0.59c-1.12,0-2.1-0.1-2.93-0.29c-0.05,0-0.05,0-0.1,0
		C61.26,40.15,60.08,39.27,60.08,38.49z"/>
	<path class="st0" d="M63.02,38.54c0,1.27,1.71,1.91,3.37,1.91c1.66,0,3.37-0.64,3.37-1.91c0-1.27-1.71-1.91-3.37-1.91
		C64.68,36.63,63.02,37.27,63.02,38.54z M64.53,38.54c0.24-0.2,0.88-0.44,1.86-0.44c0.98,0,1.61,0.29,1.86,0.44
		c-0.24,0.2-0.88,0.44-1.86,0.44C65.41,38.98,64.78,38.73,64.53,38.54z"/>
</g>
<g>
	<path class="st0" d="M77.99,493.61h-2.7c-0.7-16.98-14.72-30.57-31.88-30.57c-11.58,0-22.3,6.36-27.96,16.55
		c-0.26,0.44-0.17,0.87,0,1.31c0.26,0.44,0.7,0.61,1.13,0.61h11.32c0.35,0,0.7-0.17,0.96-0.44c3.83-4.01,8.97-6.27,14.46-6.27
		c10.63,0,19.34,8.27,20.03,18.73h-2.61c-0.52,0-1.05,0.35-1.22,0.78s-0.09,1.05,0.35,1.39l8.62,8.27c0.26,0.26,0.61,0.35,0.87,0.35
		c0.26,0,0.61-0.09,0.87-0.35l8.62-8.27c0.35-0.35,0.52-0.96,0.35-1.39S78.51,493.61,77.99,493.61z M69.45,501.37l-5.31-5.14h0.7
		c0.7,0,1.31-0.61,1.31-1.31c0-12.46-10.19-22.65-22.65-22.65c-6.01,0-11.67,2.35-16.03,6.62h-8.45
		c5.4-8.19,14.55-13.24,24.48-13.24c16.11,0,29.27,13.15,29.27,29.27c0,0.7,0.61,1.31,1.31,1.31h0.7L69.45,501.37z"/>
	<path class="st0" d="M43.5,526.8c11.58,0,22.3-6.36,27.96-16.55c0.26-0.44,0.17-0.87,0-1.31s-0.7-0.61-1.13-0.61H59
		c-0.35,0-0.7,0.17-0.96,0.44c-3.83,4.01-8.97,6.27-14.55,6.27c-10.63,0-19.34-8.27-20.03-18.73h2.61c0.52,0,1.05-0.35,1.22-0.78
		s0.09-1.05-0.35-1.39l-8.62-8.27c-0.52-0.52-1.31-0.52-1.83,0l-8.62,8.27c-0.35,0.35-0.52,0.96-0.35,1.39s0.7,0.78,1.22,0.78h2.7
		C12.31,513.21,26.34,526.8,43.5,526.8z M17.45,488.48l5.31,5.14h-0.7c-0.7,0-1.31,0.61-1.31,1.31c0,12.46,10.19,22.65,22.65,22.65
		c6.1,0,11.76-2.35,16.03-6.62h8.54c-5.4,8.27-14.55,13.24-24.48,13.24c-16.11,0-29.27-13.15-29.27-29.27c0-0.7-0.61-1.31-1.31-1.31
		h-0.7L17.45,488.48z"/>
</g>
<g>
	<path class="st0" d="M524.77,10.92c-0.23-0.23-0.54-0.31-0.84-0.23c-0.77,0.08-18.72,2.23-29.08,14.96
		c-1.3,1.53-2.38,3.3-3.45,5.14c-1.15-2.38-2.53-4.68-4.3-6.83C476.73,11.3,458.77,9.16,458,9c-0.31,0-0.61,0.08-0.84,0.23
		c-0.23,0.23-0.38,0.46-0.38,0.77c-0.08,0.77-1.53,18.8,8.82,31.46c10.36,12.66,28.32,14.81,29.08,14.96c0.08,0,0.08,0,0.15,0l0,0
		l0,0c0,0,0,0,0.08,0c0,0,0,0,0.08,0s0.23,0,0.31-0.08c6.29-1.92,15.12-5.76,21.18-13.2c10.36-12.66,8.82-30.7,8.82-31.46
		C525.15,11.46,525,11.15,524.77,10.92z M467.37,40c-8.29-10.13-8.44-24.33-8.36-28.55c4.14,0.69,18.03,3.76,26.32,13.89
		c7.29,8.98,8.29,21.18,8.36,26.78l-23.94-29.39c-0.38-0.46-1.15-0.54-1.61-0.15s-0.54,1.15-0.15,1.61L492,53.59
		C486.47,52.44,474.66,48.98,467.37,40z M514.64,41.77c-5.29,6.45-12.74,10.05-18.57,11.97c0.08-1.3,0.08-3.22-0.15-5.53
		l18.19-22.25c0.38-0.46,0.31-1.23-0.15-1.61c-0.46-0.38-1.23-0.31-1.61,0.15l-16.73,20.49c-0.46-3.45-1.3-7.44-2.92-11.51
		c1.15-2.38,2.46-4.53,3.99-6.37c8.29-10.13,22.18-13.2,26.32-13.89C523.08,17.37,522.85,31.64,514.64,41.77z"/>
</g>
<g>
	<path class="st0" d="M490.71,381.69v48.99c-4.83,2.97-7.69,8.13-7.69,13.73c0,8.9,7.25,16.15,16.15,16.15s16.15-7.25,16.15-16.15
		c0-5.6-2.97-10.76-7.69-13.73v-48.99c0-0.88-0.77-1.65-1.65-1.65h-13.73C491.37,380.04,490.6,380.7,490.71,381.69z M493.02,432.98
		c0.55-0.22,0.88-0.77,0.88-1.43v-48.22h10.43v48.22c0,0.55,0.33,1.1,0.88,1.43c4.17,2.2,6.81,6.59,6.81,11.31
		c0,7.14-5.82,12.85-12.85,12.85c-7.14,0-12.85-5.82-12.85-12.85C486.32,439.57,488.84,435.29,493.02,432.98z"/>
	<path class="st0" d="M493.24,444.3c0,3.3,2.64,5.93,5.93,5.93c3.3,0,5.93-2.64,5.93-5.93c0-2.64-1.87-4.83-4.28-5.6v-46.46
		c0-0.88-0.77-1.65-1.65-1.65c-0.88,0-1.65,0.77-1.65,1.65v46.46C494.99,439.35,493.24,441.66,493.24,444.3z"/>
	<path class="st0" d="M483.02,422.55v-16.69h1.65c0.55,0,1.1-0.33,1.43-0.88c0.33-0.55,0.33-1.1,0-1.65l-7.47-12.08
		c-0.33-0.44-0.88-0.77-1.43-0.77c-0.55,0-1.1,0.33-1.43,0.77l-7.47,12.08c-0.33,0.44-0.33,1.1,0,1.65
		c0.33,0.55,0.88,0.88,1.43,0.88h1.65v16.69c0,0.88,0.77,1.65,1.65,1.65h8.24C482.25,424.2,482.91,423.43,483.02,422.55z
		 M481.59,402.56h-0.33c-0.88,0-1.65,0.77-1.65,1.65v16.69h-4.94v-16.69c0-0.88-0.77-1.65-1.65-1.65h-0.33l4.5-7.25L481.59,402.56z"
		/>
</g>
<path class="st0" d="M39.04,182.52c-2.15,0-4.37,0.37-6.36,1.04c-1.92,0.67-4,0.67-5.92,0c-2.07-0.67-4.22-1.04-6.36-1.04
	c-11.25,0-19.76,15.76-19.76,25.9c0,10.88,8.88,19.76,19.76,19.76c2.81,0,5.62-0.59,8.21-1.78v29.53c0,0.59,0.52,1.11,1.11,1.11
	s1.11-0.52,1.11-1.11v-29.53c2.59,1.18,5.4,1.78,8.21,1.78c10.88,0,19.76-8.88,19.76-19.76C58.8,198.21,50.36,182.52,39.04,182.52z
	 M39.04,225.96c-2.89,0-5.7-0.74-8.21-2.07v-2.07l11.84-11.84c0.44-0.44,0.44-1.11,0-1.55c-0.44-0.44-1.11-0.44-1.55,0l-10.29,10.29
	v-15.76c0-0.59-0.52-1.11-1.11-1.11s-1.11,0.52-1.11,1.11v8.95l-7.25-7.25c-0.44-0.44-1.11-0.44-1.55,0s-0.44,1.11,0,1.55l8.88,8.88
	v8.95c-2.52,1.33-5.33,2.07-8.21,2.07c-9.69,0-17.54-7.84-17.54-17.54c0-9.4,7.84-23.68,17.54-23.68c1.92,0,3.85,0.3,5.7,0.96
	c2.37,0.81,4.96,0.81,7.33,0c1.85-0.59,3.7-0.96,5.7-0.96c9.69,0,17.54,14.36,17.54,23.68C56.58,218.12,48.74,225.96,39.04,225.96z"
	/>
</svg>
