<?xml version="1.0" encoding="utf-8"?>
<!-- Generator: Adobe Illustrator 24.1.2, SVG Export Plug-In . SVG Version: 6.00 Build 0)  -->
<svg version="1.1" id="Layer_1" xmlns="http://www.w3.org/2000/svg" xmlns:xlink="http://www.w3.org/1999/xlink" x="0px" y="0px"
	 viewBox="0 0 162 114" style="enable-background:new 0 0 162 114;" xml:space="preserve">
<style type="text/css">
	.st0{fill:#C5D92D;}
	.st1{fill:#FFFFFF;}
	.st2{fill:none;stroke:#FFFFFF;stroke-width:3;stroke-linecap:round;stroke-linejoin:round;stroke-miterlimit:9.9999;}
	.st3{fill:#C5D92D;stroke:#FFFFFF;stroke-width:3;stroke-miterlimit:10;}
</style>
<path class="st0" d="M120.4,5.5H11.3c-2.9,0-7.5,0.7-5.9,3.4l29.5,45.9c2,1.7,2,3.7,0,5.4L5.4,106.1c-2.5,2.7,3.1,3.4,5.9,3.4h109.1
	c2.9,0,5.5-1,6.9-2.7l29.5-46.6c1.4-1.7,1.4-3.8,0-5.4L127.3,8.2C125.9,6.5,123.3,5.5,120.4,5.5z"/>
<g>
	<g>
		<path class="st1" d="M89.5,39.5c17.9,0,32.6,13.9,33.9,31.5h-14.6c-1.2-9.6-9.4-17-19.3-17s-18.1,7.4-19.3,17H55.5
			C56.8,53.4,71.5,39.5,89.5,39.5 M89.5,36.5c-20.4,0-37,16.6-37,37c0,0.2,0,0.3,0,0.5H73c0-0.2,0-0.3,0-0.5
			C73,64.3,80.3,57,89.5,57S106,64.3,106,73.5c0,0.2,0,0.3,0,0.5h20.5c0-0.2,0-0.3,0-0.5C126.5,53,109.9,36.5,89.5,36.5L89.5,36.5z"
			/>
	</g>
	<line class="st2" x1="89" y1="55" x2="89" y2="39"/>
	<line class="st2" x1="76" y1="60" x2="65" y2="49"/>
	<line class="st2" x1="103" y1="60" x2="113" y2="50"/>
	<path class="st3" d="M95.3,74.2c-1.8,3.4-6,4.8-9.4,3c-3.4-1.8-4.8-6-3-9.4c1.8-3.4,13.7-19.9,17.2-18.2
		C103.5,51.4,97.1,70.8,95.3,74.2z"/>
	<circle class="st1" cx="89.1" cy="71" r="2"/>
</g>
</svg>
