<?xml version="1.0" encoding="utf-8"?>
<!-- Generator: Adobe Illustrator 24.1.2, SVG Export Plug-In . SVG Version: 6.00 Build 0)  -->
<svg version="1.1" xmlns="http://www.w3.org/2000/svg" xmlns:xlink="http://www.w3.org/1999/xlink" x="0px" y="0px"
	 viewBox="0 0 760 925.3" style="enable-background:new 0 0 760 925.3;" xml:space="preserve">
<style type="text/css">
	.st0{clip-path:url(#SVGID_2_);}
	.st1{fill:url(#SVGID_3_);}
	.st2{fill:url(#SVGID_4_);}
	.st3{fill:url(#SVGID_5_);}
	.st4{fill:url(#SVGID_6_);}
	.st5{fill:url(#SVGID_7_);}
	.st6{fill:url(#SVGID_8_);}
	.st7{opacity:0.46;fill:#231F20;}
	.st8{opacity:0.22;fill:#FFFFFF;}
	.st9{fill:url(#SVGID_9_);}
	.st10{clip-path:url(#SVGID_2_);fill:url(#SVGID_10_);}
	.st11{fill:url(#SVGID_11_);}
	.st12{fill:url(#SVGID_12_);}
	.st13{fill:url(#SVGID_13_);}
	.st14{fill:url(#SVGID_14_);}
	.st15{fill:url(#SVGID_15_);}
	.st16{fill:url(#SVGID_16_);}
	.st17{fill:url(#SVGID_17_);}
	.st18{clip-path:url(#SVGID_2_);fill:url(#SVGID_18_);}
	.st19{fill:#FFFFFF;}
	.st20{fill:#FF0000;}
	.st21{clip-path:url(#SVGID_2_);fill:url(#SVGID_19_);}
	.st22{fill:url(#SVGID_20_);}
	.st23{fill:url(#SVGID_21_);}
	.st24{fill:url(#SVGID_22_);}
	.st25{fill:url(#SVGID_23_);}
	.st26{fill:url(#SVGID_24_);}
	.st27{fill:url(#SVGID_25_);}
	.st28{fill:url(#SVGID_26_);}
</style>
<g id="bg">
</g>
<g id="text">
</g>
<g id="arrow_1_">
</g>
<g id="dartBoard">
</g>
<g id="arrow">
	<g>
		<defs>
			<rect id="SVGID_1_" y="-19" width="760" height="944.3"/>
		</defs>
		<clipPath id="SVGID_2_">
			<use xlink:href="#SVGID_1_"  style="overflow:visible;"/>
		</clipPath>
		<g class="st0">
			
				<linearGradient id="SVGID_3_" gradientUnits="userSpaceOnUse" x1="1491.3134" y1="1337.8496" x2="1535.8466" y2="1313.848" gradientTransform="matrix(-0.4275 0.904 -0.904 -0.4275 2071.3723 -697.2303)">
				<stop  offset="0.5475" style="stop-color:#25A9E0"/>
				<stop  offset="0.8687" style="stop-color:#1B75BB"/>
			</linearGradient>
			<path class="st1" d="M265.6,167.3c0,0-30.3-92.9-76.9-71.8l9,29.2L265.6,167.3z"/>
			
				<linearGradient id="SVGID_4_" gradientUnits="userSpaceOnUse" x1="1524.0662" y1="1370.7159" x2="1545.0797" y2="1312.1093" gradientTransform="matrix(-0.4275 0.904 -0.904 -0.4275 2071.3723 -697.2303)">
				<stop  offset="0.5475" style="stop-color:#25A9E0"/>
				<stop  offset="0.8687" style="stop-color:#1B75BB"/>
			</linearGradient>
			<path class="st2" d="M261.3,165.2l3.6,3.6l0.7-1.6c0,0-38.5-86.2-87.4-66.2l-0.7,1.6l1.2-0.4l10,28.7L261.3,165.2z"/>
			
				<linearGradient id="SVGID_5_" gradientUnits="userSpaceOnUse" x1="1524.3356" y1="1323.3564" x2="1566.3627" y2="1308.7048" gradientTransform="matrix(-0.4275 0.904 -0.904 -0.4275 2071.3723 -697.2303)">
				<stop  offset="0.5475" style="stop-color:#25A9E0"/>
				<stop  offset="0.8687" style="stop-color:#1B75BB"/>
			</linearGradient>
			<path class="st3" d="M264.9,168.8c0,0-38.5-86.2-87.4-66.2l10.5,29.9L264.9,168.8z"/>
			
				<linearGradient id="SVGID_6_" gradientUnits="userSpaceOnUse" x1="1591.7444" y1="1319.7925" x2="1550.1027" y2="1314.3945" gradientTransform="matrix(-0.4275 0.904 -0.904 -0.4275 2071.3723 -697.2303)">
				<stop  offset="0.5475" style="stop-color:#25A9E0"/>
				<stop  offset="0.8687" style="stop-color:#1B75BB"/>
			</linearGradient>
			<path class="st4" d="M264.9,168.8c0,0-90.9,24.4-106.5-25.7l29.6-10.7L264.9,168.8z"/>
			
				<linearGradient id="SVGID_7_" gradientUnits="userSpaceOnUse" x1="1512.0554" y1="1194.3038" x2="1571.8187" y2="1195.075" gradientTransform="matrix(-0.4275 0.904 -0.904 -0.4275 2071.3723 -697.2303)">
				<stop  offset="0.5475" style="stop-color:#25A9E0"/>
				<stop  offset="0.8687" style="stop-color:#1B75BB"/>
			</linearGradient>
			<path class="st5" d="M393,228.4l6.4-13.6L266,162.4c-1.9-0.8-4.1,0.1-5,1.9l-0.7,1.4l-0.6,1.2c-0.9,2-0.2,4.3,1.8,5.4L386.5,242
				L393,228.4z"/>
			
				<linearGradient id="SVGID_8_" gradientUnits="userSpaceOnUse" x1="1537.3995" y1="1080.2285" x2="1571.1664" y2="1080.2285" gradientTransform="matrix(-0.4275 0.904 -0.904 -0.4275 2071.3723 -697.2303)">
				<stop  offset="6.424580e-02" style="stop-color:#B25800"/>
				<stop  offset="0.2318" style="stop-color:#CF8000"/>
				<stop  offset="0.4078" style="stop-color:#D38E00"/>
				<stop  offset="0.729" style="stop-color:#AA3800"/>
				<stop  offset="0.8352" style="stop-color:#AA3800"/>
				<stop  offset="1" style="stop-color:#D35600"/>
			</linearGradient>
			<path class="st6" d="M413.1,254.8l0.3,1c20.1,8.8,45.2,19.6,45.2,19.6l6.4-6l2.7-5.8l2.7-5.8l0.5-8.7c0,0-24.3-12.5-43.8-22.5
				l-1,0.4l-0.3-1c-12-6.2-22-11.3-22.8-11.6c-2.1-1-3.7,0.3-3.7,0.3l-6.4,13.6l-6.4,13.6c0,0,0.1,2.1,2.2,3.1
				c0.8,0.4,11,4.8,23.5,10.2L413.1,254.8z"/>
			<polygon class="st7" points="458.7,275.4 465.1,269.5 470.5,258 471,249.2 			"/>
			<polygon class="st8" points="413.5,255.8 413.1,254.8 426.2,227.1 427.2,226.8 			"/>
			<polygon class="st7" points="412.2,255.3 413.1,254.8 426.2,227.1 426,226.1 			"/>
			
				<linearGradient id="SVGID_9_" gradientUnits="userSpaceOnUse" x1="941.6018" y1="609.8746" x2="945.8337" y2="600.8818" gradientTransform="matrix(1 -2.600000e-03 2.600000e-03 1 -463.5161 -333.5793)">
				<stop  offset="0.2095" style="stop-color:#757575"/>
				<stop  offset="0.5866" style="stop-color:#FFFFFF"/>
				<stop  offset="0.8855" style="stop-color:#383838"/>
			</linearGradient>
			<path class="st9" d="M493.4,278.9c1-0.9,1.9-2.3,2.1-4.2c-0.1-0.1-0.2-0.1-0.3-0.2l-26.4-13l-1,2.1l-1,2.1l26.4,13
				C493.2,278.9,493.3,278.9,493.4,278.9z"/>
		</g>
		
			<linearGradient id="SVGID_10_" gradientUnits="userSpaceOnUse" x1="702.3741" y1="-257.4694" x2="881.342" y2="-324.931" gradientTransform="matrix(0.5876 -0.8091 0.8091 0.5876 63.331 1377.2087)">
			<stop  offset="0" style="stop-color:#231F20;stop-opacity:0"/>
			<stop  offset="1" style="stop-color:#000000;stop-opacity:0.3"/>
		</linearGradient>
		<path class="st10" d="M329.4,500c0,0.1-0.1,0.2-0.1,0.3l-8.5,24.3l-2.6-1.3l-6.3-0.1c0,0-8.5,21.1-15,37.3l0.3,0.8l-0.7,0.3
			c-3.9,9.7-7,17.5-7.2,18.1c-0.6,1.6,0.3,2.8,0.3,2.8l7,3.2l-7-3.2l-27.3,91.2c-0.1,0.5-0.1,0.9,0,1.3c-11,4.9-47.5,23.2-33.8,44.1
			l1.5-0.5c0.5,1.9,1.3,3.8,2.4,5.8l0.9,0.3l16.1-6.4l7.6,14.8c23.1-8.2,13.7-44.8,10.2-55.8c0.5-0.2,0.9-0.6,1.2-1.2l39.8-85
			l-8.8-4l8.8,4c0,0,1.4-0.2,2-1.7c0.2-0.6,3.1-8.4,6.6-18.1l-0.3-0.7l0.7-0.3c5.9-16.3,13.6-37.4,13.6-37.4v0l-4.3-5.2l-2.6-1.3
			l8.7-24.1c0-0.1,0-0.1,0.1-0.2C331.9,500.9,330.8,500.2,329.4,500z"/>
		<g class="st0">
			
				<linearGradient id="SVGID_11_" gradientUnits="userSpaceOnUse" x1="1599.016" y1="1388.9351" x2="1636.991" y2="1368.468" gradientTransform="matrix(-0.1605 0.987 -0.987 -0.1605 1690.3368 -951.4434)">
				<stop  offset="0.5475" style="stop-color:#25A9E0"/>
				<stop  offset="0.8687" style="stop-color:#1B75BB"/>
			</linearGradient>
			<path class="st11" d="M117.4,466.5c0,0-46.8-68.9-79.9-40.7l14.3,21.8L117.4,466.5z"/>
			
				<linearGradient id="SVGID_12_" gradientUnits="userSpaceOnUse" x1="1626.9454" y1="1416.9613" x2="1644.8644" y2="1366.9854" gradientTransform="matrix(-0.1605 0.987 -0.987 -0.1605 1690.3368 -951.4434)">
				<stop  offset="0.5475" style="stop-color:#25A9E0"/>
				<stop  offset="0.8687" style="stop-color:#1B75BB"/>
			</linearGradient>
			<path class="st12" d="M113.4,465.8l3.8,2.1l0.2-1.5c0,0-51.9-61.6-87.2-33.6l-0.2,1.5l0.9-0.6l15,21.1L113.4,465.8z"/>
			
				<linearGradient id="SVGID_13_" gradientUnits="userSpaceOnUse" x1="1627.1752" y1="1376.5762" x2="1663.0129" y2="1364.0823" gradientTransform="matrix(-0.1605 0.987 -0.987 -0.1605 1690.3368 -951.4434)">
				<stop  offset="0.5475" style="stop-color:#25A9E0"/>
				<stop  offset="0.8687" style="stop-color:#1B75BB"/>
			</linearGradient>
			<path class="st13" d="M117.2,467.9c0,0-51.9-61.6-87.2-33.6l15.6,22L117.2,467.9z"/>
			
				<linearGradient id="SVGID_14_" gradientUnits="userSpaceOnUse" x1="1684.6567" y1="1373.5371" x2="1649.1476" y2="1368.9341" gradientTransform="matrix(-0.1605 0.987 -0.987 -0.1605 1690.3368 -951.4434)">
				<stop  offset="0.5475" style="stop-color:#25A9E0"/>
				<stop  offset="0.8687" style="stop-color:#1B75BB"/>
			</linearGradient>
			<path class="st14" d="M117.2,467.9c0,0-68.7,41.4-93.3,4.1l21.8-15.7L117.2,467.9z"/>
			
				<linearGradient id="SVGID_15_" gradientUnits="userSpaceOnUse" x1="1616.7034" y1="1266.5287" x2="1667.6655" y2="1267.1863" gradientTransform="matrix(-0.1605 0.987 -0.987 -0.1605 1690.3368 -951.4434)">
				<stop  offset="0.5475" style="stop-color:#25A9E0"/>
				<stop  offset="0.8687" style="stop-color:#1B75BB"/>
			</linearGradient>
			<path class="st15" d="M236.2,486.5l2.1-12.7l-121.7-11.4c-1.7-0.2-3.3,1-3.6,2.8l-0.2,1.3l-0.2,1.1c-0.3,1.8,0.9,3.6,2.7,4
				l118.8,27.7L236.2,486.5z"/>
			
				<linearGradient id="SVGID_16_" gradientUnits="userSpaceOnUse" x1="1638.3153" y1="1169.2531" x2="1667.1093" y2="1169.2531" gradientTransform="matrix(-0.1605 0.987 -0.987 -0.1605 1690.3368 -951.4434)">
				<stop  offset="6.424580e-02" style="stop-color:#B25800"/>
				<stop  offset="0.2318" style="stop-color:#CF8000"/>
				<stop  offset="0.4078" style="stop-color:#D38E00"/>
				<stop  offset="0.729" style="stop-color:#AA3800"/>
				<stop  offset="0.8352" style="stop-color:#AA3800"/>
				<stop  offset="1" style="stop-color:#D35600"/>
			</linearGradient>
			<path class="st16" d="M259,503.4l0.5,0.7c18.6,2.4,41.7,5.4,41.7,5.4l3.9-6.4l0.9-5.4l0.9-5.4l-1.6-7.3c0,0-22.9-4.5-41.2-8.1
				l-0.7,0.5l-0.5-0.8c-11.3-2.2-20.7-4-21.4-4.2c-1.9-0.3-3,1.1-3,1.1l-2.1,12.7l-2.1,12.7c0,0,0.6,1.7,2.5,2
				c0.7,0.1,10.2,1.4,21.6,2.9L259,503.4z"/>
			<polygon class="st7" points="301.1,509.5 305,503.1 306.7,492.4 305.1,485.1 			"/>
			<polygon class="st8" points="259.5,504.1 259,503.4 263.2,477.6 263.9,477.1 			"/>
			<polygon class="st7" points="258.3,504 259,503.4 263.2,477.6 262.7,476.8 			"/>
			
				<linearGradient id="SVGID_17_" gradientUnits="userSpaceOnUse" x1="812.5203" y1="655.739" x2="816.1276" y2="648.0733" gradientTransform="matrix(0.9602 -0.2793 0.2793 0.9602 -645.3617 100.5604)">
				<stop  offset="0.2095" style="stop-color:#757575"/>
				<stop  offset="0.5866" style="stop-color:#FFFFFF"/>
				<stop  offset="0.8855" style="stop-color:#383838"/>
			</linearGradient>
			<path class="st17" d="M330.4,504.2c0.6-1,1-2.3,0.8-3.9c-0.1,0-0.2,0-0.3-0.1l-24.7-4.4l-0.3,2l-0.3,2l24.7,4.4
				C330.3,504.2,330.3,504.2,330.4,504.2z"/>
		</g>
		
			<linearGradient id="SVGID_18_" gradientUnits="userSpaceOnUse" x1="1108.6724" y1="477.6396" x2="1378.8651" y2="79.1046" gradientTransform="matrix(0.4206 -0.9072 0.9072 0.4206 -145.8607 1472.9924)">
			<stop  offset="0.2095" style="stop-color:#890000"/>
			<stop  offset="0.6788" style="stop-color:#C60000"/>
			<stop  offset="0.8911" style="stop-color:#890000"/>
		</linearGradient>
		<path class="st18" d="M832.4,18.4l0.5,0.9c-11-3.8-23.4-5.3-36.9-4.5c-111,6.6-273,175-376.7,376.3s-135.9,409.8-61.2,473.7
			c6.7,5.7,14.1,10.2,22,13.4l0,0l0.3,0.1c1.2,0.5,2.5,1,3.7,1.4l32.3,12l0,0c98,39.1,282.8-111.7,416.3-370.7
			C961.3,271,965.7,68.8,870.9,33.4l0,0L832.4,18.4z"/>
		<g class="st0">
			<path class="st19" d="M780,502.4C646.3,761.9,456.8,906.3,372.1,837.5C300.7,779.4,330,584.2,428,393.8S678.4,46.1,781.8,42
				C904.5,37.2,913.6,242.9,780,502.4z"/>
			<path class="st20" d="M358.1,864.8c-74.7-63.9-42.5-272.4,61.2-473.7S684.9,21.3,795.9,14.7c133.1-7.9,145.1,212.5,0.7,492.8
				S447.6,941.4,358.1,864.8z M767.8,69.3C672.1,71.2,529,217.8,437,396.5s-118.6,361.3-50.8,413.6
				c79.5,61.3,254.8-74.5,377.5-312.8S879.9,67.2,767.8,69.3z"/>
		</g>
		<g class="st0">
			<path class="st19" d="M713.3,481.8C623.5,656,494.3,760.9,432.1,721c-55.1-35.4-36.9-175,35.3-315.1s183-251,254.4-247.4
				C802.5,162.6,803,307.6,713.3,481.8z"/>
			<path class="st20" d="M418.1,748.3C358.9,708,379.6,555,457.9,403c78.3-152,199.3-274,278-271.8c89.8,2.6,91.9,162.1-7.6,355.2
				C628.8,679.6,485.5,794.3,418.1,748.3z M707.8,185.8c-64.1-4.7-165,95.6-230.7,223.1c-65.7,127.5-81.6,254-30.9,284.8
				c56.5,34.2,172.5-61.2,252.4-216.4C778.6,322,779.2,191,707.8,185.8z"/>
		</g>
		<g class="st0">
			<path class="st19" d="M651.4,462.7c-49,95.1-120.7,156.6-157.6,138.6c-34.5-16.9-25.7-97.8,17.5-181.8
				c43.3-84,108.9-147.4,148.9-141.3C703.1,284.8,700.4,367.6,651.4,462.7z"/>
			<path class="st20" d="M479.7,628.6C440.2,607.9,451,513.3,501,416.3c50-97.1,126.3-171.4,173.3-165.4
				c50.9,6.6,48.6,103.7-9.3,216S522.5,651,479.7,628.6z M646.1,305.5c-33-5.9-88,46.8-124.3,117.2c-36.2,70.4-43.2,137.9-14,151.2
				c30.9,14.1,90.1-37.3,130.3-115.4C678.3,380.6,681.1,311.7,646.1,305.5z"/>
		</g>
		<g class="st0">
			<path class="st20" d="M607.6,449.2c-20.1,39.1-49.9,65.7-66.1,59.5c-15.7-6-12.6-40.8,6.5-77.9s47.8-64,64.5-60
				C629.7,374.9,627.7,410.1,607.6,449.2z"/>
		</g>
		
			<linearGradient id="SVGID_19_" gradientUnits="userSpaceOnUse" x1="696.5338" y1="49.3092" x2="926.8033" y2="-37.4902" gradientTransform="matrix(0.5739 -0.8189 0.8189 0.5739 58.1784 1187.5605)">
			<stop  offset="0" style="stop-color:#231F20;stop-opacity:0"/>
			<stop  offset="1" style="stop-color:#000000;stop-opacity:0.6"/>
		</linearGradient>
		<path class="st21" d="M574.2,441.3c0,0.1-0.1,0.3-0.1,0.4l-10.5,31.4l-3.4-1.6l-8.1,0c0,0-10.4,27.3-18.4,48.3l0.4,1l-0.9,0.4
			c-4.8,12.5-8.6,22.7-8.9,23.5c-0.7,2.1,0.5,3.6,0.5,3.6l9.1,3.9l-9.1-3.9l-33.2,117.9c-0.2,0.6-0.1,1.2,0,1.7
			c-14.1,6.6-60.6,30.9-42.5,57.4l1.9-0.7c0.7,2.5,1.7,4.9,3.3,7.4l1.2,0.4l20.5-8.6l10.1,18.8c29.6-11.1,16.6-57.9,11.9-72.1
			c0.7-0.3,1.2-0.8,1.5-1.5l49.3-110.2l-11.4-4.9l11.4,4.9c0,0,1.8-0.2,2.5-2.3c0.3-0.8,3.8-10.9,8.1-23.5l-0.4-0.9l0.9-0.4
			c7.3-21.1,16.7-48.4,16.7-48.4v0l-5.6-6.6l-3.4-1.6l10.6-31.2c0-0.1,0.1-0.1,0.1-0.2C577.4,442.5,576.1,441.5,574.2,441.3z"/>
		<g class="st0">
			
				<linearGradient id="SVGID_20_" gradientUnits="userSpaceOnUse" x1="1316.4601" y1="1305.6031" x2="1373.0874" y2="1275.0833" gradientTransform="matrix(-0.1273 0.9919 -0.9919 -0.1273 1635.5526 -833.6278)">
				<stop  offset="0.5475" style="stop-color:#DC0000"/>
				<stop  offset="0.8855" style="stop-color:#7C0000"/>
			</linearGradient>
			<path class="st22" d="M257.4,396.6c0,0-73.2-100.4-121.2-56.6l22.4,31.8L257.4,396.6z"/>
			
				<linearGradient id="SVGID_21_" gradientUnits="userSpaceOnUse" x1="1358.1074" y1="1347.3943" x2="1384.8274" y2="1272.8724" gradientTransform="matrix(-0.1273 0.9919 -0.9919 -0.1273 1635.5526 -833.6278)">
				<stop  offset="0.5475" style="stop-color:#FF2400"/>
				<stop  offset="0.8855" style="stop-color:#B20000"/>
			</linearGradient>
			<path class="st23" d="M251.5,395.8l5.7,3l0.3-2.2c0,0-80.5-89.2-131.7-45.8l-0.3,2.2l1.2-0.9l23.4,30.8L251.5,395.8z"/>
			
				<linearGradient id="SVGID_22_" gradientUnits="userSpaceOnUse" x1="1358.4501" y1="1287.1741" x2="1411.8909" y2="1268.5432" gradientTransform="matrix(-0.1273 0.9919 -0.9919 -0.1273 1635.5526 -833.6278)">
				<stop  offset="0.5475" style="stop-color:#FF0000"/>
				<stop  offset="0.8855" style="stop-color:#B20000"/>
			</linearGradient>
			<path class="st24" d="M257.2,398.7c0,0-80.5-89.2-131.7-45.8l24.4,32L257.2,398.7z"/>
			
				<linearGradient id="SVGID_23_" gradientUnits="userSpaceOnUse" x1="1444.1639" y1="1282.6426" x2="1391.2156" y2="1275.7789" gradientTransform="matrix(-0.1273 0.9919 -0.9919 -0.1273 1635.5526 -833.6278)">
				<stop  offset="0.5475" style="stop-color:#DC0000"/>
				<stop  offset="0.8855" style="stop-color:#B20000"/>
			</linearGradient>
			<path class="st25" d="M257.2,398.7c0,0-100.3,65.2-138.9,10.8l31.6-24.5L257.2,398.7z"/>
			
				<linearGradient id="SVGID_24_" gradientUnits="userSpaceOnUse" x1="1342.8394" y1="1123.0764" x2="1418.8318" y2="1124.057" gradientTransform="matrix(-0.1273 0.9919 -0.9919 -0.1273 1635.5526 -833.6278)">
				<stop  offset="0.5475" style="stop-color:#FF0000"/>
				<stop  offset="0.8855" style="stop-color:#940000"/>
			</linearGradient>
			<path class="st26" d="M435.5,420.4l2.4-19l-181.9-11c-2.6-0.2-4.9,1.7-5.3,4.3l-0.2,1.9l-0.2,1.7c-0.4,2.7,1.5,5.3,4.2,5.8
				L433,439.4L435.5,420.4z"/>
			
				<linearGradient id="SVGID_25_" gradientUnits="userSpaceOnUse" x1="1375.066" y1="978.023" x2="1418.0024" y2="978.023" gradientTransform="matrix(-0.1273 0.9919 -0.9919 -0.1273 1635.5526 -833.6278)">
				<stop  offset="6.424580e-02" style="stop-color:#B25800"/>
				<stop  offset="0.2318" style="stop-color:#CF8000"/>
				<stop  offset="0.4078" style="stop-color:#D38E00"/>
				<stop  offset="0.729" style="stop-color:#AA3800"/>
				<stop  offset="0.8352" style="stop-color:#AA3800"/>
				<stop  offset="1" style="stop-color:#D35600"/>
			</linearGradient>
			<path class="st27" d="M470.3,444.5l0.8,1.1c27.8,2.7,62.4,6,62.4,6l5.4-9.7l1-8l1-8l-2.8-10.8c0,0-34.3-5.5-61.9-10l-1,0.8
				l-0.7-1.1c-17-2.7-31-5-32.1-5.1c-2.9-0.4-4.4,1.8-4.4,1.8l-2.4,19l-2.4,19c0,0,0.9,2.5,3.8,2.8c1.1,0.1,15.3,1.5,32.4,3.2
				L470.3,444.5z"/>
			<polygon class="st7" points="533.4,451.5 538.8,441.8 540.9,425.8 538.1,415 			"/>
			<polygon class="st8" points="471,445.6 470.3,444.5 475.2,405.9 476.2,405 			"/>
			<polygon class="st7" points="469.3,445.4 470.3,444.5 475.2,405.9 474.5,404.7 			"/>
			
				<linearGradient id="SVGID_26_" gradientUnits="userSpaceOnUse" x1="1114.5162" y1="519.1325" x2="1119.8972" y2="507.6979" gradientTransform="matrix(0.9503 -0.3114 0.3114 0.9503 -662.5854 295.087)">
				<stop  offset="0.2095" style="stop-color:#757575"/>
				<stop  offset="0.5866" style="stop-color:#FFFFFF"/>
				<stop  offset="0.8855" style="stop-color:#383838"/>
			</linearGradient>
			<path class="st28" d="M576.7,442.1c0.9-1.5,1.4-3.5,0.9-5.9c-0.1,0-0.3,0-0.4-0.1l-37-5.4l-0.4,3l-0.4,3l37,5.4
				C576.6,442.1,576.7,442.1,576.7,442.1z"/>
		</g>
	</g>
</g>
</svg>
